"id"	"name"	"date"	"title"	"content"
"1"	"구루까까"	"2019-08-20"	"집행검팝니다"	"1"
"2"	"구루까까"	"2019-08-20"	"ㅎㅎㅎ"	"1"
"3"	"구루까까"	"2019-08-20"	"다덤벼라"	"3"
"4"	"구루까까"	"2019-08-20"	"다덤비라고 ㅎㅎ"	"1"
"5"	"구루까까"	"2019-08-20"	"ㅎㅎㅎㅎ"	"1"
"6"	"구루까까"	"2019-08-20"	"아데나삽니다~"	"1"
"7"	"구루까까"	"2019-08-20"	"이되자나?"	"1"
"8"	"지엠투"	"2019-08-20"	"덤벼봐어디"	"1"
"9"	"지엠투"	"2019-08-20"	"2332"	"2"
