"item_namenumber"	"name"	"msg_number"	"msg_number_sub"	"type"
"16671003"	"낡은 Amulet of Dexterity"	"307"	"0"	"Armor"
"938"	"Helm of Magic: Healing"	"292"	"0"	"Armor"
"940"	"Helm of Magic: Power"	"293"	"0"	"Armor"
"1008"	"Helm of Infravision"	"304"	"0"	"Armor"
"16671002"	"낡은 Amulet of Strength"	"306"	"0"	"Armor"
"1002"	"Amulet of Strength"	"306"	"0"	"Armor"
"939"	"Helm of Magic: Speed"	"291"	"0"	"Armor"
"922"	"Silver Knight Shield"	"289"	"0"	"Armor"
"516"	"Magic Resistance Chain Mail"	"167"	"0"	"Armor"
"569"	"Helmet of Magic Resistance"	"229"	"0"	"Armor"
"790"	"Blessed of Elm"	"275"	"0"	"Armor"
"795"	"Power Gloves"	"280"	"0"	"Armor"
"828"	"Saiha's Amulet"	"282"	"0"	"Armor"
"797"	"Necklace of Doppelganger"	"282"	"0"	"Armor"
"180"	"Cloak of Invisibility"	"110"	"0"	"Armor"
"182"	"Cloak of Magic Resistance"	"111"	"0"	"Armor"
"187"	"Elven Shield"	"15845"	"0"	"Armor"
"196"	"Shield of Reflection"	"119"	"0"	"Armor"
"329"	"Boots"	"128"	"0"	"Armor"
"330"	"Gloves"	"129"	"0"	"Armor"
"413"	"Crown"	"139"	"0"	"Armor"
"414"	"Knight Visor"	"140"	"0"	"Armor"
"429"	"Tower Shield"	"155"	"0"	"Armor"
"20559"	"검은 별의 각반"	"22"	"0"	"Armor"
"20558"	"마법 방어 각반"	"22"	"0"	"Armor"
"20556"	"Iron 각반"	"22"	"0"	"Armor"
"20657"	"16th Anniversary Iron 각반"	"15897"	"0"	"Armor"
"170"	"Elven Cloak"	"105"	"0"	"Armor"
"241"	"Teleport Control Ring"	"15847"	"0"	"Armor"
"261"	"Polymorph Control Ring"	"15846"	"0"	"Armor"
"152"	"Plate Mail"	"91"	"0"	"Armor"
"168"	"T-shirt"	"104"	"0"	"Armor"
"1003"	"Amulet of Dexterity"	"307"	"0"	"Armor"
"1004"	"Amulet of Constitution"	"308"	"0"	"Armor"
"16671004"	"낡은 Amulet of Constitution"	"308"	"0"	"Armor"
"16671005"	"낡은 Amulet of Intelligence"	"309"	"0"	"Armor"
"1005"	"Amulet of Intelligence"	"309"	"0"	"Armor"
"1006"	"Amulet of Wisdom"	"310"	"0"	"Armor"
"16671006"	"낡은 Amulet of Wisdom"	"310"	"0"	"Armor"
"1007"	"Amulet of Charisma"	"311"	"0"	"Armor"
"16671007"	"낡은 Amulet of Charisma"	"311"	"0"	"Armor"
"1013"	"Amulet of Orc Warrior"	"15851"	"0"	"Armor"
"14241"	"젤라틴 Amulet of Wisdom"	"13956"	"0"	"Armor"
"14240"	"젤라틴 Amulet of Constitution"	"13955"	"0"	"Armor"
"141"	"수룡 Scale Mail"	"403"	"0"	"Armor"
"142"	"지룡 Scale Mail"	"404"	"0"	"Armor"
"137"	"Fire Dragon Scale Mail"	"405"	"0"	"Armor"
"138"	"풍룡 Scale Mail"	"406"	"0"	"Armor"
"16671669"	"낡은 Belt of Body"	"502"	"0"	"Armor"
"16671670"	"낡은 Belt of Mind"	"503"	"0"	"Armor"
"16671671"	"낡은 Belt of Soul"	"504"	"0"	"Armor"
"1805"	"Demon Gloves"	"552"	"0"	"Armor"
"1807"	"Demon Boots"	"554"	"0"	"Armor"
"1808"	"Demon Helmet"	"555"	"0"	"Armor"
"1903"	"Elven Dexterity Helmet"	"631"	"0"	"Armor"
"1933"	"Forgotten Plate Mail"	"654"	"0"	"Armor"
"1934"	"Forgotten Leather Armor"	"655"	"0"	"Armor"
"1935"	"Forgotten Robe"	"656"	"0"	"Armor"
"1936"	"Forgotten Scale Mail"	"657"	"0"	"Armor"
"1937"	"Summon Control Ring"	"658"	"0"	"Armor"
"1941"	"Old Helm of Wind"	"662"	"0"	"Armor"
"1942"	"Helm of Wind"	"663"	"0"	"Armor"
"2035"	"Red Knight Shield"	"666"	"0"	"Armor"
"1946"	"Ancient Plate Mail"	"667"	"0"	"Armor"
"1947"	"Ancient Leather Armor"	"668"	"0"	"Armor"
"1948"	"Ancient Robe"	"669"	"0"	"Armor"
"1949"	"Ancient Scale Mail"	"670"	"0"	"Armor"
"2075"	"Elven T-Shirt"	"705"	"0"	"Armor"
"2094"	"Magical Armor of Fafurion"	"716"	"0"	"Armor"
"2095"	"Magical Armor of Antharas"	"717"	"0"	"Armor"
"2096"	"Magical Armor of Valakas"	"718"	"0"	"Armor"
"2097"	"Magical Armor of Lindvior"	"719"	"0"	"Armor"
"2249"	"Gloves of Protection"	"768"	"0"	"Armor"
"2250"	"Cloak of Mana"	"769"	"0"	"Armor"
"2251"	"Belt of Bravery"	"770"	"0"	"Armor"
"2351"	"Mana Crystal Ball"	"788"	"0"	"Armor"
"2410"	"Shadow Mask"	"816"	"0"	"Armor"
"2412"	"Shadow Gloves"	"818"	"0"	"Armor"
"2423"	"Shadow Boots"	"829"	"0"	"Armor"
"2452225"	"Dark Cloak"	"869"	"0"	"Armor"
"24522466"	"Dark Robe"	"870"	"0"	"Armor"
"2452330"	"Dark Gloves"	"871"	"0"	"Armor"
"24522468"	"Dark Headband"	"872"	"0"	"Armor"
"2452329"	"Dark Boots"	"873"	"0"	"Armor"
"2454225"	"Silver Cloak"	"874"	"0"	"Armor"
"2470225"	"열화의 Cloak"	"875"	"0"	"Armor"
"2471225"	"물결의 Cloak"	"876"	"0"	"Armor"
"2472225"	"Wind Cloak"	"877"	"0"	"Armor"
"2473225"	"Earth Cloak"	"878"	"0"	"Armor"
"2601"	"Shining Belt of Body"	"936"	"0"	"Armor"
"2602"	"Shining Belt of Mind"	"937"	"0"	"Armor"
"2603"	"Shining Belt of Soul"	"938"	"0"	"Armor"
"2714"	"Aden Knight's Cloak"	"975"	"0"	"Armor"
"2744"	"Dark Elder Robe"	"978"	"0"	"Armor"
"2745"	"Dark Elder Sandals"	"979"	"0"	"Armor"
"2746"	"Cap of Balthazar"	"980"	"0"	"Armor"
"2747"	"Cap of Kasper"	"981"	"0"	"Armor"
"2748"	"Cap of Melchior"	"982"	"0"	"Armor"
"2749"	"Cap of Semar"	"983"	"0"	"Armor"
"2752"	"Alluring Ice Queen Sandals"	"986"	"0"	"Armor"
"2753"	"Alluring Ice Queen Dress"	"987"	"0"	"Armor"
"2755"	"Doppelganger Boss Left Ring"	"989"	"0"	"Armor"
"2756"	"Doppelganger Boss Right Ring"	"990"	"0"	"Armor"
"2757"	"Doppelganger Boss Necklace"	"991"	"0"	"Armor"
"2765"	"Armor of Baphomet"	"999"	"0"	"Armor"
"2767"	"Boots of Beleth"	"1001"	"0"	"Armor"
"2769"	"Ant Queen Golden Wing"	"1003"	"0"	"Armor"
"2770"	"Ant Queen Silver Wing"	"1004"	"0"	"Armor"
"2773"	"Kurtz's Gloves"	"1007"	"0"	"Armor"
"2774"	"Kurtz's Armor"	"1008"	"0"	"Armor"
"2775"	"Kurtz's Boots"	"1009"	"0"	"Armor"
"2776"	"Kurtz's Helmet"	"1010"	"0"	"Armor"
"2651"	"Mask of Truth"	"1051"	"0"	"Armor"
"2910"	"Lastavard Chain Mail"	"1085"	"0"	"Armor"
"2916"	"Lastavard Leather Armor"	"1086"	"0"	"Armor"
"2911"	"Lastavard Studded Leather Armor"	"1087"	"0"	"Armor"
"2912"	"Lastavard Robe"	"1088"	"0"	"Armor"
"2913"	"Lastavard Boots"	"1089"	"0"	"Armor"
"2914"	"Lastavard Round Shield"	"1090"	"0"	"Armor"
"2918"	"Wolf Skin Cloak"	"1091"	"0"	"Armor"
"3008"	"Guardian's Ring"	"1113"	"0"	"Armor"
"3022"	"\aFMummy Lord Crown"	"1123"	"0"	"Armor"
"3074"	"Baranka Armor"	"1162"	"0"	"Armor"
"3075"	"Baranka Helmet"	"1163"	"0"	"Armor"
"3076"	"Baranka Gloves"	"1164"	"0"	"Armor"
"3077"	"Baranka Boots"	"1165"	"0"	"Armor"
"3079"	"Laia's Necklace"	"1167"	"0"	"Armor"
"3080"	"Laia's Ring"	"1168"	"0"	"Armor"
"3081"	"Laia's Robe"	"1169"	"0"	"Armor"
"3083"	"Beast Summoner's Necklace"	"1171"	"0"	"Armor"
"3084"	"Beast Summoner's Robe"	"1172"	"0"	"Armor"
"3087"	"Black Wizard's Necklace"	"1175"	"0"	"Armor"
"3088"	"Black Wizard's Robe"	"1176"	"0"	"Armor"
"3091"	"Dark Forester's Boots"	"1179"	"0"	"Armor"
"3092"	"Dark Forester's Armor"	"1180"	"0"	"Armor"
"3097"	"Payment for Death"	"1185"	"0"	"Armor"
"3108"	"Plateworm Skin Armor"	"1196"	"0"	"Armor"
"3109"	"Black Tiger Leather Cloak"	"1197"	"0"	"Armor"
"9167"	"근거리 공격 룬"	"1205"	"0"	"Armor"
"9170"	"Hit Bonus 룬"	"1205"	"0"	"Armor"
"9174"	"Wind 방어 룬"	"1205"	"0"	"Armor"
"9173"	"Fire 방어 룬"	"1205"	"0"	"Armor"
"9176"	"Earth 방어 룬"	"1205"	"0"	"Armor"
"9175"	"Water 방어 룬"	"1205"	"0"	"Armor"
"9171"	"원거리 명중 룬"	"1205"	"0"	"Armor"
"9169"	"마법 공격 룬"	"1205"	"0"	"Armor"
"9172"	"마법 명중 룬"	"1205"	"0"	"Armor"
"9168"	"원거리 공격 룬"	"1205"	"0"	"Armor"
"3251"	"Mambo Coat"	"1286"	"0"	"Armor"
"3252"	"Mambo Hat"	"1287"	"0"	"Armor"
"3253"	"Gloves of Fire Spirit"	"1288"	"0"	"Armor"
"3254"	"Gloves of Water Spirit"	"1289"	"0"	"Armor"
"3255"	"Gloves of Wind Spirit"	"1290"	"0"	"Armor"
"3256"	"Gloves of Earth Spirit"	"1291"	"0"	"Armor"
"3257"	"Abyss Ring"	"1292"	"0"	"Armor"
"3289"	"Novice Leather Helmet"	"1330"	"0"	"Armor"
"3290"	"Novice Leather Armor"	"1331"	"0"	"Armor"
"3291"	"Novice Leather Sandals"	"1332"	"0"	"Armor"
"3292"	"Novice Leather Gloves"	"1333"	"0"	"Armor"
"3293"	"Novice Leather Shield"	"1334"	"0"	"Armor"
"3294"	"Novice Silver Ring"	"1335"	"0"	"Armor"
"3295"	"상아탑의 T-shirt"	"1336"	"0"	"Armor"
"3343"	"Tarak Robe"	"1379"	"0"	"Armor"
"3344"	"Tarak Gloves"	"1380"	"0"	"Armor"
"3345"	"Tarak Cloak"	"1381"	"0"	"Armor"
"3346"	"Tarak Boots"	"1382"	"0"	"Armor"
"3373"	"Varlok Blood-Colored Cloak"	"1409"	"0"	"Armor"
"3495"	"Blue Pirate Bandanna"	"1449"	"0"	"Armor"
"3496"	"Blue Pirate Gloves"	"1487"	"0"	"Armor"
"3497"	"Blue Pirate Boots"	"1488"	"0"	"Armor"
"3498"	"Cloak of Sea"	"1489"	"0"	"Armor"
"3499"	"Blue Pirate Leather Armor"	"1490"	"0"	"Armor"
"3500"	"Skeleton Necklace"	"1491"	"0"	"Armor"
"3501"	"Cursed Ruby Ring"	"1492"	"0"	"Armor"
"3502"	"Cursed Sapphire Ring"	"1493"	"0"	"Armor"
"3528"	"Cursed Emerald Ring"	"1494"	"0"	"Armor"
"3503"	"Cursed Diamond Ring"	"1495"	"0"	"Armor"
"3738"	"Emblem of Chaos"	"1707"	"0"	"Armor"
"3739"	"Finger of Chaos"	"1708"	"0"	"Armor"
"3740"	"Cloak of Chaos"	"1709"	"0"	"Armor"
"3741"	"Chaos Helm"	"1710"	"0"	"Armor"
"3742"	"Death Armor"	"1711"	"0"	"Armor"
"3743"	"Scales of Death"	"1712"	"0"	"Armor"
"3744"	"Cloak of Death"	"1713"	"0"	"Armor"
"3745"	"Death Armor Fragment"	"1714"	"0"	"Armor"
"3746"	"Yahee Helmet"	"1715"	"0"	"Armor"
"3748"	"Yahee Armor"	"1716"	"0"	"Armor"
"3747"	"Yahee Shirt"	"1717"	"0"	"Armor"
"3749"	"Yahee Cloak"	"1718"	"0"	"Armor"
"3750"	"Yahee Boots"	"1719"	"0"	"Armor"
"3751"	"Yahee Gloves"	"1720"	"0"	"Armor"
"3752"	"Yahee Ring"	"1721"	"0"	"Armor"
"3753"	"Yahee Necklace"	"1722"	"0"	"Armor"
"3755"	"Dancing Earrings"	"1724"	"0"	"Armor"
"3756"	"Twin Earrings"	"1725"	"0"	"Armor"
"3757"	"Festival Earrings"	"1726"	"0"	"Armor"
"3758"	"Zenith Earrings"	"1727"	"0"	"Armor"
"3759"	"Reckless Earrings"	"1728"	"0"	"Armor"
"3760"	"Fantasy Earrings"	"1729"	"0"	"Armor"
"3761"	"Clan Earrings"	"1730"	"0"	"Armor"
"3762"	"Slave Earrings"	"1731"	"0"	"Armor"
"2571152"	"Dark Enforcer Plate Mail"	"1748"	"0"	"Armor"
"3841"	"Pretender King Armor"	"1757"	"0"	"Armor"
"3842"	"Pretender King Helmet"	"1758"	"0"	"Armor"
"3844"	"Pretender King Gloves"	"1760"	"0"	"Armor"
"3845"	"Pretender King Boots"	"1761"	"0"	"Armor"
"3848"	"New King Robe"	"1764"	"0"	"Armor"
"3850"	"New King Cloak"	"1766"	"0"	"Armor"
"3794"	"Shield of Faith"	"1811"	"0"	"Armor"
"3797"	"Gloves of Lizardman Hero's"	"1814"	"0"	"Armor"
"4092"	"Earrings of Purification"	"1815"	"0"	"Armor"
"4093"	"Red Cursed Necklace"	"1816"	"0"	"Armor"
"4094"	"Blue Cursed Necklace"	"1817"	"0"	"Armor"
"4095"	"Green Cursed Necklace"	"1818"	"0"	"Armor"
"3998"	"[캐릭터명]의 요정 Gloves"	"1853"	"0"	"Armor"
"4000"	"[캐릭터명]의 요정 Helmet"	"1854"	"0"	"Armor"
"4001"	"[캐릭터명]의 요정 Boots"	"1855"	"0"	"Armor"
"3999"	"[캐릭터명]의 요정 Armor"	"1856"	"0"	"Armor"
"4002"	"[캐릭터명]의 요정 Cloak"	"1857"	"0"	"Armor"
"4062"	"Ring of Hero's"	"1900"	"0"	"Armor"
"4341"	"Iris Necklace"	"2053"	"0"	"Armor"
"4342"	"Ring of Iris"	"2054"	"0"	"Armor"
"4457"	"Wisdom Earrings"	"2056"	"0"	"Armor"
"4458"	"Truth Earrings"	"2057"	"0"	"Armor"
"4459"	"Domination Earrings"	"2058"	"0"	"Armor"
"4460"	"Wrath Earrings"	"2060"	"0"	"Armor"
"4461"	"Courage Earrings"	"2061"	"0"	"Armor"
"4462"	"Immortal Earrings"	"2062"	"0"	"Armor"
"4463"	"Passion Earrings"	"2064"	"0"	"Armor"
"4464"	"Honor Earrings"	"2065"	"0"	"Armor"
"4506"	"Generosity Earrings"	"2066"	"0"	"Armor"
"4388"	"Hair Clip of Lucidity"	"2104"	"0"	"Armor"
"4389"	"Necklace of Pain"	"2105"	"0"	"Armor"
"4390"	"Necklace of Agony"	"2106"	"0"	"Armor"
"4539"	"Baron Fire Ring"	"2308"	"0"	"Armor"
"4540"	"Earl Fire Ring"	"2309"	"0"	"Armor"
"4541"	"Duke Fire Ring"	"2310"	"0"	"Armor"
"4542"	"King Fire Ring"	"2311"	"0"	"Armor"
"4547"	"Baron Water Ring"	"2316"	"0"	"Armor"
"4548"	"Earl Water Ring"	"2317"	"0"	"Armor"
"4549"	"Duke Water Ring"	"2318"	"0"	"Armor"
"4550"	"King Water Ring"	"2319"	"0"	"Armor"
"4555"	"Baron Earth Ring"	"2324"	"0"	"Armor"
"4556"	"Earl Earth Ring"	"2325"	"0"	"Armor"
"4557"	"Duke Earth Ring"	"2326"	"0"	"Armor"
"4558"	"King Earth Ring"	"2327"	"0"	"Armor"
"4563"	"Baron Wind Ring"	"2332"	"0"	"Armor"
"4564"	"Earl Wind Ring"	"2333"	"0"	"Armor"
"4565"	"Duke Wind Ring"	"2334"	"0"	"Armor"
"4566"	"King Wind Ring"	"2335"	"0"	"Armor"
"5021"	"훈련 Knight의 Cloak"	"2600"	"0"	"Armor"
"5022"	"포이즌서펜트의 Cloak"	"2601"	"0"	"Armor"
"10090"	"Halloween Pumpkin Armor"	"2792"	"0"	"Armor"
"14403"	"단단한 Pumpkin Armor"	"14024"	"0"	"Armor"
"5269"	"Wet Helmet"	"2811"	"0"	"Armor"
"5270"	"Wet Cloak"	"2812"	"0"	"Armor"
"5271"	"Wet Armor"	"2813"	"0"	"Armor"
"5272"	"Wet Gloves"	"2814"	"0"	"Armor"
"5273"	"Wet Boots"	"2815"	"0"	"Armor"
"5274"	"Wet Shield"	"2816"	"0"	"Armor"
"5545"	"Ice Queen's Earrings"	"3055"	"0"	"Armor"
"5666"	"Dragon Scale Garder"	"3220"	"0"	"Armor"
"5722"	"Thebes Osiris Belt"	"3267"	"0"	"Armor"
"5723"	"Thebes Horus Ring"	"3268"	"0"	"Armor"
"5724"	"Thebes Anubis Ring"	"3269"	"0"	"Armor"
"6094"	"Ancient Archer Garder"	"3616"	"0"	"Armor"
"6095"	"Ancient Warrior Garder"	"3617"	"0"	"Armor"
"6430"	"Kukulkan's Shield"	"3776"	"0"	"Armor"
"6431"	"Kukulkan's Mask"	"3777"	"0"	"Armor"
"6432"	"Zeb Requi's Fang"	"3778"	"0"	"Armor"
"6433"	"Zeb Requi's Magic Eye"	"3779"	"0"	"Armor"
"7865"	"Antharas Strength"	"4016"	"0"	"Armor"
"7866"	"Antharas 마력"	"4017"	"0"	"Armor"
"7867"	"Antharas 인내력"	"4018"	"0"	"Armor"
"7868"	"Antharas 예지력"	"4019"	"0"	"Armor"
"7869"	"Fafurion Strength"	"4020"	"0"	"Armor"
"7870"	"Fafurion 마력"	"4021"	"0"	"Armor"
"7871"	"Fafurion 인내력"	"4022"	"0"	"Armor"
"7872"	"Fafurion 예지력"	"4023"	"0"	"Armor"
"7877"	"Valakas Strength"	"4024"	"0"	"Armor"
"7878"	"Valakas 마력"	"4025"	"0"	"Armor"
"7879"	"Valakas 인내력"	"4026"	"0"	"Armor"
"7880"	"Valakas 예지력"	"4027"	"0"	"Armor"
"7873"	"Lindvior Strength"	"4028"	"0"	"Armor"
"7874"	"Lindvior 마력"	"4029"	"0"	"Armor"
"7875"	"Lindvior 인내력"	"4030"	"0"	"Armor"
"7876"	"Lindvior 예지력"	"4031"	"0"	"Armor"
"7507"	"Wet 모자"	"4066"	"0"	"Armor"
"7508"	"Wet 후드"	"4067"	"0"	"Armor"
"10092"	"얼티메이트 Halloween 아모"	"6031"	"0"	"Armor"
"10201"	"신묘한 털망토"	"11268"	"0"	"Armor"
"10202"	"신묘한 털부츠"	"11269"	"0"	"Armor"
"10203"	"신묘한 털장갑"	"11270"	"0"	"Armor"
"10195"	"수호토끼 변신모자"	"11271"	"0"	"Armor"
"11509"	"Talass Boots"	"11714"	"0"	"Armor"
"11510"	"Talass Gloves"	"11715"	"0"	"Armor"
"11994"	"룸티스의 붉은빛 Earrings"	"15773"	"0"	"Armor"
"11995"	"룸티스의 푸른빛 Earrings"	"15774"	"0"	"Armor"
"11996"	"룸티스의 보랏빛 Earrings"	"15775"	"0"	"Armor"
"12250"	"Halloween Pumpkin Gloves 2011"	"12105"	"0"	"Armor"
"12254"	"Halloween Pumpkin Armor 2011"	"12109"	"0"	"Armor"
"12423"	"\aF시어의 심안"	"12203"	"0"	"Armor"
"13783"	"Wisdom Boots"	"12857"	"0"	"Armor"
"14221"	"+0 Novice 견고한 Helmet"	"13920"	"0"	"Armor"
"14222"	"+0 Novice 견고한 Armor"	"13921"	"0"	"Armor"
"14223"	"+0 Novice 견고한 Cloak"	"13922"	"0"	"Armor"
"14224"	"+0 Novice 견고한 Gloves"	"13923"	"0"	"Armor"
"14225"	"+0 Novice 견고한 Boots"	"13924"	"0"	"Armor"
"14226"	"+0 Novice 견고한 Shield"	"13925"	"0"	"Armor"
"14227"	"+0 Novice 신성한 Helmet"	"13926"	"0"	"Armor"
"14228"	"+0 Novice 신성한 Robe"	"13927"	"0"	"Armor"
"14229"	"+0 Novice 신성한 Cloak"	"13928"	"0"	"Armor"
"14230"	"+0 Novice 신성한 Gloves"	"13929"	"0"	"Armor"
"14231"	"+0 Novice 신성한 Boots"	"13930"	"0"	"Armor"
"14232"	"+0 Novice 신성한 Shield"	"13931"	"0"	"Armor"
"14185"	"Novice Necklace"	"13952"	"0"	"Armor"
"14186"	"Novice Ring"	"13953"	"0"	"Armor"
"14187"	"Novice Belt"	"13954"	"0"	"Armor"
"16896"	"스냅퍼의 체력 Ring"	"14868"	"0"	"Armor"
"16897"	"스냅퍼의 마법저항 Ring"	"14869"	"0"	"Armor"
"16898"	"스냅퍼의 집중 Ring"	"14870"	"0"	"Armor"
"16899"	"스냅퍼의 마나 Ring"	"14871"	"0"	"Armor"
"16900"	"스냅퍼의 회복 Ring"	"14872"	"0"	"Armor"
"16901"	"스냅퍼의 지혜 Ring"	"14873"	"0"	"Armor"
"16902"	"스냅퍼의 용사 Ring"	"14874"	"0"	"Armor"
"17475"	"포노스 Warrior Necklace"	"14986"	"0"	"Armor"
"17656"	"완력의 Boots"	"15090"	"0"	"Armor"
"17813"	"Amulet of Wisdom"	"15099"	"0"	"Armor"
"19255"	"마력의 Gloves"	"15498"	"0"	"Armor"
"19256"	"Shining 마력의 Gloves"	"15499"	"0"	"Armor"
"11104"	"룸티스의 검은빛 Earrings"	"16325"	"0"	"Armor"
"5712"	"용Knight의 서판(호러 오브 Death)"	"3257"	"0"	"Etc"
"5713"	"용Knight의 서판(Eye of Dragon)"	"3258"	"0"	"Etc"
"5714"	"용Knight의 서판(Awakening[Valakas])"	"3259"	"0"	"Etc"
"5716"	"하급 Osiris 보물상자 조각(상)"	"3260"	"0"	"Etc"
"5717"	"하급 Osiris 보물상자 조각(하)"	"3261"	"0"	"Etc"
"5725"	"Enchant Weapon Scroll: Wind"	"3270"	"0"	"Etc"
"5726"	"Enchant Weapon Scroll: Earth"	"3271"	"0"	"Etc"
"5727"	"Enchant Weapon Scroll: Water"	"3272"	"0"	"Etc"
"5728"	"Enchant Weapon Scroll: Fire"	"3273"	"0"	"Etc"
"5729"	"Accessory Enchant Scroll"	"3274"	"0"	"Etc"
"16895"	"스냅퍼의 Ring Greater Scroll"	"14860"	"0"	"Etc"
"18754"	"오림의 장신구 마법주문서"	"15387"	"0"	"Etc"
"5786"	"Crystal of Bravery"	"3292"	"0"	"Etc"
"6398"	"Celestial Potion"	"3329"	"0"	"Etc"
"5823"	"Scroll of Enhanced HP"	"3330"	"0"	"Etc"
"5824"	"Scroll of Enhanced Mana"	"3331"	"0"	"Etc"
"5825"	"Scroll of Enhanced Battle"	"3332"	"0"	"Etc"
"5826"	"Magic Doll : Sea Dancer"	"3333"	"0"	"Etc"
"5838"	"Mystery Cube"	"3346"	"0"	"Etc"
"12127"	"구호 증서"	"3350"	"0"	"Etc"
"5908"	"Osiris Chest Low-Grade Locked"	"3547"	"0"	"Etc"
"5909"	"Osiris Chest Low-Grade Opened"	"3548"	"0"	"Etc"
"5955"	"상급 Osiris 보물상자 조각(상)"	"3581"	"0"	"Etc"
"5956"	"상급 Osiris 보물상자 조각(하)"	"3582"	"0"	"Etc"
"5965"	"Osiris Chest High-Grade Locked"	"3583"	"0"	"Etc"
"5966"	"Osiris Chest High-Grade Opened"	"3584"	"0"	"Etc"
"6072"	"Bone Fragment"	"3605"	"0"	"Etc"
"6346"	"Elemental Stone"	"3606"	"0"	"Etc"
"6093"	"Thebes Osiris Altar Key"	"3615"	"0"	"Etc"
"142206073"	"Novice Forbidden Fruit"	"3674"	"0"	"Etc"
"6073"	"Forbidden Fruit"	"3674"	"0"	"Etc"
"6347"	"태고의 옥쇄 (캐릭터 슬롯 확장)"	"3675"	"0"	"Etc"
"6420"	"하급 Kukulkan's 보물상자 조각(상)"	"3766"	"0"	"Etc"
"4"	"Adena"	"7"	"0"	"Etc"
"623"	"Floating Scale Meat"	"9"	"0"	"Etc"
"5130"	"Kangaroo Food"	"9"	"0"	"Etc"
"5131"	"Panda Food"	"9"	"0"	"Etc"
"23"	"Meat"	"10"	"0"	"Etc"
"255"	"Healing Potion"	"15"	"0"	"Etc"
"242"	"Potion of Blindness"	"16"	"0"	"Etc"
"264"	"Haste Potion"	"17"	"0"	"Etc"
"28"	"소나무 막대"	"19"	"0"	"Etc"
"260"	"Polymorph Wand"	"20"	"0"	"Etc"
"262"	"Ebony Wand"	"21"	"0"	"Etc"
"17749"	"마법 막대(정화)"	"21"	"0"	"Etc"
"230"	"Teleport Scroll"	"23"	"0"	"Etc"
"244"	"Enchant Weapon Scroll"	"25"	"0"	"Etc"
"249"	"Enchant Armor Scroll"	"26"	"0"	"Etc"
"254"	"Destroy Armor Scroll"	"27"	"0"	"Etc"
"257"	"Resurrection Scroll"	"28"	"0"	"Etc"
"307"	"Golden Key"	"52"	"0"	"Etc"
"93"	"Silver Arrow"	"68"	"0"	"Etc"
"110"	"Elven Wafer"	"86"	"0"	"Etc"
"316"	"Cure Poison Potion"	"126"	"0"	"Etc"
"238"	"Greater Healing Potion"	"130"	"0"	"Etc"
"508"	"Magic Gem"	"166"	"0"	"Etc"
"512"	"Diamond"	"168"	"0"	"Etc"
"799512"	"High Quality Diamond"	"169"	"0"	"Etc"
"800512"	"Highest Quality Diamond"	"170"	"0"	"Etc"
"515"	"Emerald"	"171"	"0"	"Etc"
"799515"	"High Quality Emerald"	"172"	"0"	"Etc"
"800515"	"Highest Quality Emerald"	"173"	"0"	"Etc"
"513"	"Ruby"	"174"	"0"	"Etc"
"799513"	"High Quality Ruby"	"175"	"0"	"Etc"
"800513"	"Highest Quality Ruby"	"176"	"0"	"Etc"
"514"	"Sapphire"	"177"	"0"	"Etc"
"799514"	"High Quality Sapphire"	"178"	"0"	"Etc"
"800514"	"Highest Quality Sapphire"	"179"	"0"	"Etc"
"760"	"Pan's Mane"	"245"	"0"	"Etc"
"761"	"Rough Mithril"	"246"	"0"	"Etc"
"762"	"Elemental Stone"	"247"	"0"	"Etc"
"763"	"Twig of Ent"	"248"	"0"	"Etc"
"764"	"Fungus Juice"	"249"	"0"	"Etc"
"765"	"Blood of Ogre"	"250"	"0"	"Etc"
"766"	"Thread"	"251"	"0"	"Etc"
"767"	"Pure Mithril"	"252"	"0"	"Etc"
"768"	"Fairydust"	"253"	"0"	"Etc"
"770"	"Bark of Ent"	"255"	"0"	"Etc"
"771"	"Oriharukon"	"256"	"0"	"Etc"
"772"	"Mithril Thread"	"257"	"0"	"Etc"
"774"	"Ecdysis of Arachne"	"259"	"0"	"Etc"
"776"	"Ala of Fairy"	"261"	"0"	"Etc"
"777"	"Magic Flute"	"262"	"0"	"Etc"
"780"	"Oriharukon Plate"	"265"	"0"	"Etc"
"794"	"Fruit of Ent"	"279"	"0"	"Etc"
"943"	"Brave Potion"	"296"	"0"	"Etc"
"944"	"Wisdom Potion"	"297"	"0"	"Etc"
"971"	"Polymorph Scroll"	"299"	"0"	"Etc"
"975"	"Wand of Blink"	"301"	"0"	"Etc"
"1014"	"Crystal Ball of Necromancer"	"315"	"0"	"Etc"
"1036"	"Animal Skin"	"332"	"0"	"Etc"
"1037"	"Lump of Iron"	"333"	"0"	"Etc"
"1039"	"Hard Leather"	"335"	"0"	"Etc"
"1040"	"Bone Piece"	"336"	"0"	"Etc"
"1086"	"Pet Whistle"	"343"	"0"	"Etc"
"1100"	"Whetstone"	"348"	"0"	"Etc"
"1146"	"혈맹 Letter"	"357"	"0"	"Etc"
"1173"	"Pet Collar"	"361"	"0"	"Etc"
"1197"	"Blue Cloth"	"376"	"0"	"Etc"
"1199"	"Red Cloth"	"378"	"0"	"Etc"
"1200"	"White Cloth"	"379"	"0"	"Etc"
"1201"	"Lump of Steel"	"380"	"0"	"Etc"
"1203"	"Lump of Rough Iron"	"382"	"0"	"Etc"
"149"	"수룡 Scale"	"407"	"0"	"Etc"
"150"	"지룡 Scale"	"408"	"0"	"Etc"
"145"	"화룡 Scale"	"409"	"0"	"Etc"
"146"	"풍룡 Scale"	"410"	"0"	"Etc"
"1486"	"Blank Scroll (Lvl 1)"	"415"	"0"	"Etc"
"1507"	"Blessed of Eva"	"417"	"0"	"Etc"
"1508"	"Mermaid Scales"	"418"	"0"	"Etc"
"1608"	"Ash of Astagio"	"429"	"0"	"Etc"
"507"	"Mana Potion"	"492"	"0"	"Etc"
"1822"	"Spirit Gem"	"569"	"0"	"Etc"
"1890"	"Griffon Feather"	"618"	"0"	"Etc"
"1891"	"Wind Tears"	"619"	"0"	"Etc"
"1892"	"Blank Scroll (Lvl 2)"	"620"	"0"	"Etc"
"1893"	"Blank Scroll (Lvl 3)"	"621"	"0"	"Etc"
"1894"	"Blank Scroll (Lvl 4)"	"622"	"0"	"Etc"
"1895"	"Blank Scroll (Lvl 5)"	"623"	"0"	"Etc"
"2168"	"TOI Teleport Scroll - 3F"	"721"	"0"	"Etc"
"2195"	"Cimaera Leather(용)"	"728"	"0"	"Etc"
"2196"	"Cimaera Leather(산양)"	"729"	"0"	"Etc"
"2197"	"Cimaera Leather(사자)"	"730"	"0"	"Etc"
"2198"	"Cimaera Leather(뱀)"	"731"	"0"	"Etc"
"2200"	"Dragon Heart"	"733"	"0"	"Etc"
"2376"	"결혼반지 (Silver)"	"775"	"0"	"Etc"
"2375"	"결혼반지 (Gold)"	"775"	"0"	"Etc"
"2268"	"결혼반지 (Sapphire)"	"775"	"0"	"Etc"
"2373"	"결혼반지 (Emerald)"	"775"	"0"	"Etc"
"2374"	"결혼반지 (Ruby)"	"775"	"0"	"Etc"
"2269"	"결혼반지 (Diamond)"	"775"	"0"	"Etc"
"2363"	"Ancient Monarch Key"	"792"	"0"	"Etc"
"2364"	"Ancient Knight Key"	"793"	"0"	"Etc"
"2365"	"Ancient Elf Key"	"794"	"0"	"Etc"
"2366"	"Ancient Wizard Key"	"795"	"0"	"Etc"
"2378"	"Ancient Key Fragment (Body)"	"796"	"0"	"Etc"
"2240"	"Ancient Key Fragment (Head)"	"796"	"0"	"Etc"
"142202380"	"Novice Clan Return Scroll"	"806"	"0"	"Etc"
"2380"	"Clan Return Scroll"	"806"	"0"	"Etc"
"2582"	"Sealed TOI 2F Teleport Charm"	"808"	"0"	"Etc"
"2583"	"Sealed TOI 3F Teleport Charm"	"809"	"0"	"Etc"
"2584"	"Sealed TOI 4F Teleport Charm"	"810"	"0"	"Etc"
"2585"	"Sealed TOI 5F Teleport Charm"	"811"	"0"	"Etc"
"2169"	"TOI Teleport Scroll - 2F"	"812"	"0"	"Etc"
"2404"	"TOI Teleport Scroll 4F"	"813"	"0"	"Etc"
"2405"	"TOI Teleport Scroll 5F"	"814"	"0"	"Etc"
"2411"	"Orc Elder Head"	"817"	"0"	"Etc"
"2414"	"Hit List (Gludin Town)"	"820"	"0"	"Etc"
"2415"	"Hit List (Fire-Field Farmers Town)"	"821"	"0"	"Etc"
"2416"	"Hit List (Kent Village)"	"822"	"0"	"Etc"
"2418"	"Hit List (Heine Village)"	"824"	"0"	"Etc"
"2419"	"Hit List (Aden Village)"	"825"	"0"	"Etc"
"2420"	"Hit List (Giran Village)"	"826"	"0"	"Etc"
"2421"	"Hit List Bag"	"827"	"0"	"Etc"
"2422"	"Death Covenant"	"828"	"0"	"Etc"
"2424"	"Head of Yeti"	"830"	"0"	"Etc"
"2425"	"Fungus Poison"	"831"	"0"	"Etc"
"2427"	"Assassin's Rusted Sword"	"833"	"0"	"Etc"
"2428"	"Overseer's Document"	"834"	"0"	"Etc"
"2429"	"Assassin Master's Box"	"835"	"0"	"Etc"
"2474"	"Bring Stone"	"836"	"0"	"Etc"
"2475"	"Dark Stone"	"837"	"0"	"Etc"
"2476"	"Brave Stone"	"838"	"0"	"Etc"
"2477"	"Wise Stone"	"839"	"0"	"Etc"
"2478"	"Kaiser Stone"	"840"	"0"	"Etc"
"2516"	"Silver Throwing Knife"	"867"	"0"	"Etc"
"2463"	"Throwing Knife"	"867"	"0"	"Etc"
"2517"	"Heavy Throwing Knife"	"867"	"0"	"Etc"
"2575"	"Fast Lesser Healing Potion"	"915"	"0"	"Etc"
"2576"	"Fast Healing Potion"	"916"	"0"	"Etc"
"2577"	"Fast Greater Healing Potion"	"917"	"0"	"Etc"
"2578"	"Purple Water"	"918"	"0"	"Etc"
"2579"	"Blue Water"	"919"	"0"	"Etc"
"2580"	"Moon Cake"	"920"	"0"	"Etc"
"2581"	"Fortune Cake"	"921"	"0"	"Etc"
"2400"	"TOI Teleport Charm 2F"	"922"	"0"	"Etc"
"2401"	"TOI Teleport Charm 3F"	"923"	"0"	"Etc"
"2402"	"TOI Teleport Charm 4F"	"924"	"0"	"Etc"
"2403"	"TOI Teleport Charm 5F"	"925"	"0"	"Etc"
"2591"	"Gran Kain Tear"	"926"	"0"	"Etc"
"2592"	"Black Blood Stone"	"927"	"0"	"Etc"
"2593"	"Cursed Leather(Fire)"	"928"	"0"	"Etc"
"2594"	"Cursed Leather(Water)"	"929"	"0"	"Etc"
"2595"	"Cursed Leather(Wind)"	"930"	"0"	"Etc"
"2596"	"Cursed Leather(Earth)"	"931"	"0"	"Etc"
"2600"	"Shining Scale"	"935"	"0"	"Etc"
"2668"	"Sealed TOI 6F Teleport Charm"	"945"	"0"	"Etc"
"2669"	"Sealed TOI 7F Teleport Charm"	"946"	"0"	"Etc"
"2670"	"Sealed TOI 8F Teleport Charm"	"947"	"0"	"Etc"
"2671"	"Sealed TOI 9F Teleport Charm"	"948"	"0"	"Etc"
"2672"	"Sealed TOI 10F Teleport Charm"	"949"	"0"	"Etc"
"2673"	"TOI Teleport Scroll 6F"	"950"	"0"	"Etc"
"2674"	"TOI Teleport Scroll 7F"	"951"	"0"	"Etc"
"2675"	"TOI Teleport Scroll 8F"	"952"	"0"	"Etc"
"2676"	"TOI Teleport Scroll 9F"	"953"	"0"	"Etc"
"2677"	"TOI Teleport Scroll 10F"	"954"	"0"	"Etc"
"2678"	"TOI 6F Teleport Charm"	"955"	"0"	"Etc"
"2679"	"TOI 7F Teleport Charm"	"956"	"0"	"Etc"
"2680"	"TOI 8F Teleport Charm"	"957"	"0"	"Etc"
"2681"	"TOI 9F Teleport Charm"	"958"	"0"	"Etc"
"2682"	"TOI 10F Teleport Charm"	"959"	"0"	"Etc"
"2810"	"Evolution Fruit"	"969"	"0"	"Etc"
"2778"	"Antharas Scale"	"1012"	"0"	"Etc"
"2779"	"Antharas Crushed Claw"	"1013"	"0"	"Etc"
"2780"	"Antharas Eye"	"1014"	"0"	"Etc"
"2781"	"Antharas Tear"	"1015"	"0"	"Etc"
"2782"	"Antharas Flesh"	"1016"	"0"	"Etc"
"2783"	"Antharas Heart"	"1017"	"0"	"Etc"
"2784"	"Antharas Bone"	"1018"	"0"	"Etc"
"2785"	"Antharas Tooth"	"1019"	"0"	"Etc"
"2786"	"Valakas Scale"	"1020"	"0"	"Etc"
"2787"	"Valakas Crushed Claw"	"1021"	"0"	"Etc"
"2788"	"Valakas Eye"	"1022"	"0"	"Etc"
"2789"	"Valakas Tear"	"1023"	"0"	"Etc"
"2790"	"Valakas Flesh"	"1024"	"0"	"Etc"
"2791"	"Valakas Heart"	"1025"	"0"	"Etc"
"2792"	"Valakas Bone"	"1026"	"0"	"Etc"
"2793"	"Valakas Tooth"	"1027"	"0"	"Etc"
"2794"	"Fafurion Scale"	"1028"	"0"	"Etc"
"2795"	"Fafurion Crushed Claw"	"1029"	"0"	"Etc"
"2796"	"Fafurion Eye"	"1030"	"0"	"Etc"
"2797"	"Fafurion Tear"	"1031"	"0"	"Etc"
"2798"	"Fafurion Flesh"	"1032"	"0"	"Etc"
"2799"	"Fafurion Heart"	"1033"	"0"	"Etc"
"2800"	"Fafurion Bone"	"1034"	"0"	"Etc"
"2801"	"Fafurion Tooth"	"1035"	"0"	"Etc"
"2802"	"Lindvior Scale"	"1036"	"0"	"Etc"
"2803"	"Lindvior Crushed Claw"	"1037"	"0"	"Etc"
"2804"	"Lindvior Eye"	"1038"	"0"	"Etc"
"2805"	"Lindvior Tear"	"1039"	"0"	"Etc"
"2806"	"Lindvior Flesh"	"1040"	"0"	"Etc"
"2807"	"Lindvior Heart"	"1041"	"0"	"Etc"
"2808"	"Lindvior Bone"	"1042"	"0"	"Etc"
"2809"	"Lindvior Tooth"	"1043"	"0"	"Etc"
"2855"	"Cougar Skin"	"1044"	"0"	"Etc"
"2856"	"Cougar Claw"	"1045"	"0"	"Etc"
"2652"	"Depravity Key"	"1052"	"0"	"Etc"
"2877"	"Cloth Pet Armor"	"1057"	"0"	"Etc"
"2876"	"Chain Pet Armor"	"1056"	"0"	"Etc"
"2878"	"Leather Pet Armor"	"1058"	"0"	"Etc"
"2879"	"Mithril Pet Armor"	"1059"	"0"	"Etc"
"2881"	"Scale Pet Armor"	"1061"	"0"	"Etc"
"2882"	"Steel Pet Armor"	"1062"	"0"	"Etc"
"2866"	"Fang of Hunting Dog"	"1064"	"0"	"Etc"
"2869"	"Fang of Fighting Dog"	"1067"	"0"	"Etc"
"2871"	"Fang of Demon"	"1069"	"0"	"Etc"
"2872"	"Fang of Gold"	"1070"	"0"	"Etc"
"2873"	"Fang of Steel"	"1071"	"0"	"Etc"
"2862"	"TOI Teleport Scroll TOP"	"1073"	"0"	"Etc"
"2917"	"Beast Tamer Ring"	"1092"	"0"	"Etc"
"2919"	"Elementalist Ring"	"1093"	"0"	"Etc"
"2988"	"Scroll of Soul"	"1099"	"0"	"Etc"
"2989"	"Dark Crystal of Soul"	"1100"	"0"	"Etc"
"3025"	"Silver Zongzi"	"1101"	"0"	"Etc"
"3026"	"Gold Zongzi"	"1102"	"0"	"Etc"
"3019"	"Black Lump of Rough Mithril"	"1120"	"0"	"Etc"
"3020"	"Black Lump of Pure Mithril"	"1121"	"0"	"Etc"
"3021"	"Black Mithril Plate"	"1122"	"0"	"Etc"
"3027"	"Lump of Gold"	"1133"	"0"	"Etc"
"3028"	"Rough Gold Piece"	"1134"	"0"	"Etc"
"3029"	"Gold Plate"	"1135"	"0"	"Etc"
"3033"	"Lump of Platinum"	"1136"	"0"	"Etc"
"3034"	"Rough Platinum Piece"	"1137"	"0"	"Etc"
"3035"	"Platinum Plate"	"1138"	"0"	"Etc"
"656"	"Lump of Silver"	"1139"	"0"	"Etc"
"3031"	"Rough Silver Piece"	"1140"	"0"	"Etc"
"3032"	"Silver Plate"	"1141"	"0"	"Etc"
"3060"	"Breath of Golem"	"1151"	"0"	"Etc"
"3061"	"Breath of Firebird"	"1152"	"0"	"Etc"
"3062"	"Breath of Ice Queen"	"1153"	"0"	"Etc"
"3063"	"Breath of Drake"	"1154"	"0"	"Etc"
"3064"	"Relic of Maphr"	"1155"	"0"	"Etc"
"3065"	"Relic of Paagrio"	"1156"	"0"	"Etc"
"3066"	"Relic of Eva"	"1157"	"0"	"Etc"
"3067"	"Relic of Sayha"	"1158"	"0"	"Etc"
"3082"	"Beast Summoner's Ring"	"1170"	"0"	"Etc"
"3085"	"Beast Summoner's Whip"	"1173"	"0"	"Etc"
"3086"	"Black Wizard's Ring"	"1174"	"0"	"Etc"
"3090"	"Dark Forester's Ring"	"1178"	"0"	"Etc"
"3093"	"Dark Forester's Potion"	"1181"	"0"	"Etc"
"3094"	"Black Ent Twig"	"1182"	"0"	"Etc"
"3539"	"Decayed Branch of Black Ent"	"1182"	"0"	"Etc"
"3095"	"Black Ent Bark"	"1183"	"0"	"Etc"
"3096"	"Black Ent Fruit"	"1184"	"0"	"Etc"
"3105"	"Plateworm Skin"	"1193"	"0"	"Etc"
"3113"	"Mineral Removal Document"	"1201"	"0"	"Etc"
"3114"	"Mineral Pouch"	"1202"	"0"	"Etc"
"3115"	"Blob Gastric Juice"	"1203"	"0"	"Etc"
"3116"	"Volcanic Ash"	"1204"	"0"	"Etc"
"3117"	"Black Spirit Stone"	"1205"	"0"	"Etc"
"3236"	"Thin Plate"	"1271"	"0"	"Etc"
"3278"	"Talking Scroll"	"1305"	"0"	"Etc"
"3296"	"Novice Teleport Scroll"	"1337"	"0"	"Etc"
"505"	"Return Scroll"	"1338"	"0"	"Etc"
"3298"	"Novice Identify Scroll"	"1339"	"0"	"Etc"
"55"	"Identify Scroll"	"1339"	"0"	"Etc"
"3299"	"Novice Curse Removal Scroll"	"1340"	"0"	"Etc"
"243"	"Curse Removal Scroll"	"1340"	"0"	"Etc"
"3300"	"Novice Polymorph Scroll"	"1341"	"0"	"Etc"
"5878"	"Sharna's Polymorph Scroll (Lvl 30)"	"1341"	"0"	"Etc"
"5879"	"Sharna's Polymorph Scroll (Lvl 40)"	"1341"	"0"	"Etc"
"5880"	"Sharna's Polymorph Scroll (Lvl 52)"	"1341"	"0"	"Etc"
"5881"	"Sharna's Polymorph Scroll (Lvl 55)"	"1341"	"0"	"Etc"
"5882"	"Sharna's Polymorph Scroll (Lvl 60)"	"1341"	"0"	"Etc"
"5883"	"Sharna's Polymorph Scroll (Lvl 65)"	"1341"	"0"	"Etc"
"5884"	"Sharna's Polymorph Scroll (Lvl 70)"	"1341"	"0"	"Etc"
"14284"	"Sharna's Polymorph Scroll (Lvl 75)"	"1341"	"0"	"Etc"
"14285"	"Sharna's Polymorph Scroll (Lvl 80)"	"1341"	"0"	"Etc"
"26"	"Lesser Healing Potion"	"1342"	"0"	"Etc"
"3301"	"Novice Lesser Healing Potion"	"1342"	"0"	"Etc"
"3302"	"Novice Haste Potion"	"1343"	"0"	"Etc"
"3303"	"Talking Island 이동 Scroll"	"1344"	"0"	"Etc"
"2172230"	"Talking Island Village Teleport Scroll"	"1344"	"0"	"Etc"
"3304"	"Return Scroll - Gludin Town"	"1345"	"0"	"Etc"
"5624"	"Teleport Scroll - Elven Forest"	"1345"	"0"	"Etc"
"3305"	"Return Scroll - Kent Village"	"1346"	"0"	"Etc"
"3306"	"Return Scroll - Woodbec Village"	"1347"	"0"	"Etc"
"3307"	"Return Scroll - Orc Town"	"1348"	"0"	"Etc"
"3308"	"Return Scroll - Elven Forest"	"1349"	"0"	"Etc"
"3309"	"Return Scroll - SKT"	"1350"	"0"	"Etc"
"1410"	"Return Scroll - Giran City"	"1351"	"0"	"Etc"
"3311"	"Return Scroll - Heine City"	"1352"	"0"	"Etc"
"3297"	"Novice Return Scroll"	"1353"	"0"	"Etc"
"3313"	"Return Scroll - Werldern Town"	"1354"	"0"	"Etc"
"3314"	"Return Scroll - Aden City"	"1355"	"0"	"Etc"
"3315"	"Return Scroll - Silent Cavern"	"1356"	"0"	"Etc"
"3334"	"Druga Clan Generation Heirloom 1st"	"4127"	"0"	"Etc"
"3335"	"Druga Clan Generation Heirloom 2nd"	"4128"	"0"	"Etc"
"3336"	"Druga Clan Generation Heirloom 3rd"	"4129"	"0"	"Etc"
"3337"	"Druga Clan Generation Heirloom 4th"	"4130"	"0"	"Etc"
"3338"	"Druga Clan Generation Heirloom 5th"	"4131"	"0"	"Etc"
"3339"	"Druga Clan Generation Heirloom 6th"	"4132"	"0"	"Etc"
"3340"	"Druga Clan Generation Heirloom 7th"	"1357"	"0"	"Etc"
"3342"	"Head of Tarak"	"1378"	"0"	"Etc"
"3347"	"Tarak Sickle"	"1383"	"0"	"Etc"
"3349"	"Tarak Devil Book Vol.1"	"1385"	"0"	"Etc"
"3351"	"Tarak Devil Book Vol.2"	"1387"	"0"	"Etc"
"3353"	"Tarak Devil Book Vol.3"	"1389"	"0"	"Etc"
"3355"	"Tarak Devil Book Vol.4"	"1391"	"0"	"Etc"
"3358"	"악마의 검은색 족쇄"	"1394"	"0"	"Etc"
"3366"	"Ancient Magic Scroll"	"1402"	"0"	"Etc"
"3359"	"Scroll of Draft"	"1395"	"0"	"Etc"
"3363"	"Ancient Alchemy Scroll"	"1399"	"0"	"Etc"
"3360"	"Scroll of Calvas"	"1396"	"0"	"Etc"
"3357"	"Ancient Book of Magic Vol.1"	"1397"	"0"	"Etc"
"3361"	"Ancient Book of Magic Vol.2"	"1397"	"0"	"Etc"
"3364"	"Ancient Book of Magic Vol.3"	"1397"	"0"	"Etc"
"3367"	"Ancient Book of Magic Vol.4"	"1397"	"0"	"Etc"
"3362"	"Devil Red Shackles"	"1398"	"0"	"Etc"
"3365"	"Devil Blue Shackles"	"1401"	"0"	"Etc"
"3368"	"Devil White Shackles"	"1404"	"0"	"Etc"
"3369"	"Alchemist Stone"	"1405"	"0"	"Etc"
"3370"	"Potion of Mental Acuity"	"1406"	"0"	"Etc"
"3371"	"Cursed Blood"	"14568"	"0"	"Etc"
"142203372"	"Novice Devil Blood"	"1408"	"0"	"Etc"
"3372"	"Devil Blood"	"1408"	"0"	"Etc"
"3404"	"Dark Brown Bread"	"1425"	"0"	"Etc"
"3483"	"East Jail Key"	"1432"	"0"	"Etc"
"3482"	"North-East Jail Key"	"1433"	"0"	"Etc"
"3423"	"North Jail Key"	"1434"	"0"	"Etc"
"3485"	"Letter of Son"	"1443"	"0"	"Etc"
"3486"	"Remains of Son"	"1444"	"0"	"Etc"
"3490"	"Portrait of Son"	"1445"	"0"	"Etc"
"3488"	"Key of Drake"	"1446"	"0"	"Etc"
"302061"	"블랙 Mithril Arrow"	"1484"	"0"	"Etc"
"3493"	"Unlimited Quiver"	"1498"	"0"	"Etc"
"3533"	"Wolf Pelt"	"1501"	"0"	"Etc"
"3540"	"Dillo Claw"	"1508"	"0"	"Etc"
"3588"	"Silver Flute"	"1533"	"0"	"Etc"
"2653"	"Bag of Endia"	"1534"	"0"	"Etc"
"4855"	"Shabby Ring"	"1535"	"0"	"Etc"
"3598"	"Resta's Ring"	"1536"	"0"	"Etc"
"3763"	"Head of Chaos"	"1732"	"0"	"Etc"
"3764"	"Head of Death"	"1735"	"0"	"Etc"
"3765"	"Hammer of Death"	"1736"	"0"	"Etc"
"3766"	"Axe of Death"	"1737"	"0"	"Etc"
"3767"	"Spear of Death"	"1738"	"0"	"Etc"
"3768"	"Knife of Death"	"1739"	"0"	"Etc"
"3769"	"Tailbone of Death"	"1740"	"0"	"Etc"
"3770"	"Head of Yahee"	"1741"	"0"	"Etc"
"3771"	"Rib of Yahee"	"1742"	"0"	"Etc"
"3772"	"Claw of Yahee"	"1743"	"0"	"Etc"
"3773"	"Tail of Yahee"	"1744"	"0"	"Etc"
"3774"	"Wing of Yahee"	"1745"	"0"	"Etc"
"3775"	"Backbone of Yahee"	"1746"	"0"	"Etc"
"3776"	"Soul Stone Fragment"	"1747"	"0"	"Etc"
"3868"	"Breath of Fire"	"1784"	"0"	"Etc"
"3869"	"Breath of Water"	"1785"	"0"	"Etc"
"3870"	"Breath of Wind"	"1786"	"0"	"Etc"
"3871"	"Breath of Earth"	"1787"	"0"	"Etc"
"3872"	"Breath of Darkness"	"1788"	"0"	"Etc"
"3873"	"Burning Leather"	"1789"	"0"	"Etc"
"3876"	"Mineral of Darkness"	"1792"	"0"	"Etc"
"3877"	"Ingot of Darkness"	"1793"	"0"	"Etc"
"3879"	"Arcane Army Evidence Box"	"1796"	"0"	"Etc"
"3882"	"Dark Spirit Army Evidence"	"1798"	"0"	"Etc"
"3884"	"Dark Power Army Evidence"	"1800"	"0"	"Etc"
"3886"	"Assassin Army Evidence"	"1802"	"0"	"Etc"
"3786"	"Diego's Old Diary"	"1803"	"0"	"Etc"
"3787"	"Crumpled Breaking-Up Letter"	"1804"	"0"	"Etc"
"3788"	"Lizardman's Report"	"1805"	"0"	"Etc"
"3789"	"Lizardman's Treasure"	"1806"	"0"	"Etc"
"3986"	"Polluted Twig of Ent"	"1826"	"0"	"Etc"
"3987"	"Polluted Fruit of Ent"	"1827"	"0"	"Etc"
"3985"	"Polluted Bark of Ent"	"1828"	"0"	"Etc"
"3969"	"Blue Crystal"	"1829"	"0"	"Etc"
"3970"	"Green Crystal"	"1830"	"0"	"Etc"
"3971"	"White Crystal"	"1831"	"0"	"Etc"
"3972"	"Red Crystal"	"1832"	"0"	"Etc"
"3973"	"Purple Crystal"	"1833"	"0"	"Etc"
"3974"	"Large Blue Crystal"	"1834"	"0"	"Etc"
"3975"	"Large Green Crystal"	"1835"	"0"	"Etc"
"3976"	"Large Red Crystal"	"1836"	"0"	"Etc"
"3977"	"Tear of Spirit"	"1837"	"0"	"Etc"
"3978"	"Expedition Member's Relic"	"1838"	"0"	"Etc"
"3991"	"Expedition Member's Bow"	"1840"	"0"	"Etc"
"3992"	"Expedition Member's Gloves"	"1841"	"0"	"Etc"
"3995"	"Expedition Member's Boots"	"1843"	"0"	"Etc"
"3993"	"Expedition Member's Armor"	"1844"	"0"	"Etc"
"3994"	"Expedition Member's Helmet"	"1844"	"0"	"Etc"
"3996"	"Expedition Member's Cloak"	"1845"	"0"	"Etc"
"3988"	"Letter of Aras"	"1858"	"0"	"Etc"
"4003"	"Letter of Marba"	"1859"	"0"	"Etc"
"4021"	"두번째 미로 Key"	"1863"	"0"	"Etc"
"4022"	"세번째 미로 Key"	"1864"	"0"	"Etc"
"4027"	"Spellbook of Trials"	"1865"	"0"	"Etc"
"4023"	"Sword of Trials A"	"1866"	"0"	"Etc"
"4024"	"Sword of Trials B"	"1867"	"0"	"Etc"
"4025"	"Sword of Trials C"	"1868"	"0"	"Etc"
"4026"	"Sword of Trials D"	"1869"	"0"	"Etc"
"4020"	"Labyrinth Diagram"	"1870"	"0"	"Etc"
"4058"	"Evil Magic King Seal"	"1901"	"0"	"Etc"
"4059"	"Evil Spirit King Seal"	"1902"	"0"	"Etc"
"4060"	"Assassin King Seal"	"1903"	"0"	"Etc"
"4061"	"Arcane King Seal"	"1904"	"0"	"Etc"
"4670"	"Polluted Root"	"1977"	"0"	"Etc"
"4665"	"Polluted Stem"	"1978"	"0"	"Etc"
"4667"	"Polluted Ecdysis"	"1979"	"0"	"Etc"
"4669"	"Polluted Mane"	"1980"	"0"	"Etc"
"4684"	"Polluted Fairy Wings"	"1981"	"0"	"Etc"
"4176"	"Silver Tray"	"1982"	"0"	"Etc"
"4177"	"Silver Candlestick"	"1983"	"0"	"Etc"
"4181"	"Bandit's Key"	"1984"	"0"	"Etc"
"4182"	"Bandit Pouch"	"1985"	"0"	"Etc"
"4685"	"Polluted Hair"	"1986"	"0"	"Etc"
"4678"	"Polluted Earth Nucleus"	"1987"	"0"	"Etc"
"4674"	"Polluted Water Nucleus"	"1988"	"0"	"Etc"
"4676"	"Polluted Fire Nucleus"	"1989"	"0"	"Etc"
"4672"	"Polluted Wind Nucleus"	"1990"	"0"	"Etc"
"4680"	"Polluted Elemental Nucleus"	"1991"	"0"	"Etc"
"4187"	"Orc Fang"	"1992"	"0"	"Etc"
"4188"	"Orc Necklace"	"1993"	"0"	"Etc"
"4189"	"Magic Powder"	"1994"	"0"	"Etc"
"4198"	"Hallucination Powder"	"1995"	"0"	"Etc"
"4178"	"Pearl of Prophet"	"1996"	"0"	"Etc"
"4687"	"Spirit's Root"	"2018"	"0"	"Etc"
"4688"	"Spirit's Skin"	"2019"	"0"	"Etc"
"4689"	"Spirit's Leaf"	"2020"	"0"	"Etc"
"4690"	"Spirit's Branch"	"2021"	"0"	"Etc"
"4288"	"Calling Flute"	"2045"	"0"	"Etc"
"4353"	"Iris Order：영혼의 안식"	"2051"	"0"	"Etc"
"4349"	"Blessed Unicorn Horn"	"2070"	"0"	"Etc"
"3875"	"Crystal Fang"	"2071"	"0"	"Etc"
"4344"	"Soul Crystal"	"2071"	"0"	"Etc"
"4470"	"Iris Order：The Will of the Alliance"	"2075"	"0"	"Etc"
"4643"	"Holy Relic"	"2085"	"0"	"Etc"
"4644"	"Attendant's Scripture"	"2087"	"0"	"Etc"
"4393"	"항해 일지 1 페이지"	"2109"	"0"	"Etc"
"4394"	"항해 일지 2 페이지"	"2110"	"0"	"Etc"
"4395"	"항해 일지 3 페이지"	"2111"	"0"	"Etc"
"4396"	"항해 일지 4 페이지"	"2112"	"0"	"Etc"
"4397"	"항해 일지 5 페이지"	"2113"	"0"	"Etc"
"4398"	"항해 일지 6 페이지"	"2114"	"0"	"Etc"
"4399"	"항해 일지 7 페이지"	"2115"	"0"	"Etc"
"4400"	"항해 일지 8 페이지"	"2116"	"0"	"Etc"
"4401"	"항해 일지 9 페이지"	"2117"	"0"	"Etc"
"4402"	"항해 일지 10 페이지"	"2118"	"0"	"Etc"
"4404"	"완성한 항해 일지"	"2119"	"0"	"Etc"
"4405"	"풀"	"2120"	"0"	"Etc"
"4406"	"Glued Logbook 1장"	"2121"	"0"	"Etc"
"4407"	"Glued Logbook 2장"	"2122"	"0"	"Etc"
"4408"	"Glued Logbook 3장"	"2123"	"0"	"Etc"
"4409"	"Glued Logbook 4장"	"2124"	"0"	"Etc"
"4410"	"Glued Logbook 5장"	"2125"	"0"	"Etc"
"4411"	"Glued Logbook 6장"	"2126"	"0"	"Etc"
"4412"	"Glued Logbook 7장"	"2127"	"0"	"Etc"
"4413"	"Glued Logbook 8장"	"2128"	"0"	"Etc"
"4414"	"Glued Logbook 9장"	"2129"	"0"	"Etc"
"4415"	"Glued Logbook 10장"	"2130"	"0"	"Etc"
"4403"	"Incomplete Logbook"	"2131"	"0"	"Etc"
"4455"	"Pouch of Voyager"	"2230"	"0"	"Etc"
"4469"	"Iris's Letter of Recommendation"	"2231"	"0"	"Etc"
"5240"	"Crystal"	"2257"	"0"	"Etc"
"4478"	"Purification Potion"	"2260"	"0"	"Etc"
"4354"	"Cursed Black Earrings"	"2263"	"0"	"Etc"
"4479"	"Black Earrings"	"2264"	"0"	"Etc"
"4502"	"Mysterious Black Earrings"	"2275"	"0"	"Etc"
"4503"	"Mysterious Wizard Earrings"	"2276"	"0"	"Etc"
"4511"	"Mysterious Knight의 Earrings"	"2276"	"0"	"Etc"
"4507"	"Mysterious Warrior Earrings"	"2276"	"0"	"Etc"
"4504"	"Mysterious Gray Wizard Earrings"	"2277"	"0"	"Etc"
"4512"	"Mysterious Gray Knight의 Earrings"	"2277"	"0"	"Etc"
"4508"	"Mysterious Gray Warrior Earrings"	"2277"	"0"	"Etc"
"4505"	"Mysterious White Wizard Earrings"	"2278"	"0"	"Etc"
"4513"	"Mysterious White Knight의 Earrings"	"2278"	"0"	"Etc"
"4509"	"Mysterious White Warrior Earrings"	"2278"	"0"	"Etc"
"4514"	"Wizard Earrings"	"2283"	"0"	"Etc"
"4520"	"Knight의 Earrings"	"2289"	"0"	"Etc"
"4517"	"Warrior Earrings"	"2286"	"0"	"Etc"
"4515"	"Gray Wizard Earrings"	"2284"	"0"	"Etc"
"4521"	"Gray Knight의 Earrings"	"2290"	"0"	"Etc"
"4518"	"Gray Warrior Earrings"	"2287"	"0"	"Etc"
"4516"	"White Wizard Earrings"	"2285"	"0"	"Etc"
"4522"	"White Knight의 Earrings"	"2291"	"0"	"Etc"
"4519"	"White Warrior Earrings"	"2288"	"0"	"Etc"
"4543"	"Crafted King Fire Ring"	"2312"	"0"	"Etc"
"4544"	"Crafted Baron Fire Ring"	"2313"	"0"	"Etc"
"4545"	"Crafted Earl Fire Ring"	"2314"	"0"	"Etc"
"4546"	"Crafted Duke Fire Ring"	"2315"	"0"	"Etc"
"4551"	"Crafted King Water Ring"	"2320"	"0"	"Etc"
"4552"	"Crafted Baron Water Ring"	"2321"	"0"	"Etc"
"4553"	"Crafted Earl Water Ring"	"2322"	"0"	"Etc"
"4554"	"Crafted Duke Water Ring"	"2323"	"0"	"Etc"
"4559"	"Crafted King Earth Ring"	"2328"	"0"	"Etc"
"4560"	"Crafted Baron Earth Ring"	"2329"	"0"	"Etc"
"4561"	"Crafted Earl Earth Ring"	"2330"	"0"	"Etc"
"4562"	"Crafted Duke Earth Ring"	"2331"	"0"	"Etc"
"4567"	"Crafted King Wind Ring"	"2336"	"0"	"Etc"
"4568"	"Crafted Baron Wind Ring"	"2337"	"0"	"Etc"
"4569"	"Crafted Earl Wind Ring"	"2338"	"0"	"Etc"
"4570"	"Crafted Duke Wind Ring"	"2339"	"0"	"Etc"
"4009"	"Black Magic Powder"	"2362"	"0"	"Etc"
"4611"	"Lastavard History Book 1장"	"2371"	"0"	"Etc"
"4612"	"Lastavard History Book 2장"	"2372"	"0"	"Etc"
"4695"	"Lastavard History Book 3장"	"2373"	"0"	"Etc"
"4696"	"Lastavard History Book 4장"	"2374"	"0"	"Etc"
"4697"	"Lastavard History Book 5장"	"2375"	"0"	"Etc"
"4698"	"Lastavard History Book 6장"	"2376"	"0"	"Etc"
"4699"	"Lastavard History Book 7장"	"2377"	"0"	"Etc"
"4700"	"Lastavard History Book 8장"	"2378"	"0"	"Etc"
"4576"	"Complete Lastavard History Book"	"2379"	"0"	"Etc"
"4613"	"Lastavard Weaponsmithing Secrets"	"2380"	"0"	"Etc"
"4627"	"Fidelity Armor Secret Book"	"2388"	"0"	"Etc"
"4358"	"Blessed Dagger of Eva"	"2474"	"0"	"Etc"
"4826"	"Dreaming Teddy Bear"	"2480"	"0"	"Etc"
"4827"	"Perfume of Temptation"	"2481"	"0"	"Etc"
"4828"	"Lovely Dress"	"2482"	"0"	"Etc"
"4829"	"Gorgeous Ring"	"2483"	"0"	"Etc"
"4842"	"Biography of Hero's"	"2488"	"0"	"Etc"
"4832"	"Taros's Ruby"	"2489"	"0"	"Etc"
"4833"	"Taros's Emerald"	"2490"	"0"	"Etc"
"4836"	"Indecent Ancient Necklace"	"2493"	"0"	"Etc"
"4843"	"Fashonable Hat"	"2499"	"0"	"Etc"
"4844"	"Finest Wine"	"2500"	"0"	"Etc"
"4862"	"Staff of Maya"	"2517"	"0"	"Etc"
"4864"	"Crystal Orb of Maya"	"2518"	"0"	"Etc"
"5225"	"Magic Doll : Werewolf"	"2545"	"0"	"Etc"
"8411"	"Mysterious 프리즘 : Hatchling Female"	"2545"	"0"	"Etc"
"8410"	"Mysterious 프리즘 : Hatchling Male"	"2545"	"0"	"Etc"
"8413"	"Mysterious 프리즘 : 진화된 Hatchling Female"	"2545"	"0"	"Etc"
"8412"	"Mysterious 프리즘 : 진화된 Hatchling Male"	"2545"	"0"	"Etc"
"5226"	"Magic Doll : Bugbear"	"2546"	"0"	"Etc"
"4922"	"Firewood"	"2551"	"0"	"Etc"
"4923"	"Cookbook : Tier 1"	"2552"	"0"	"Etc"
"4924"	"Cookbook : Tier 2"	"2553"	"0"	"Etc"
"4925"	"Cookbook : Tier 3"	"2554"	"0"	"Etc"
"4926"	"Cookbook : Tier 4"	"2555"	"0"	"Etc"
"4927"	"Cookbook : Tier 5"	"2556"	"0"	"Etc"
"4932"	"Monster Eye Steak"	"2562"	"0"	"Etc"
"5218"	"Roasted Bear Meat"	"2563"	"0"	"Etc"
"4969"	"Sunflower Seed"	"2564"	"0"	"Etc"
"4919"	"Flour"	"2564"	"0"	"Etc"
"4918"	"벌꿀"	"2564"	"0"	"Etc"
"4921"	"Tomato"	"2564"	"0"	"Etc"
"4920"	"Cheese"	"2564"	"0"	"Etc"
"4929"	"Seed Stuffed Pancake"	"2564"	"0"	"Etc"
"5219"	"Roasted Ant Legs with Cheese"	"2565"	"0"	"Etc"
"4930"	"과일샐러드"	"2566"	"0"	"Etc"
"4931"	"Sweet & Sour Fruit"	"2567"	"0"	"Etc"
"5220"	"Roasted Boar on Skewers"	"2568"	"0"	"Etc"
"5221"	"Mushroom Soup"	"2569"	"0"	"Etc"
"5020"	"Blessed Barley Bread"	"2592"	"0"	"Etc"
"5019"	"Blessed Wine"	"2593"	"0"	"Etc"
"5024"	"Note of the Deceased"	"2594"	"0"	"Etc"
"5025"	"Essence of Water"	"2595"	"0"	"Etc"
"5026"	"Acid Sap"	"2596"	"0"	"Etc"
"5028"	"Manual of Zeron"	"2597"	"0"	"Etc"
"5023"	"Bloodstain of Fafurion"	"2598"	"0"	"Etc"
"5018"	"Robin Hood's Notepad"	"2602"	"0"	"Etc"
"5017"	"Introduction from Robin Hood"	"2604"	"0"	"Etc"
"5027"	"Blood of Medusa"	"2605"	"0"	"Etc"
"5097"	"국화꽃다발"	"2653"	"0"	"Etc"
"5098"	"데이지의 꽃다발"	"2654"	"0"	"Etc"
"5099"	"장미의 꽃다발"	"2655"	"0"	"Etc"
"5100"	"칼라의 꽃다발"	"2656"	"0"	"Etc"
"5101"	"해바라기의 꽃다발"	"2657"	"0"	"Etc"
"5102"	"후리지아의 꽃다발"	"2658"	"0"	"Etc"
"5103"	"Holy Water"	"2659"	"0"	"Etc"
"5105"	"고우스트의 Heart"	"2660"	"0"	"Etc"
"5304"	"Breath of Hamel"	"2661"	"0"	"Etc"
"5241"	"Ant Leg"	"2664"	"0"	"Etc"
"5242"	"Bear Meat"	"2664"	"0"	"Etc"
"5243"	"Wild Boar Meat"	"2664"	"0"	"Etc"
"5115"	"Holy Mithril Powder"	"2670"	"0"	"Etc"
"5116"	"픽시의깃털"	"2671"	"0"	"Etc"
"5227"	"Magic Doll : Succubus"	"2772"	"0"	"Etc"
"5233"	"Kuzak's Food"	"2775"	"0"	"Etc"
"5234"	"Kuzak's Elixir"	"2776"	"0"	"Etc"
"5235"	"Skeleton Grail"	"2777"	"0"	"Etc"
"5438"	"Shark Eggs"	"2778"	"0"	"Etc"
"5439"	"Alligator Meat"	"2778"	"0"	"Etc"
"5446"	"터틀 드래곤의 알"	"2778"	"0"	"Etc"
"5440"	"Kiwi Parrot Meat"	"2778"	"0"	"Etc"
"5441"	"Scorpion Meat"	"2778"	"0"	"Etc"
"5442"	"Elekkadom Meat"	"2778"	"0"	"Etc"
"5443"	"Spider Leg Meat"	"2778"	"0"	"Etc"
"5444"	"Crab Meat"	"2778"	"0"	"Etc"
"4916"	"Assorted Spice Sauce"	"2778"	"0"	"Etc"
"49284932"	"Fantasy Monster Eye Steak"	"2781"	"0"	"Etc"
"49285218"	"Fantasy Roasted Bear Meat"	"2782"	"0"	"Etc"
"49284929"	"Fantasy Seed Stuffed Pancake"	"2783"	"0"	"Etc"
"49285219"	"Fantasy Roasted Ant Legs with Cheese"	"2784"	"0"	"Etc"
"49284930"	"Fantasy Fruit Salad"	"2785"	"0"	"Etc"
"49284931"	"Fantasy Sweet & Sour Fruit"	"2786"	"0"	"Etc"
"49285220"	"Fantasy Roasted Boar on Skewers"	"2787"	"0"	"Etc"
"49285221"	"Fantasy Mushroom Soup"	"2788"	"0"	"Etc"
"5248"	"Rare Turtle"	"2795"	"0"	"Etc"
"5265"	"Broken Necklace"	"2807"	"0"	"Etc"
"4324"	"Halloween Pumpkin Pie"	"2823"	"0"	"Etc"
"5306"	"Seal of Victory"	"2830"	"0"	"Etc"
"8811"	"반짝이는 Scale"	"2830"	"0"	"Etc"
"7509"	"Box Fish"	"2830"	"0"	"Etc"
"3447"	"Royal Chef's Spices"	"2840"	"0"	"Etc"
"5417"	"Magic Doll : Elder"	"2929"	"0"	"Etc"
"5418"	"Magic Doll : Crustacean"	"2930"	"0"	"Etc"
"5419"	"Magic Doll : 돌골렘"	"2931"	"0"	"Etc"
"5430"	"Cavier Canape"	"2953"	"0"	"Etc"
"5431"	"Alligator Steak"	"2954"	"0"	"Etc"
"5432"	"Turtle Dragon Cracker"	"2955"	"0"	"Etc"
"5433"	"Roasted Kiwi Parrot"	"2956"	"0"	"Etc"
"5434"	"Roasted Scorpion"	"2957"	"0"	"Etc"
"5435"	"Elekkadom Stew"	"2958"	"0"	"Etc"
"5436"	"Roasted Ant Legs with Cheese"	"2959"	"0"	"Etc"
"5437"	"Crab Meat Soup"	"2960"	"0"	"Etc"
"49285430"	"Fantasy Cavier Canape"	"2961"	"0"	"Etc"
"49285431"	"Fantasy Alligator Steak"	"2962"	"0"	"Etc"
"49285432"	"Fantasy Turtle Dragon Cracker"	"2963"	"0"	"Etc"
"49285433"	"Fantasy Roasted Kiwi Parrot"	"2964"	"0"	"Etc"
"49285434"	"Fantasy Roasted Scorpion"	"2965"	"0"	"Etc"
"49285435"	"Fantasy Elekkadom Stew"	"2966"	"0"	"Etc"
"49285436"	"Fantasy Roasted Ant Legs with Cheese"	"2967"	"0"	"Etc"
"49285437"	"Fantasy Crab Meat Soup"	"2968"	"0"	"Etc"
"5448"	"Brave Man's Mark"	"2979"	"0"	"Etc"
"5480"	"Demon's Soul Fragment"	"3010"	"0"	"Etc"
"5481"	"Captain Drake"	"3011"	"0"	"Etc"
"5482"	"Cougar's Soull Fragment"	"3012"	"0"	"Etc"
"5483"	"Iris' Soul Fragment"	"3013"	"0"	"Etc"
"5484"	"Great Minotaur's Soul"	"3014"	"0"	"Etc"
"5523"	"Lost souls of light"	"3050"	"0"	"Etc"
"5546"	"Ice Crystals"	"3054"	"0"	"Etc"
"5589"	"Reminiscence Candle"	"3120"	"0"	"Etc"
"5642"	"Fragment of Time"	"3184"	"0"	"Etc"
"5681"	"Memory Crystal(Mirror Image)"	"3225"	"0"	"Etc"
"5682"	"Memory Crystal(Confusion)"	"3226"	"0"	"Etc"
"5683"	"Memory Crystal(스매쉬)"	"3227"	"0"	"Etc"
"5684"	"Memory Crystal(Illusion:오거)"	"3228"	"0"	"Etc"
"5685"	"Memory Crystal(큐브:이그니션)"	"3229"	"0"	"Etc"
"5686"	"Memory Crystal(Concentration)"	"3230"	"0"	"Etc"
"5687"	"Memory Crystal(Mind Break)"	"3231"	"0"	"Etc"
"5688"	"Memory Crystal(Bone Break)"	"3232"	"0"	"Etc"
"5689"	"Memory Crystal(Illusion: Lich)"	"3233"	"0"	"Etc"
"5690"	"Memory Crystal(큐브:퀘이크)"	"3234"	"0"	"Etc"
"5691"	"Memory Crystal(Patience)"	"3235"	"0"	"Etc"
"5692"	"Memory Crystal(Phantasm)"	"3236"	"0"	"Etc"
"5693"	"Memory Crystal(Eye Breaker)"	"3237"	"0"	"Etc"
"5694"	"Memory Crystal(Illusion:Diamond Golem)"	"3238"	"0"	"Etc"
"5695"	"Memory Crystal(큐브:쇼크)"	"3239"	"0"	"Etc"
"5696"	"Memory Crystal(Insight)"	"3240"	"0"	"Etc"
"5697"	"Memory Crystal(Panic)"	"3241"	"0"	"Etc"
"5698"	"Memory Crystal(Reduce Weight)"	"3242"	"0"	"Etc"
"5699"	"Memory Crystal(Illusion: Avatar)"	"3243"	"0"	"Etc"
"5700"	"Memory Crystal(큐브:밸런스)"	"3244"	"0"	"Etc"
"5778"	"용Knight의 서판(Dragon Skin)"	"3245"	"0"	"Etc"
"5701"	"용Knight의 서판(Burning Slash)"	"3246"	"0"	"Etc"
"5702"	"용Knight의 서판(Guard 브레이크)"	"3247"	"0"	"Etc"
"5703"	"용Knight의 서판(Magma Breath)"	"3248"	"0"	"Etc"
"5704"	"용Knight의 서판(Awakening[Antharas])"	"3249"	"0"	"Etc"
"5705"	"용Knight의 서판(Blood Lust)"	"3250"	"0"	"Etc"
"5706"	"용Knight의 서판(Foe Slayer)"	"3251"	"0"	"Etc"
"5707"	"용Knight의 서판(피어)"	"3252"	"0"	"Etc"
"5708"	"용Knight의 서판(Magma Arrow)"	"3253"	"0"	"Etc"
"5709"	"용Knight의 서판(Awakening[Fafurion])"	"3254"	"0"	"Etc"
"5710"	"용Knight의 서판(Mortal Body)"	"3255"	"0"	"Etc"
"5711"	"용Knight의 서판(Thunder Grab)"	"3256"	"0"	"Etc"
"6421"	"하급 Kukulkan's 보물상자 조각(하)"	"3767"	"0"	"Etc"
"6422"	"Locked Low-Grade Kukulkan's Treasure Chest"	"3768"	"0"	"Etc"
"6423"	"Opened Low-Grade Kukulkan's Treasure Chest"	"3769"	"0"	"Etc"
"6424"	"상급 Kukulkan's 보물상자 조각(상)"	"3770"	"0"	"Etc"
"6425"	"상급 Kukulkan's 보물상자 조각(하)"	"3771"	"0"	"Etc"
"6426"	"Locked High-Grade Kukulkan's Treasure Chest"	"3772"	"0"	"Etc"
"6427"	"Opened High-Grade Kukulkan's Treasure Chest"	"3773"	"0"	"Etc"
"6435"	"Kukulkan's Altar Key"	"3780"	"0"	"Etc"
"7881"	"Dwarf Mushroom"	"4008"	"0"	"Etc"
"7882"	"Dwarf Talisman"	"4009"	"0"	"Etc"
"7883"	"낡은 물결의 Pearl"	"4010"	"0"	"Etc"
"7884"	"낡은 하얀 Crystal"	"4011"	"0"	"Etc"
"17814"	"지룡의 Shining 룬스톤"	"4012"	"0"	"Etc"
"7885"	"지룡의 마안"	"4012"	"0"	"Etc"
"17815"	"수룡의 Shining 룬스톤"	"4013"	"0"	"Etc"
"7886"	"수룡의 마안"	"4013"	"0"	"Etc"
"17817"	"화룡의 Shining 룬스톤"	"4014"	"0"	"Etc"
"7888"	"화룡의 마안"	"4014"	"0"	"Etc"
"17816"	"풍룡의 Shining 룬스톤"	"4015"	"0"	"Etc"
"7887"	"풍룡의 마안"	"4015"	"0"	"Etc"
"7758"	"Lesser 지룡의 마안"	"4032"	"0"	"Etc"
"7949"	"지룡의 메마른 Tear"	"4032"	"0"	"Etc"
"7759"	"Lesser 수룡의 마안"	"4033"	"0"	"Etc"
"7951"	"수룡의 메마른 Tear"	"4033"	"0"	"Etc"
"7761"	"Lesser 화룡의 마안"	"4034"	"0"	"Etc"
"7950"	"화룡의 메마른 Tear"	"4034"	"0"	"Etc"
"7760"	"Lesser 풍룡의 마안"	"4035"	"0"	"Etc"
"7952"	"풍룡의 메마른 Tear"	"4035"	"0"	"Etc"
"7491"	"드래곤 키(미사용)"	"4045"	"0"	"Etc"
"15461"	"드래곤 키(Antharas)"	"4045"	"0"	"Etc"
"15462"	"드래곤 키(Fafurion)"	"4045"	"0"	"Etc"
"15463"	"드래곤 키(Lindvior)"	"4045"	"0"	"Etc"
"7490"	"드루가의 Pouch"	"4046"	"0"	"Etc"
"7779"	"Green Hatchling 알"	"4047"	"0"	"Etc"
"7780"	"Yellow Hatchling 알"	"4048"	"0"	"Etc"
"7448"	"Magic Doll : Yeti"	"4049"	"0"	"Etc"
"7511"	"Magic Doll : Cockatrice"	"4050"	"0"	"Etc"
"7889"	"탄생의 마안"	"4112"	"0"	"Etc"
"7890"	"형상의 마안"	"4113"	"0"	"Etc"
"7891"	"생명의 마안"	"4114"	"0"	"Etc"
"7963"	"창고 관리인의 Key"	"4159"	"0"	"Etc"
"11518"	"드래곤의 Emerald"	"11716"	"0"	"Etc"
"1422011518"	"Novice 드래곤의 Emerald"	"4166"	"0"	"Etc"
"7969"	"드래곤의 Diamond"	"4166"	"0"	"Etc"
"7970"	"드래곤의 Sapphire"	"4167"	"0"	"Etc"
"7971"	"드래곤의 Ruby"	"4168"	"0"	"Etc"
"7972"	"드래곤의 Pearl"	"4169"	"0"	"Etc"
"142207972"	"Novice 드래곤의 Pearl"	"4169"	"0"	"Etc"
"11527"	"드래곤의 Diamond Box"	"4170"	"0"	"Etc"
"11529"	"드래곤의 Emerald Box"	"11717"	"0"	"Etc"
"755411514"	"영혼석: 하딘의 Flesh"	"10205"	"0"	"Etc"
"75542039"	"영혼석(Dark Mage)"	"10206"	"0"	"Etc"
"755411517"	"영혼석(데몬의 Flesh)"	"10207"	"0"	"Etc"
"75543408"	"영혼석(Tarak Flesh)"	"10208"	"0"	"Etc"
"7554331"	"영혼석: Necromancer"	"10284"	"0"	"Etc"
"755415115"	"영혼석(Death Knight)"	"10285"	"0"	"Etc"
"9621"	"지룡의 표식"	"10664"	"0"	"Etc"
"9622"	"수룡의 표식"	"10665"	"0"	"Etc"
"9624"	"화룡의 표식"	"10666"	"0"	"Etc"
"9623"	"풍룡의 표식"	"10667"	"0"	"Etc"
"9625"	"달아난 드래곤의 흔적"	"10668"	"0"	"Etc"
"9626"	"드래곤의 Tear"	"10669"	"0"	"Etc"
"9627"	"드래곤의 돌"	"10670"	"0"	"Etc"
"10191"	"Magic Doll : Ettin"	"11247"	"0"	"Etc"
"10196"	"만월의 정기"	"11272"	"0"	"Etc"
"11508"	"마Water 기운"	"11713"	"0"	"Etc"
"12335"	"Lesser TOI 1층 이동 Talisman"	"12168"	"0"	"Etc"
"12336"	"TOI 1층 이동 Talisman"	"12169"	"0"	"Etc"
"12333"	"TOI 1층 이동 Scroll"	"12170"	"0"	"Etc"
"12337"	"TOI 1층 지배 Talisman"	"12171"	"0"	"Etc"
"12338"	"TOI 2층 지배 Talisman"	"12172"	"0"	"Etc"
"12339"	"TOI 3층 지배 Talisman"	"12173"	"0"	"Etc"
"12340"	"TOI 4층 지배 Talisman"	"12174"	"0"	"Etc"
"12341"	"TOI 5층 지배 Talisman"	"12175"	"0"	"Etc"
"12342"	"TOI 6층 지배 Talisman"	"12176"	"0"	"Etc"
"12343"	"TOI 7층 지배 Talisman"	"12177"	"0"	"Etc"
"12344"	"TOI 8층 지배 Talisman"	"12178"	"0"	"Etc"
"12345"	"TOI 9층 지배 Talisman"	"12179"	"0"	"Etc"
"12346"	"TOI 10층 지배 Talisman"	"12180"	"0"	"Etc"
"12954"	"눈의 Crystal"	"12533"	"0"	"Etc"
"12944"	"Lesser 극한의 Chainsword"	"12534"	"0"	"Etc"
"12945"	"Lesser 냉한의 Kiringku"	"12535"	"0"	"Etc"
"12956"	"극한의 Sandals 원석"	"12566"	"0"	"Etc"
"12957"	"극한의 드레스 옷감"	"12567"	"0"	"Etc"
"12955"	"극한의 티아라 원석"	"12568"	"0"	"Etc"
"13341"	"Mysterious 기억의 구슬"	"12840"	"0"	"Etc"
"9294"	"빛바랜 고서"	"12903"	"0"	"Etc"
"9295"	"마력을 잃은 룬"	"12909"	"0"	"Etc"
"755412400"	"영혼석(왜곡의 Zenith Queen)"	"12954"	"0"	"Etc"
"755412401"	"영혼석(불신의 Seer)"	"12955"	"0"	"Etc"
"755412402"	"영혼석(Horrific Vampire)"	"12956"	"0"	"Etc"
"755412403"	"영혼석(죽음의 Zombie Lord)"	"12957"	"0"	"Etc"
"755412404"	"영혼석(지옥의 Cougar)"	"12958"	"0"	"Etc"
"755412405"	"영혼석(불사의 머미 로드)"	"12959"	"0"	"Etc"
"755412406"	"영혼석(냉혹의 Iris)"	"12960"	"0"	"Etc"
"755412407"	"영혼석(Dark Knight Vald)"	"12961"	"0"	"Etc"
"755412408"	"영혼석(불멸의 Lich)"	"12962"	"0"	"Etc"
"755412409"	"영혼석(사신 그림 Reaper)"	"12963"	"0"	"Etc"
"13516"	"드래곤의 자수정"	"13508"	"0"	"Etc"
"13906"	"힘센 한우 스테이크"	"13672"	"0"	"Etc"
"13907"	"날샌 연어 찜"	"13673"	"0"	"Etc"
"13908"	"영리한 칠면조 구이"	"13674"	"0"	"Etc"
"13909"	"수련의 닭고기 스프"	"13675"	"0"	"Etc"
"13922"	"완력의 도시락 바구니"	"13676"	"0"	"Etc"
"13923"	"Dexterity 도시락 바구니"	"13677"	"0"	"Etc"
"13924"	"지식의 도시락 바구니"	"13678"	"0"	"Etc"
"13925"	"성장의 도시락 바구니"	"13679"	"0"	"Etc"
"14289"	"에르자베의 알"	"13803"	"0"	"Etc"
"142201191"	"Novice Herb"	"13893"	"0"	"Etc"
"14220257"	"Novice Resurrection Scroll"	"13910"	"0"	"Etc"
"14220316"	"Novice Cure Poison Potion"	"13911"	"0"	"Etc"
"14220507"	"Novice Mana Potion"	"13912"	"0"	"Etc"
"142201100"	"Novice Whetstone"	"13913"	"0"	"Etc"
"14220508"	"Novice Magic Gem"	"13958"	"0"	"Etc"
"142201822"	"Novice Spirit Gem"	"13959"	"0"	"Etc"
"142202475"	"Novice Dark Stone"	"13960"	"0"	"Etc"
"142206072"	"Novice Bone Fragment"	"13961"	"0"	"Etc"
"142206346"	"Novice Elemental Stone"	"13962"	"0"	"Etc"
"14563"	"Magic Doll : 챔피언"	"14053"	"0"	"Etc"
"14564"	"Magic Doll : 새"	"14054"	"0"	"Etc"
"14565"	"Magic Doll : 강남스타일"	"14055"	"0"	"Etc"
"14574"	"싸이 Polymorph Scroll"	"14059"	"0"	"Etc"
"14573"	"싸이 Polymorph Scroll"	"14060"	"0"	"Etc"
"14572"	"싸이 Polymorph Scroll"	"14061"	"0"	"Etc"
"20462"	"퓨어 Elixir"	"14092"	"0"	"Etc"
"14650"	"부서진 Fire Ring"	"14107"	"0"	"Etc"
"14651"	"부서진 Water Ring"	"14108"	"0"	"Etc"
"14652"	"부서진 지진의 Ring"	"14109"	"0"	"Etc"
"14653"	"부서진 Stormy Ring"	"14110"	"0"	"Etc"
"75549255"	"영혼석(Keyna)"	"14401"	"0"	"Etc"
"75549256"	"영혼석(Edea)"	"14402"	"0"	"Etc"
"75549257"	"영혼석(Viatas)"	"14403"	"0"	"Etc"
"75549258"	"영혼석(Baromes)"	"14404"	"0"	"Etc"
"75549259"	"영혼석(Tiames)"	"14405"	"0"	"Etc"
"75549260"	"영혼석(Endias)"	"14406"	"0"	"Etc"
"75549261"	"영혼석(Ramias)"	"14407"	"0"	"Etc"
"75549262"	"영혼석(Barode)"	"14408"	"0"	"Etc"
"75549263"	"영혼석: Hellvine"	"14409"	"0"	"Etc"
"75549264"	"영혼석: Laia"	"14410"	"0"	"Etc"
"75549265"	"영혼석: Baranka"	"14411"	"0"	"Etc"
"75549266"	"영혼석: 슬레이브"	"14412"	"0"	"Etc"
"15560"	"고탄력 낚싯대"	"14462"	"0"	"Etc"
"15582"	"릴 장착 고탄력 낚싯대"	"14463"	"0"	"Etc"
"15561"	"폴의 쾌속 릴 100회"	"14464"	"0"	"Etc"
"15563"	"영양 Bait"	"14467"	"0"	"Etc"
"15564"	"베리아나"	"14468"	"0"	"Etc"
"15565"	"블루 베리아나"	"14469"	"0"	"Etc"
"15566"	"앵무 베리아나"	"14470"	"0"	"Etc"
"15815"	"축축한 낚시가방"	"14473"	"0"	"Etc"
"3450"	"Magic Doll Pouch"	"14474"	"0"	"Etc"
"15571"	"High Quality Magic Doll Box"	"14475"	"0"	"Etc"
"15574"	"Magic Doll : Lich"	"14478"	"0"	"Etc"
"10129"	"Magic Doll : Snowman"	"14808"	"0"	"Etc"
"16785"	"포탄"	"14817"	"0"	"Etc"
"16863"	"드래곤의 토파즈"	"14825"	"0"	"Etc"
"15720"	"Berry"	"14921"	"0"	"Etc"
"17474"	"포노스 토템"	"14981"	"0"	"Etc"
"17532"	"성장의 구슬 : 몽환의 Island (탐)"	"14998"	"0"	"Etc"
"17535"	"장인의 Enchant Weapon Scroll"	"15002"	"0"	"Etc"
"17748"	"마법 막대(Fire Storm)"	"15005"	"0"	"Etc"
"17550"	"금화 Pouch"	"15022"	"0"	"Etc"
"17808"	"드레이크의 피"	"15093"	"0"	"Etc"
"17807"	"제로스의 영혼구"	"15094"	"0"	"Etc"
"17658"	"제로스의 Pouch"	"15095"	"0"	"Etc"
"17657"	"드레이크의 알"	"15096"	"0"	"Etc"
"17806"	"대 Dark Elder Box"	"15097"	"0"	"Etc"
"17805"	"수상한 Box"	"15098"	"0"	"Etc"
"1557017801"	"Magic Doll Box (탐)"	"15212"	"0"	"Etc"
"1797918184"	"탐나는 성장의 Fruit(7일)"	"15224"	"0"	"Etc"
"1797919359"	"탐나는 성장의 Fruit(30일)"	"15224"	"0"	"Etc"
"19257"	"마력의 실타래"	"15500"	"0"	"Etc"
"19263"	"마력의 Nucleus"	"15501"	"0"	"Etc"
"19487"	"픽시의 Golden 깃털"	"15567"	"0"	"Etc"
"10966"	"피에 젖은 붕대"	"15726"	"0"	"Etc"
"10967"	"우그누스의 부러진 Spear"	"15727"	"0"	"Etc"
"12855"	"Magic Doll : Drake"	"15809"	"0"	"Etc"
"20478"	"Magic Doll : Succubus Queen"	"15810"	"0"	"Etc"
"20872"	"Magic Doll : Mermaid"	"16052"	"0"	"Etc"
"20466"	"Magic Doll : Giant"	"16053"	"0"	"Etc"
"20873"	"Magic Doll : 킹버그Bear"	"16054"	"0"	"Etc"
"20477"	"Magic Doll : Black Elder"	"16054"	"0"	"Etc"
"20875"	"Magic Doll : Knight Vald"	"16056"	"0"	"Etc"
"20461"	"Magic Doll : Cyclops"	"16056"	"0"	"Etc"
"20874"	"Magic Doll : Demon"	"16057"	"0"	"Etc"
"20876"	"Magic Doll : Death Knight"	"16057"	"0"	"Etc"
"20877"	"Magic Doll : Seer"	"16058"	"0"	"Etc"
"20910"	"성장의 낚싯대"	"16077"	"0"	"Etc"
"21313"	"Magic Doll : Lava Golem"	"16107"	"0"	"Etc"
"21314"	"Magic Doll : Diamond Golem"	"16108"	"0"	"Etc"
"21343"	"Magic Doll : 목각"	"16109"	"0"	"Etc"
"21980"	"정상의 가호"	"16331"	"0"	"Etc"
"16"	"Katana"	"2"	"0"	"Weapon"
"3"	"Two-handed Sword"	"6"	"0"	"Weapon"
"12"	"Elven Dagger"	"39"	"0"	"Weapon"
"73"	"Fauchard"	"44"	"0"	"Weapon"
"95"	"Elven Spear"	"70"	"0"	"Weapon"
"105"	"Longbow"	"81"	"0"	"Weapon"
"313"	"Red Knight Sword"	"123"	"0"	"Weapon"
"412"	"Great Axe"	"138"	"0"	"Weapon"
"415"	"Gradius"	"141"	"0"	"Weapon"
"416"	"Dice Dagger"	"142"	"0"	"Weapon"
"418"	"Berserker Axe"	"144"	"0"	"Weapon"
"428"	"Porsche's Sword"	"152"	"0"	"Weapon"
"570"	"Oak Staff"	"230"	"0"	"Weapon"
"571"	"Wizard's Staff"	"231"	"0"	"Weapon"
"572"	"Staff of Sorcery"	"232"	"0"	"Weapon"
"573"	"Staff of Strength"	"233"	"0"	"Weapon"
"598"	"Damascus Sword"	"235"	"0"	"Weapon"
"789"	"Rapier"	"274"	"0"	"Weapon"
"784"	"Crossbow"	"269"	"0"	"Weapon"
"793"	"Mail Breaker"	"278"	"0"	"Weapon"
"792"	"Oriharukon-Coated Horn"	"277"	"0"	"Weapon"
"98"	"Elven Short Sword"	"284"	"0"	"Weapon"
"803"	"Elven Sword of Spell Power"	"286"	"0"	"Weapon"
"1048"	"Greatsword"	"337"	"0"	"Weapon"
"1063"	"Staff of Mana"	"342"	"0"	"Weapon"
"1098"	"Elven Short Sword of Constitution"	"346"	"0"	"Weapon"
"1099"	"Elven Bow of Dexterity"	"347"	"0"	"Weapon"
"802"	"Elven Sword of Dexterity"	"347"	"0"	"Weapon"
"19581938"	"Forgotten Greatsword"	"659"	"0"	"Weapon"
"19581939"	"Forgotten Sword"	"660"	"0"	"Weapon"
"19581940"	"Forgotten Bowgun"	"661"	"0"	"Weapon"
"1951"	"Ancient Greatsword"	"671"	"0"	"Weapon"
"1950"	"Ancient Sword"	"672"	"0"	"Weapon"
"1952"	"Ancient Bowgun"	"673"	"0"	"Weapon"
"2080"	"Crystal Staff"	"711"	"0"	"Weapon"
"2253"	"Celestial Sword"	"760"	"0"	"Weapon"
"2252"	"Ancient Bow"	"771"	"0"	"Weapon"
"2241"	"Ancient Wisdom"	"772"	"0"	"Weapon"
"2350"	"Death Blade"	"787"	"0"	"Weapon"
"2352"	"Bow of Flames"	"789"	"0"	"Weapon"
"2353"	"Sword of Flames"	"790"	"0"	"Weapon"
"2354"	"Gold Scepter"	"791"	"0"	"Weapon"
"24522449"	"Dark Edoryu"	"846"	"0"	"Weapon"
"2452372"	"Dark Claw"	"847"	"0"	"Weapon"
"24522451"	"Dark Bow"	"848"	"0"	"Weapon"
"24542449"	"Silver Edoryu"	"849"	"0"	"Weapon"
"2454372"	"Silver Claw"	"850"	"0"	"Weapon"
"24532449"	"Black Edoryu"	"851"	"0"	"Weapon"
"2453372"	"Black Claw"	"852"	"0"	"Weapon"
"24532451"	"Black Bow"	"853"	"0"	"Weapon"
"2455"	"Kaiser Edoryu"	"854"	"0"	"Weapon"
"2456"	"Kaiser Claw"	"855"	"0"	"Weapon"
"2457"	"Kaiser Crossbow"	"856"	"0"	"Weapon"
"24602449"	"Shadow Edoryu"	"859"	"0"	"Weapon"
"3866"	"Fang Blade Edoryu"	"859"	"0"	"Weapon"
"24612449"	"Stealth Edoryu"	"860"	"0"	"Weapon"
"24622449"	"Damascus Edoryu"	"861"	"0"	"Weapon"
"24582449"	"Bronze Edoryu"	"862"	"0"	"Weapon"
"2458372"	"Bronze Claw"	"862"	"0"	"Weapon"
"24592449"	"Iron Edoryu"	"863"	"0"	"Weapon"
"2459372"	"Iron Claw"	"863"	"0"	"Weapon"
"2460372"	"Shadow Claw"	"864"	"0"	"Weapon"
"2461372"	"Stealth Claw"	"865"	"0"	"Weapon"
"2462372"	"Damascus Claw"	"866"	"0"	"Weapon"
"2464"	"Gauntlet"	"868"	"0"	"Weapon"
"5126"	"Blue Sky Gauntlet"	"868"	"0"	"Weapon"
"2626"	"Jinn Gauntlet"	"943"	"0"	"Weapon"
"2754"	"Ice Queen Staff"	"988"	"0"	"Weapon"
"18621"	"Death Knight Fire Sword:Jinn"	"992"	"0"	"Weapon"
"2758"	"Death Knight Fire Sword"	"992"	"0"	"Weapon"
"2759"	"Edoryu of Ronde"	"993"	"0"	"Weapon"
"2760"	"Unknown Spear"	"994"	"0"	"Weapon"
"2761"	"Unknown Axe"	"995"	"0"	"Weapon"
"2762"	"Blade of Revenge"	"996"	"0"	"Weapon"
"2763"	"Claws of Hatred"	"997"	"0"	"Weapon"
"2764"	"Staff of Demon"	"998"	"0"	"Weapon"
"2766"	"Staff of Baphomet"	"1000"	"0"	"Weapon"
"2768"	"Staff of Beleth"	"1002"	"0"	"Weapon"
"2771"	"Ancient Elf Bow"	"1005"	"0"	"Weapon"
"2772"	"Ancient Dark Elf Sword"	"1006"	"0"	"Weapon"
"2777"	"Sword of Kurtz"	"1011"	"0"	"Weapon"
"2648"	"Finger of Death"	"1049"	"0"	"Weapon"
"2903"	"Lastavard Long Sword"	"1076"	"0"	"Weapon"
"2904"	"Lastavard Edoryu"	"1077"	"0"	"Weapon"
"2905"	"Lastavard Dagger"	"1078"	"0"	"Weapon"
"2920"	"Lastavard Blade"	"1079"	"0"	"Weapon"
"2906"	"Lastavard One-Handed Spear"	"1080"	"0"	"Weapon"
"2907"	"Lastavard Bow"	"1081"	"0"	"Weapon"
"2915"	"Lastavard Crossbow"	"1082"	"0"	"Weapon"
"2908"	"Lastavard Heavy Crossbow"	"1083"	"0"	"Weapon"
"2909"	"Lastavard Staff"	"1084"	"0"	"Weapon"
"2990"	"Staff of Ice Queen"	"1094"	"0"	"Weapon"
"2991"	"Staff of Demon"	"1095"	"0"	"Weapon"
"2992"	"Staff of Baphomet"	"1096"	"0"	"Weapon"
"2993"	"Staff of Beleth"	"1097"	"0"	"Weapon"
"2994"	"Kurtz's Sword"	"1098"	"0"	"Weapon"
"3073"	"Baranka Claw"	"1161"	"0"	"Weapon"
"3078"	"Laia's Wand"	"1166"	"0"	"Weapon"
"3089"	"Black Wizard's Staff"	"1177"	"0"	"Weapon"
"3110"	"Sword of Silence"	"1198"	"0"	"Weapon"
"3111"	"Diad Fortress Edoryu"	"1199"	"0"	"Weapon"
"3112"	"Diad Fortress Crossbow"	"1200"	"0"	"Weapon"
"3247"	"Oriharukon Dagger"	"1282"	"0"	"Weapon"
"3248"	"Mithril Dagger"	"1283"	"0"	"Weapon"
"3249"	"Demon Axe"	"1284"	"0"	"Weapon"
"3250"	"Crimson Lance"	"1285"	"0"	"Weapon"
"3279"	"Novice Sword"	"1320"	"0"	"Weapon"
"3280"	"Novice Two-handed Sword"	"1321"	"0"	"Weapon"
"3281"	"Novice Axe"	"1322"	"0"	"Weapon"
"3282"	"Novice Spear"	"1323"	"0"	"Weapon"
"3283"	"Novice Bow"	"1324"	"0"	"Weapon"
"3284"	"Novice Crossbow"	"1325"	"0"	"Weapon"
"3285"	"Novice Staff"	"1326"	"0"	"Weapon"
"3286"	"Novice Edoryu"	"1327"	"0"	"Weapon"
"3287"	"Novice Claw"	"1328"	"0"	"Weapon"
"3288"	"Novice Dagger"	"1329"	"0"	"Weapon"
"3374"	"Devil Crossbow"	"1410"	"0"	"Weapon"
"3375"	"Devil Knife"	"1411"	"0"	"Weapon"
"3376"	"Devil Edoryu"	"1412"	"0"	"Weapon"
"3377"	"Devil Claw"	"1413"	"0"	"Weapon"
"3505"	"Shamshir"	"1497"	"0"	"Weapon"
"3735"	"Heaven's Hammer"	"1704"	"0"	"Weapon"
"3736"	"Salcheon's Bow"	"1705"	"0"	"Weapon"
"3737"	"Claw of Chaos"	"1706"	"0"	"Weapon"
"3836"	"\aH붉은그림자의 Edoryu"	"1752"	"0"	"Weapon"
"3838"	"\aH수정결정체 Quarterstaff"	"1754"	"0"	"Weapon"
"3839"	"Pretender King Greatsword"	"1755"	"0"	"Weapon"
"3840"	"Pretender King Long Sword"	"1756"	"0"	"Weapon"
"3847"	"New King Staff"	"1763"	"0"	"Weapon"
"3790"	"Sword of Honor"	"1807"	"0"	"Weapon"
"3791"	"Abyss Edoryu"	"1808"	"0"	"Weapon"
"3792"	"Silent Crossbow"	"1809"	"0"	"Weapon"
"3793"	"Jet-Black Crystal Ball"	"1810"	"0"	"Weapon"
"3795"	"Desire Red Sword"	"1812"	"0"	"Weapon"
"3796"	"Lizardman Champion's Sword"	"1813"	"0"	"Weapon"
"3834"	"\aH진명황의 집행검"	"1819"	"0"	"Weapon"
"3835"	"\aH바람칼날의 Dagger"	"1820"	"0"	"Weapon"
"3997"	"[캐릭터명]의 요정 Bow"	"1852"	"0"	"Weapon"
"4046"	"Sword of Trials"	"1869"	"0"	"Weapon"
"4384"	"Purgatory Claw"	"2100"	"0"	"Weapon"
"4385"	"Sea God's Trident"	"2101"	"0"	"Weapon"
"4386"	"Symbol of Dignity"	"2102"	"0"	"Weapon"
"4387"	"Crimson Crossbow"	"2103"	"0"	"Weapon"
"5254"	"Halloween Pumpkin Sword"	"2791"	"0"	"Weapon"
"5486"	"Magic Dagger"	"3015"	"0"	"Weapon"
"5487"	"Wind Axe"	"3016"	"0"	"Weapon"
"5488"	"Greatsword of Doom"	"3017"	"0"	"Weapon"
"13819"	"천사의 Quarterstaff"	"3018"	"0"	"Weapon"
"5490"	"Cold Spear"	"3019"	"0"	"Weapon"
"5491"	"Sword of Thunder"	"3020"	"0"	"Weapon"
"5661"	"Illusionist's Battle Wand"	"3216"	"0"	"Weapon"
"5662"	"Sapphire Kiringku"	"3217"	"0"	"Weapon"
"5663"	"Obsidian Kiringku"	"3218"	"0"	"Weapon"
"5664"	"용Knight의 Two-handed Sword"	"3219"	"0"	"Weapon"
"5568"	"Destructor's Chainsword"	"3223"	"0"	"Weapon"
"5669"	"Defiler's Chainsword"	"3224"	"0"	"Weapon"
"5718"	"Thebes Osiris Edoryu"	"3263"	"0"	"Weapon"
"5719"	"Thebes Osiris Two-handed Sword"	"3264"	"0"	"Weapon"
"5720"	"Thebes Osiris Bow"	"3265"	"0"	"Weapon"
"5721"	"Staff of Thebes Osiris"	"3266"	"0"	"Weapon"
"5828"	"Elmore Dagger"	"3336"	"0"	"Weapon"
"5829"	"Elmore Sword"	"3337"	"0"	"Weapon"
"5830"	"Elmore Two-handed Sword"	"3338"	"0"	"Weapon"
"5831"	"Elmore Bowgun"	"3339"	"0"	"Weapon"
"5833"	"Elmore Staff"	"3341"	"0"	"Weapon"
"61312449"	"악마왕의 Edoryu"	"3668"	"0"	"Weapon"
"613124"	"악마왕의 Bow"	"3669"	"0"	"Weapon"
"613125"	"악마왕의 Spear"	"3670"	"0"	"Weapon"
"61313"	"악마왕의 Two-handed Sword"	"3671"	"0"	"Weapon"
"613188"	"악마왕의 Quarterstaff"	"3672"	"0"	"Weapon"
"6428"	"Kukulkan's Spear"	"3774"	"0"	"Weapon"
"6429"	"Kukulkan's Gauntlet"	"3775"	"0"	"Weapon"
"8271"	"Halloween Quarterstaff"	"4205"	"0"	"Weapon"
"10197"	"신묘한 Long Sword"	"11264"	"0"	"Weapon"
"10198"	"신묘한 Quarterstaff"	"11265"	"0"	"Weapon"
"10199"	"신묘한 Claw"	"11266"	"0"	"Weapon"
"10200"	"신묘한 Longbow"	"11267"	"0"	"Weapon"
"17746"	"악몽의 Longbow"	"15003"	"0"	"Weapon"
"17835"	"혈풍의 Axe"	"15109"	"0"	"Weapon"
"17898"	"질풍의 Axe"	"15148"	"0"	"Weapon"
"308"	"Pale Silver Key"	"53"	"0"	"Etc"
"0"	"Long Sword"	"3"	"0"	"Etc"
"1"	"Axe"	"4"	"0"	"Etc"
"2"	"Lamp"	"5"	"0"	"Etc"
"164"	"Ring Mail"	"100"	"0"	"Etc"
"3195"	"Seal of Constitution"	"1246"	"0"	"Etc"
"3193"	"Seal of Harmony"	"1244"	"0"	"Etc"
"3194"	"Seal of Spirit"	"1245"	"0"	"Etc"
"3235"	"Calculator"	"1270"	"0"	"Etc"
"4640"	"Elemental Master"	"2405"	"0"	"Etc"
"4636"	"Water Master"	"2401"	"0"	"Etc"
"4637"	"Fire Master"	"2402"	"0"	"Etc"
"4638"	"Wind Master"	"2403"	"0"	"Etc"
"4639"	"Earth Master"	"2404"	"0"	"Etc"
"4442"	"Angath's Mace"	"2185"	"0"	"Etc"
"4439"	"Breath of Pasaj"	"2182"	"0"	"Etc"
"4440"	"Tail of Angus"	"2183"	"0"	"Etc"
"4441"	"Tooth of Angus"	"2184"	"0"	"Etc"
"4443"	"Blood of Dego"	"2186"	"0"	"Etc"
"4436"	"Sand"	"2179"	"0"	"Etc"
"4430"	"Sheba Human Shield"	"2173"	"0"	"Etc"
"4432"	"Sheba Human Leather : Wind"	"2175"	"0"	"Etc"
"4433"	"Sheba Human Leather : Water"	"2176"	"0"	"Etc"
"4434"	"Sheba Human Leather : Fire"	"2177"	"0"	"Etc"
"4435"	"Sheba Human Leather : Earth"	"2178"	"0"	"Etc"
"4444"	"Fin of Digo"	"2187"	"0"	"Etc"
"4437"	"Bloodied Sand"	"2180"	"0"	"Etc"
"4438"	"Wings of Pasaj"	"2181"	"0"	"Etc"
"4429"	"Sheba Human Spear"	"2172"	"0"	"Etc"
"4425"	"Sheba Human Tail : Wind"	"2168"	"0"	"Etc"
"4426"	"Sheba Human Tail : Water"	"2169"	"0"	"Etc"
"4427"	"Sheba Human Tail : Fire"	"2170"	"0"	"Etc"
"4428"	"Sheba Human Tail : Earth"	"2171"	"0"	"Etc"
"4431"	"Sheba Human Fang"	"2174"	"0"	"Etc"
"3521"	"Special Spirit Crystal"	"1486"	"0"	"Etc"
"3522"	"Fragment of Spirit"	"1485"	"0"	"Etc"
"3350"	"Shout of Corruption"	"1386"	"0"	"Etc"
"3352"	"Corruption's Poison"	"1388"	"0"	"Etc"
"3354"	"Corruption's Tooth"	"1390"	"0"	"Etc"
"3356"	"Touch of Corruption"	"1392"	"0"	"Etc"
"3945"	"Shadow Temple Key 2F"	"1821"	"0"	"Etc"
"3946"	"Shadow Temple Key 3F"	"1822"	"0"	"Etc"
"3554"	"Teleport - Diad Fortress"	"1513"	"0"	"Etc"
"3544"	"Piece of Large Cave Scroll"	"1512"	"0"	"Etc"
"3553"	"Diad Scroll Piece"	"1519"	"0"	"Etc"
"3532"	"Bats Fang"	"1500"	"0"	"Etc"
"3534"	"Deep Flower Twig"	"1502"	"0"	"Etc"
"3537"	"Scorpion Shell"	"1505"	"0"	"Etc"
"3535"	"Black Tiger Heart"	"1503"	"0"	"Etc"
"3536"	"Dark Elven Pouch"	"1504"	"0"	"Etc"
"3538"	"Muryan Web"	"1506"	"0"	"Etc"
"4377"	"Fidelity Gloves"	"2079"	"0"	"Etc"
"4378"	"Fidelity Armor"	"2078"	"0"	"Etc"
"4379"	"Fidelity Boots"	"2080"	"0"	"Etc"
"4380"	"Fidelity Helmet"	"2081"	"0"	"Etc"
"4381"	"Fidelity Cloak"	"2082"	"0"	"Etc"
"3843"	"Pretender King Cloak"	"1759"	"0"	"Etc"
"24532450"	"Black Claw"	"852"	"0"	"Etc"
"419"	"Shield of Eva"	"145"	"0"	"Etc"
"5668"	"Destructor's Chainsword"	"3223"	"0"	"Etc"
"5887"	"Talion's Weapon Material List"	"3524"	"0"	"Etc"
"5964"	"Sparkling Silver"	"3590"	"0"	"Etc"
"19581934"	"Lesser Forgotten Leather Armor"	"655"	"0"	"Etc"
"19581933"	"Lesser Forgotten Plate Mail"	"654"	"0"	"Etc"
"12901"	"극한의 Chainsword"	"12527"	"0"	"Etc"
"5775"	"Recommendation of Sleyin"	"3286"	"0"	"Etc"
"5646"	"Special Ore"	"3202"	"0"	"Etc"
"12902"	"냉한의 Kiringku"	"12528"	"0"	"Etc"
"779"	"Mithril Plate"	"264"	"0"	"Etc"
"3030"	"Lump of Silver"	"1139"	"0"	"Etc"
"13348"	"촉매 추출 Pouch"	"12807"	"0"	"Etc"
"10704"	"Constitution Garder"	"11329"	"0"	"Etc"
"10602"	"오림의 Journal Page"	"11312"	"0"	"Etc"
"10705"	"수호의 Garder"	"11330"	"0"	"Etc"
"10706"	"Wizard Garder"	"11331"	"0"	"Etc"
"8830"	"숨겨진 마족의 무기함"	"15152"	"0"	"Etc"
"8841"	"어두운 하딘의 Journal Page"	"10028"	"0"	"Etc"
"5471"	"Demon Statue"	"2998"	"0"	"Etc"
"5472"	"Drake Statue"	"2999"	"0"	"Etc"
"5473"	"Cougar Statue"	"3000"	"0"	"Etc"
"5474"	"Iris Statue"	"3001"	"0"	"Etc"
"5475"	"Greater Minotaur Statue"	"3002"	"0"	"Etc"
"9383"	"Varlok 봉헌 Scroll"	"11155"	"0"	"Etc"
"16116"	"Alice Tier 1"	"2159"	"0"	"Etc"
"4423"	"Varlok's Two-handed Sword"	"2158"	"0"	"Etc"
"4418"	"Claws of Varlok"	"2153"	"0"	"Etc"
"3956"	"Blood Stone Fragment"	"1825"	"0"	"Etc"
"9384"	"Yahee 봉헌 Scroll"	"11156"	"0"	"Etc"
"16117"	"Alice Tier 2"	"2160"	"0"	"Etc"
"4422"	"Fangs of Varlok"	"2157"	"0"	"Etc"
"16118"	"Alice Tier 3"	"2161"	"0"	"Etc"
"4417"	"Wings of Varlok"	"2152"	"0"	"Etc"
"16119"	"Alice Tier 4"	"2162"	"0"	"Etc"
"4419"	"Varlok's Flesh"	"2154"	"0"	"Etc"
"16120"	"Alice Tier 5"	"2163"	"0"	"Etc"
"4424"	"Horns of Varlok"	"2167"	"0"	"Etc"
"16121"	"Alice Teir 6"	"2164"	"0"	"Etc"
"4421"	"Lungs of Varlok"	"2156"	"0"	"Etc"
"16122"	"Alice Teir 7"	"2165"	"0"	"Etc"
"4420"	"Heart of Varlok"	"2155"	"0"	"Etc"
"16123"	"Alice Teir 8"	"2166"	"0"	"Etc"
"4416"	"Mask of Varlok"	"2151"	"0"	"Etc"
"15358"	"환영의 Chainsword"	"14306"	"0"	"Etc"
"15359"	"공명의 Kiringku"	"14307"	"0"	"Etc"
"783"	"Pan's Horn"	"268"	"0"	"Etc"
"769"	"Arachne's Web"	"254"	"0"	"Etc"
"791"	"Mithril-Coated Horn"	"276"	"0"	"Etc"
"785"	"Body of Short Sword"	"270"	"0"	"Etc"
"787"	"Body of Oriharukon Sword"	"272"	"0"	"Etc"
"796"	"Elven Chain Mail"	"281"	"0"	"Etc"
"788"	"Elven Plate Mail"	"273"	"0"	"Etc"
"775"	"Bracer"	"260"	"0"	"Etc"
"773"	"Mithril Arrow"	"258"	"0"	"Etc"
"3513"	"Oriharukon Arrow"	"1483"	"0"	"Etc"
"1209"	"Iron Visor"	"366"	"0"	"Etc"
"1212"	"Iron Plate Mail"	"369"	"0"	"Etc"
"1208"	"Iron Gloves"	"365"	"0"	"Etc"
"1211"	"Iron Boots"	"368"	"0"	"Etc"
"1210"	"Iron Shield"	"367"	"0"	"Etc"
"12893"	"극한의 Helmet"	"12531"	"0"	"Etc"
"12892"	"극한의 Armor"	"12529"	"0"	"Etc"
"12894"	"극한의 Boots"	"12530"	"0"	"Etc"
"4624"	"Black Mithril Solution"	"2390"	"0"	"Etc"
"178"	"Cloak of Protection"	"109"	"0"	"Etc"
"17"	"Tsurugi"	"78"	"0"	"Etc"
"1821"	"Sayha Bow"	"568"	"0"	"Etc"
"15667"	"대마법사의 모자"	"10283"	"0"	"Etc"
"24522450"	"Dark Claw"	"847"	"0"	"Etc"
"24542450"	"Silver Claw"	"850"	"0"	"Etc"
"3514"	"Black Mithril Arrow"	"1484"	"0"	"Etc"
"1669"	"Belt of Body"	"505"	"0"	"Etc"
"1670"	"Belt of Mind"	"506"	"0"	"Etc"
"1671"	"Belt of Soul"	"507"	"0"	"Etc"
"1652234"	"Greater Haste Potion"	"495"	"0"	"Etc"
"2864"	"Tear of Moonlight"	"1074"	"0"	"Etc"
"1960"	"Magic Book (Glowing Weapon)"	"676"	"0"	"Etc"
"3175"	"Magic Book (Shining Shield)"	"1220"	"0"	"Etc"
"3176"	"Magic Book (Brave Aura)"	"1221"	"0"	"Etc"
"3260"	"Magic Book (Teleport to Clan)"	"1295"	"0"	"Etc"
"1868"	"Magic Book (Life Stream)"	"609"	"0"	"Etc"
"2874"	"Fang of Victory"	"1072"	"0"	"Etc"
"2868"	"Fang of Destruction"	"1066"	"0"	"Etc"
"24732465"	"Earth Cloak"	"878"	"0"	"Etc"
"24712465"	"물결의 Cloak"	"876"	"0"	"Etc"
"24722465"	"Wind Cloak"	"877"	"0"	"Etc"
"24702465"	"열화의 Cloak"	"875"	"0"	"Etc"
"7736"	"농축 Brave Potion"	"4102"	"0"	"Etc"
"7735"	"농축 집중의 Potion"	"4101"	"0"	"Etc"
"7738"	"농축 Wisdom Potion"	"4104"	"0"	"Etc"
"7737"	"농축 마력의 Potion"	"4103"	"0"	"Etc"
"7733"	"농축 속도의 Potion"	"4099"	"0"	"Etc"
"7734"	"농축 호흡의 Potion"	"4100"	"0"	"Etc"
"7739"	"농축 변신의 Potion"	"4105"	"0"	"Etc"
"15666152"	"멸마의 Plate Mail"	"1748"	"0"	"Etc"
"15666162"	"멸마의 Scale Mail"	"10280"	"0"	"Etc"
"15666116"	"멸마의 Leather Armor"	"10281"	"0"	"Etc"
"156662466"	"멸마의 Robe"	"10282"	"0"	"Etc"
"13887"	"파괴의 Claw"	"13664"	"0"	"Etc"
"13893"	"파괴의 Edoryu"	"13665"	"0"	"Etc"
"3189"	"Rough Blade"	"1240"	"0"	"Etc"
"3056"	"Coin of Honor"	"1147"	"0"	"Etc"
"14"	"Athame"	"1"	"0"	"Etc"
"49286099"	"Fantasy Roasted Claw of Crustacean"	"3626"	"0"	"Etc"
"3057"	"Coin of Trust"	"1148"	"0"	"Etc"
"49286100"	"Fantasy Griffon Roast"	"3627"	"0"	"Etc"
"3059"	"Coin of Bravery"	"1149"	"0"	"Etc"
"49286101"	"Fantasy Cockatrice Steak"	"3628"	"0"	"Etc"
"3058"	"Coin of Wisdom"	"1150"	"0"	"Etc"
"49286102"	"Fantasy Great King Turtle Roast"	"3629"	"0"	"Etc"
"49286103"	"Fantasy Lesser Dragon Wing Skewers"	"3630"	"0"	"Etc"
"49286104"	"Fantasy Drake Roast"	"3631"	"0"	"Etc"
"49286105"	"Fantasy Deep Sea Fish Stew"	"3632"	"0"	"Etc"
"49286106"	"Fantasy Basilisk Egg Soup"	"3633"	"0"	"Etc"
"4456"	"Soul Earrings"	"2055"	"0"	"Etc"
"3880"	"Arcane Army Evidence"	"1796"	"0"	"Etc"
"1665"	"Ring of Earth Resistance"	"500"	"0"	"Etc"
"1664"	"Ring of Water Resistance"	"499"	"0"	"Etc"
"1666"	"Ring of Wind Resistance"	"501"	"0"	"Etc"
"1663"	"Ring of Fire Resistance"	"498"	"0"	"Etc"
"16798"	"용의 Pumpkin Armor"	"14821"	"0"	"Etc"
"14405"	"호박검"	"14026"	"0"	"Etc"
"14406"	"Pumpkin Two-handed Sword"	"14027"	"0"	"Etc"
"14412"	"완력의 Pumpkin Quarterstaff"	"4205"	"0"	"Etc"
"14407"	"지식의 Pumpkin Quarterstaff"	"14028"	"0"	"Etc"
"14408"	"Pumpkin 각궁"	"14029"	"0"	"Etc"
"14409"	"Pumpkin Chainsword"	"14030"	"0"	"Etc"
"14410"	"Pumpkin Kiringku"	"14031"	"0"	"Etc"
"14411"	"Dark Pumpkin Armor"	"12109"	"0"	"Etc"
"14404"	"Pumpkin Gloves"	"14025"	"0"	"Etc"
"16801"	"용의 호박석"	"14820"	"0"	"Etc"
"10112"	"크리스마스 쿠키"	"11208"	"0"	"Etc"
"9300"	"자음 블록(ㄱ)"	"12916"	"0"	"Etc"
"9301"	"자음 블록(ㄷ)"	"12917"	"0"	"Etc"
"9302"	"자음 블록(ㄹ)"	"12918"	"0"	"Etc"
"9303"	"자음 블록(ㅁ)"	"12919"	"0"	"Etc"
"9304"	"자음 블록(ㅂ)"	"12920"	"0"	"Etc"
"9305"	"자음 블록(ㅅ)"	"12921"	"0"	"Etc"
"9306"	"자음 블록(ㅇ)"	"12922"	"0"	"Etc"
"9307"	"자음 블록(ㅈ)"	"12923"	"0"	"Etc"
"9323"	"자음 블록(ㅊ)"	"12924"	"0"	"Etc"
"9324"	"자음 블록(ㅋ)"	"12925"	"0"	"Etc"
"9325"	"자음 블록(ㅌ)"	"12926"	"0"	"Etc"
"9326"	"자음 블록(ㅍ)"	"12927"	"0"	"Etc"
"9339"	"Gift Chest(모태솔로)"	"12950"	"0"	"Etc"
"9340"	"Gift Chest(솔로의 품격)"	"12951"	"0"	"Etc"
"9341"	"Gift Chest(무적의 솔로 부대)"	"12952"	"0"	"Etc"
"9342"	"Gift Chest(솔로천국 커플지옥)"	"12953"	"0"	"Etc"
"17438"	"아툰의 무기 Box"	"14934"	"0"	"Etc"
"17430"	"Fantasy Two-handed Sword"	"14925"	"0"	"Etc"
"17431"	"Fantasy Quarterstaff"	"14926"	"0"	"Etc"
"17432"	"Fantasy One-handed Sword"	"14927"	"0"	"Etc"
"17433"	"Fantasy Bow"	"14928"	"0"	"Etc"
"17434"	"Fantasy Edoryu"	"14929"	"0"	"Etc"
"17435"	"Fantasy Chainsword"	"14930"	"0"	"Etc"
"17436"	"Fantasy Kiringku"	"14931"	"0"	"Etc"
"17476"	"포노스 포상:20만"	"14982"	"0"	"Etc"
"17477"	"포노스 포상:75만"	"14983"	"0"	"Etc"
"17478"	"포노스 포상:300만"	"14984"	"0"	"Etc"
"17479"	"포노스 포상:1000만"	"14985"	"0"	"Etc"
"15539"	"강화된 아르카의 유물 Pouch"	"15073"	"0"	"Etc"
"15537"	"아르카의 유물 Pouch"	"15071"	"0"	"Etc"
"17655"	"제로스의 Quarterstaff"	"15089"	"0"	"Etc"
"17927"	"Wind Spirit 보상:3만"	"15218"	"0"	"Etc"
"7898"	"Elemental Heart:Wind"	"15208"	"0"	"Etc"
"17928"	"Earth Spirit 보상:35만"	"15219"	"0"	"Etc"
"7900"	"Elemental Heart:땅"	"15210"	"0"	"Etc"
"17929"	"Water Spirit 보상:120만"	"15220"	"0"	"Etc"
"7899"	"Elemental Heart:Water"	"15209"	"0"	"Etc"
"17930"	"Fire 보상:500만"	"15221"	"0"	"Etc"
"7897"	"Elemental Heart:Fire"	"15207"	"0"	"Etc"
"18661"	"Dexterity Boots"	"15301"	"0"	"Etc"
"18662"	"지식의 Boots"	"15302"	"0"	"Etc"
"14369"	"Fire 속성 변환 Scroll"	"14015"	"0"	"Etc"
"14372"	"Earth Spirit 속성 변환 Scroll"	"14013"	"0"	"Etc"
"14371"	"Wind Spirit 속성 변환 Scroll"	"14012"	"0"	"Etc"
"14370"	"Water Spirit 속성 변환 Scroll"	"14014"	"0"	"Etc"
"16862"	"드래곤의 연금술 용액"	"14824"	"0"	"Etc"
"17899"	"마Water Axe"	"15147"	"0"	"Etc"
"17837"	"태풍의 Axe"	"15112"	"0"	"Etc"
"17854"	"Lesser 태풍의 Axe"	"15150"	"0"	"Etc"
"17853"	"Lesser 혈풍의 Axe"	"15149"	"0"	"Etc"
"9285"	"Strength 룬 Pouch"	"15542"	"0"	"Etc"
"9286"	"Dexterity 룬 Pouch"	"15543"	"0"	"Etc"
"9287"	"Constitution 룬 Pouch"	"15544"	"0"	"Etc"
"9288"	"지식의 룬 Pouch"	"15545"	"0"	"Etc"
"9289"	"Wisdom 룬 Pouch"	"15546"	"0"	"Etc"
"24542465"	"Silver Cloak"	"874"	"0"	"Etc"
"19321"	"축축한 목화솜"	"15554"	"0"	"Etc"
"19322"	"은빛 베리아나의 Scale"	"15555"	"0"	"Etc"
"19323"	"Golden 베리아나의 Scale"	"15556"	"0"	"Etc"
"3068"	"\aFVampire's Cloak"	"12204"	"0"	"Etc"
"19518"	"Lesser Vampire's Cloak"	"15591"	"0"	"Etc"
"3857"	"Assassin King Gloves"	"1773"	"0"	"Etc"
"19513"	"Lesser Assassin King Gloves"	"15586"	"0"	"Etc"
"19520"	"Lesser Mummy Lord Crown"	"15593"	"0"	"Etc"
"2406"	"\aFZenith Ring"	"815"	"0"	"Etc"
"19522"	"Lesser Zenith Ring"	"15595"	"0"	"Etc"
"3856"	"Dread King Boots"	"1772"	"0"	"Etc"
"19514"	"Lesser Dread King Boots"	"15587"	"0"	"Etc"
"1798"	"Stone Gloves"	"545"	"0"	"Etc"
"19504"	"Lesser 돌장갑"	"15577"	"0"	"Etc"
"19506"	"Lesser Staff of Demon"	"15579"	"0"	"Etc"
"19519"	"Lesser 시어의 심안"	"15592"	"0"	"Etc"
"19507"	"Lesser Demon Boots"	"15580"	"0"	"Etc"
"2212"	"\aF리치 Robe"	"741"	"0"	"Etc"
"19521"	"Lesser Lich Robe"	"15594"	"0"	"Etc"
"3854"	"Arcane King Cloak"	"1770"	"0"	"Etc"
"19515"	"Lesser Arcane King Cloak"	"15588"	"0"	"Etc"
"19525"	"Lesser 제로스의 Quarterstaff"	"15598"	"0"	"Etc"
"19524"	"Lesser Kurtz's Sword"	"15597"	"0"	"Etc"
"2859"	" \aFKnight Vald Two-handed Sword"	"1048"	"0"	"Etc"
"19526"	"Lesser Knight Vald Two-handed Sword"	"15599"	"0"	"Etc"
"19523"	"Lesser Death Knight Fire Sword"	"15596"	"0"	"Etc"
"19532"	"극한의 Set Box"	"15605"	"0"	"Etc"
"19512"	"Lesser 극한의 Set Box"	"15585"	"0"	"Etc"
"19528"	"Kurtz's Set Box"	"15601"	"0"	"Etc"
"19508"	"Lesser Kurtz's Set Box"	"15581"	"0"	"Etc"
"19529"	"Death Knight Set Box"	"15602"	"0"	"Etc"
"19509"	"Lesser Death Knight Set Box"	"15582"	"0"	"Etc"
"19531"	"Kerenis's Set Box"	"15604"	"0"	"Etc"
"19511"	"Lesser Kerenis's Set Box"	"15584"	"0"	"Etc"
"19530"	"Pretender King Set Box"	"15603"	"0"	"Etc"
"19510"	"Lesser Pretender King Set Box"	"15583"	"0"	"Etc"
"3859"	"Dread Queen Amulet"	"1775"	"0"	"Etc"
"19517"	"Lesser Dread Queen Amulet"	"15590"	"0"	"Etc"
"3855"	"Dread Queen Robe"	"1771"	"0"	"Etc"
"19516"	"Lesser Dread Queen Robe"	"15589"	"0"	"Etc"
"19505"	"Lesser Demon Gloves"	"15578"	"0"	"Etc"
"19503"	"Lesser Silver Cloak"	"15576"	"0"	"Etc"
"7559"	"Red Knight의 Greatsword"	"10298"	"0"	"Etc"
"19502"	"Lesser Red Knight의 Greatsword"	"15575"	"0"	"Etc"
"19501"	"Lesser 환영의 Chainsword"	"15574"	"0"	"Etc"
"19498"	"Lesser Greatsword of Doom"	"15571"	"0"	"Etc"
"19499"	"Lesser 파괴의 Claw"	"15572"	"0"	"Etc"
"19500"	"Lesser Salcheon's Bow"	"15573"	"0"	"Etc"
"75543407"	"영혼석: Tarak"	"10208"	"0"	"Etc"
"15664"	"오림의 Necklace"	"10278"	"0"	"Etc"
"15665"	"세마의 Ring"	"10279"	"0"	"Etc"
"10950"	"Earth Spirit Black Mithril Arrow"	"15700"	"0"	"Etc"
"10948"	"Water Spirit Black Mithril Arrow"	"15701"	"0"	"Etc"
"10949"	"Wind Spirit Black Mithril Arrow"	"15702"	"0"	"Etc"
"10951"	"Fire Black Mithril Arrow"	"15703"	"0"	"Etc"
"10947"	"신성한 Helmet of Magic Resistance"	"15699"	"0"	"Etc"
"10963"	"\aF포효의 Edoryu"	"15723"	"0"	"Etc"
"10964"	"\aF격분의 Gloves"	"15724"	"0"	"Etc"
"10965"	"\aF섬멸자의 Chainsword"	"15725"	"0"	"Etc"
"12357"	"변이된 TOI 1층 이동 Talisman"	"12192"	"0"	"Etc"
"12358"	"변이된 TOI Teleport Charm 2F"	"12193"	"0"	"Etc"
"12359"	"변이된 TOI Teleport Charm 3F"	"12194"	"0"	"Etc"
"12360"	"변이된 TOI Teleport Charm 4F"	"12195"	"0"	"Etc"
"12361"	"변이된 TOI Teleport Charm 5F"	"12196"	"0"	"Etc"
"12362"	"변이된 TOI 6F Teleport Charm"	"12197"	"0"	"Etc"
"12363"	"변이된 TOI 7F Teleport Charm"	"12198"	"0"	"Etc"
"12364"	"변이된 TOI 8F Teleport Charm"	"12199"	"0"	"Etc"
"12365"	"변이된 TOI 9F Teleport Charm"	"12200"	"0"	"Etc"
"12366"	"변이된 TOI 10F Teleport Charm"	"12201"	"0"	"Etc"
"12347"	"혼돈의 TOI 1층 이동 Talisman"	"12182"	"0"	"Etc"
"12348"	"혼돈의 TOI Teleport Charm 2F"	"12183"	"0"	"Etc"
"12349"	"혼돈의 TOI Teleport Charm 3F"	"12184"	"0"	"Etc"
"12350"	"혼돈의 TOI Teleport Charm 4F"	"12185"	"0"	"Etc"
"12351"	"혼돈의 TOI Teleport Charm 5F"	"12186"	"0"	"Etc"
"12352"	"혼돈의 TOI 6F Teleport Charm"	"12187"	"0"	"Etc"
"12353"	"혼돈의 TOI 7F Teleport Charm"	"12188"	"0"	"Etc"
"12354"	"혼돈의 TOI 8F Teleport Charm"	"12189"	"0"	"Etc"
"12355"	"혼돈의 TOI 9F Teleport Charm"	"12190"	"0"	"Etc"
"12356"	"혼돈의 TOI 10F Teleport Charm"	"12191"	"0"	"Etc"
"20391"	"Gold Pumpkin"	"15787"	"0"	"Etc"
"20382"	"Halloween Two-handed Sword"	"15776"	"0"	"Etc"
"20383"	"Halloween Quarterstaff"	"15777"	"0"	"Etc"
"20384"	"Halloween One-handed Sword"	"15778"	"0"	"Etc"
"20385"	"Halloween Bow"	"15779"	"0"	"Etc"
"20386"	"Halloween Edoryu"	"15780"	"0"	"Etc"
"20387"	"Halloween Chainsword"	"15781"	"0"	"Etc"
"20388"	"Halloween Kiringku"	"15782"	"0"	"Etc"
"20389"	"Halloween Axe"	"15783"	"0"	"Etc"
"9995"	"Halloween 호박파이"	"15785"	"0"	"Etc"
"19954"	"호박석"	"16693"	"0"	"Etc"
"19953"	"+0 Pumpkin Necklace"	"15710"	"0"	"Etc"
"2530"	"Elixir (STR)"	"895"	"0"	"Etc"
"2531"	"Elixir (CON)"	"896"	"0"	"Etc"
"2532"	"Elixir (DEX)"	"897"	"0"	"Etc"
"2533"	"Elixir (INT)"	"898"	"0"	"Etc"
"2534"	"Elixir (WIS)"	"899"	"0"	"Etc"
"2535"	"Elixir (CHA)"	"900"	"0"	"Etc"
"20509"	"행운석"	"15844"	"0"	"Etc"
"35"	"`데이엔 푸엘스' Scroll"	"15852"	"0"	"Etc"
"30"	"`젤고 머' Scroll"	"15853"	"0"	"Etc"
"20511"	"마물 봉인석(화)"	"15854"	"0"	"Etc"
"20512"	"마물 봉인석(지)"	"15855"	"0"	"Etc"
"20513"	"마물 봉인석(수)"	"15856"	"0"	"Etc"
"20514"	"마물 봉인석(풍)"	"15857"	"0"	"Etc"
"20500"	"16th Anniversary 기념 음료"	"15832"	"0"	"Etc"
"20498"	"16th Anniversary 기념 Coin"	"15831"	"0"	"Etc"
"20501"	"16th Anniversary 기념 Cuisine"	"15833"	"0"	"Etc"
"20502"	"16th Anniversary 기념 스프"	"15834"	"0"	"Etc"
"20503"	"16th Anniversary 기념 Scroll"	"15835"	"0"	"Etc"
"20504"	"16th Anniversary 행운 Box"	"15836"	"0"	"Etc"
"11999"	"룸티스의 푸른빛 귀걸이상자"	"11971"	"0"	"Etc"
"20497"	"룸티스의 Earrings Voucher"	"15830"	"0"	"Etc"
"11998"	"룸티스의 붉은빛 귀걸이상자"	"11970"	"0"	"Etc"
"12000"	"룸티스의 보랏빛 귀걸이상자"	"11972"	"0"	"Etc"
"16903"	"스냅퍼의 체력 Ring Box"	"14875"	"0"	"Etc"
"20527"	"스냅퍼의 Ring Voucher"	"15907"	"0"	"Etc"
"16904"	"스냅퍼의 마법저항 Ring Box"	"14876"	"0"	"Etc"
"16908"	"스냅퍼의 지혜 Ring Box"	"14880"	"0"	"Etc"
"16909"	"스냅퍼의 용사 Ring Box"	"14881"	"0"	"Etc"
"20650"	"Iron 각반 조각"	"15950"	"0"	"Etc"
"20649"	"Iron 각반 제작 도면"	"15949"	"0"	"Etc"
"16621"	"에루스의 마음(Dragon Skin)"	"14796"	"0"	"Etc"
"21110"	"에루스의 Candy"	"16100"	"0"	"Etc"
"16622"	"에루스의 마음(Advanced Spirit)"	"14797"	"0"	"Etc"
"16623"	"에루스의 마음(전투 Greater)"	"14798"	"0"	"Etc"
"16620"	"에루스의 마음(Iron Skin)"	"14799"	"0"	"Etc"
"21114"	"에루스의 Lesser Healing Potion"	"16101"	"0"	"Etc"
"21116"	"에루스의 정열 Necklace"	"16103"	"0"	"Etc"
"21117"	"에루스의 진실 Necklace"	"16104"	"0"	"Etc"
"21118"	"에루스의 희망 Necklace"	"16105"	"0"	"Etc"
"21239"	"Long Sword 고대한 스냅퍼의 체력 Ring"	"16126"	"0"	"Etc"
"21233"	"+2 고대한 Ring Voucher"	"16120"	"0"	"Etc"
"21238"	"Long Sword 고대한 스냅퍼의 마법 Resistance Ring"	"16125"	"0"	"Etc"
"21240"	"Long Sword 고대한 스냅퍼의 용사 Ring"	"16128"	"0"	"Etc"
"21241"	"Long Sword 고대한 스냅퍼의 지혜 Ring"	"16127"	"0"	"Etc"
"21237"	"Long Sword 고대한 룸티스의 붉은빛 Earrings"	"16122"	"0"	"Etc"
"21232"	"+2 고대한 Earrings Voucher"	"16121"	"0"	"Etc"
"21236"	"Long Sword 고대한 룸티스의 푸른빛 Earrings"	"16123"	"0"	"Etc"
"21235"	"Long Sword 고대한 룸티스의 보라빛 Earrings"	"16124"	"0"	"Etc"
"9437"	"시원한 얼음 Boots"	"16357"	"0"	"Etc"
"22079"	"진귀한 에르자베의 진액"	"16356"	"0"	"Etc"
"22239"	"훈련 완료 증표"	"16391"	"0"	"Etc"
"12847"	"Ice Queen's Tear"	"12503"	"0"	"Etc"
"22238"	"훈련 시작 증표"	"16390"	"0"	"Etc"
"9374"	"Fantasy Cake 조각"	"10339"	"0"	"Etc"
"14220244"	"Novice Enchant Weapon Scroll"	"4289"	"0"	"Etc"
"11997"	"룸티스의 Greater Scroll"	"11969"	"0"	"Etc"
"16773"	"승리의 Lesser Healing Potion"	"14816"	"0"	"Etc"
"14290"	"샌드웜의 Sand Pouch"	"13802"	"0"	"Etc"
"22242"	"아놀드의 무기 Box"	"16403"	"0"	"Etc"
"22243"	"아놀드의 Two-handed Sword"	"16393"	"0"	"Etc"
"22244"	"아놀드의 Quarterstaff"	"16394"	"0"	"Etc"
"22245"	"아놀드의 Dagger"	"16395"	"0"	"Etc"
"22246"	"아놀드의 Bow"	"16396"	"0"	"Etc"
"22247"	"아놀드의 Edoryu"	"16397"	"0"	"Etc"
"22248"	"아놀드의 Chainsword"	"16398"	"0"	"Etc"
"22249"	"아놀드의 Kiringku"	"16399"	"0"	"Etc"
"22250"	"아놀드의 Axe"	"16400"	"0"	"Etc"
"22251"	"아놀드의 Gloves"	"16401"	"0"	"Etc"
"22631"	"Ancient Fidelity Execution Sword Box"	"16551"	"0"	"Etc"
"22626"	"Ancient 신의 금속"	"16546"	"0"	"Etc"
"22632"	"Ancient Crystal Crystal Quarterstaff Box"	"16552"	"0"	"Etc"
"22633"	"Ancient Red 그림자의 Edoryu Box"	"16553"	"0"	"Etc"
"22634"	"Ancient Wind 칼날의 Dagger Box"	"16554"	"0"	"Etc"
"22635"	"Ancient Gaia Warth Box"	"16555"	"0"	"Etc"
"22684"	"Ancient Kronos Horror Box"	"16556"	"0"	"Etc"
"22636"	"Ancient Hyperion Despair Box"	"16557"	"0"	"Etc"
"22637"	"Ancient Titan Wrath Box"	"16558"	"0"	"Etc"
"4837"	"Restored Ancient Necklace"	"2494"	"0"	"Etc"
"4834"	"Taros's Sapphire"	"2491"	"0"	"Etc"
"4838"	"Shining Ancient Necklace"	"2495"	"0"	"Etc"
"4835"	"Taros's Diamond"	"2492"	"0"	"Etc"
"22689"	"Faust 악령의 Earrings"	"16605"	"0"	"Etc"
"13781"	"Halphas' 집념"	"12855"	"0"	"Etc"
"22194"	"Ancient 암석 각반"	"16428"	"0"	"Etc"
"22185"	"영생의 빛"	"16445"	"0"	"Etc"
"22190"	"Ancient 암석"	"16443"	"0"	"Etc"
"22192"	"Ancient 암석 Boots"	"16429"	"0"	"Etc"
"22193"	"Ancient 암석 Cloak"	"16431"	"0"	"Etc"
"22191"	"Ancient 암석 Gloves"	"16430"	"0"	"Etc"
"22167"	"Ancient 마Water 각반"	"16435"	"0"	"Etc"
"22195"	"Ancient 마Water Leather"	"16444"	"0"	"Etc"
"22168"	"Ancient 마Water Boots"	"16436"	"0"	"Etc"
"22169"	"Ancient 마Water Cloak"	"16438"	"0"	"Etc"
"22170"	"Ancient 마Water Gloves"	"16437"	"0"	"Etc"
"22765"	"Ancient Tech Book"	"16451"	"0"	"Etc"
"22766"	"Ancient 서판"	"16456"	"0"	"Etc"
"22767"	"Ancient Memory Crystal"	"16455"	"0"	"Etc"
"22768"	"Ancient Spirit Crystal"	"16452"	"0"	"Etc"
"22769"	"Ancient Dark Spirit Crystal"	"16454"	"0"	"Etc"
"22770"	"Ancient Warrior's 인장"	"16457"	"0"	"Etc"
"22771"	"Ancient Magic Book"	"16453"	"0"	"Etc"
"22772"	"Ancient 오라"	"16450"	"0"	"Etc"
"61315673"	"Demon King 의 Two-handed Sword"	"3671"	"0"	"Etc"
"22376"	"악마왕의 Bow"	"3669"	"0"	"Etc"
"22377"	"악마왕의 Quarterstaff"	"3672"	"0"	"Etc"
"22378"	"악마왕의 Edoryu"	"3668"	"0"	"Etc"
"613156725"	"Demon King 의 Spear"	"3722"	"0"	"Etc"
"14220249"	"Novice Enchant Armor Scroll"	"4288"	"0"	"Etc"
"8544"	"Novice Cloak"	"4385"	"0"	"Etc"
"12830"	"불완전한 마법 구슬"	"12500"	"0"	"Etc"
"12829"	"불완전한 마법 구슬 조각"	"12499"	"0"	"Etc"
"12832"	"Ivory Tower 마법의 Essence"	"12502"	"0"	"Etc"
"23086"	"군터의 Box"	"16679"	"0"	"Etc"
"23085"	"군터의 교련 깃털"	"16678"	"0"	"Etc"
"23094"	"군터의 백금 Box"	"16680"	"0"	"Etc"
"20024"	"박민우의 보답 Box"	"15715"	"0"	"Etc"
"20031"	"다이노스 승리의 Evidence"	"15722"	"0"	"Etc"
"20025"	"김종호의 보답 Box"	"15716"	"0"	"Etc"
"20026"	"나성범의 보답 Box"	"15717"	"0"	"Etc"
"20027"	"테임즈의 보답 Box"	"15718"	"0"	"Etc"
"20028"	"이호준의 보답 Box"	"15719"	"0"	"Etc"
"20029"	"이종욱의 보답 Box"	"15720"	"0"	"Etc"
"20030"	"김경문의 보답 Box"	"15721"	"0"	"Etc"
"23110"	"Fire 정화석"	"16697"	"0"	"Etc"
"23111"	"Water 정화석"	"16698"	"0"	"Etc"
"23112"	"Wind 정화석"	"16699"	"0"	"Etc"
"23113"	"Earth 정화석"	"16700"	"0"	"Etc"
"23114"	"무속성의 정화석"	"16701"	"0"	"Etc"
"23115"	"희미한 Pumpkin Belt"	"16694"	"0"	"Etc"
"23117"	"Pumpkin Belt"	"16695"	"0"	"Etc"
"23126"	"군터의 황금 Box"	"16702"	"0"	"Etc"
"17838"	"Iron Axe"	"15111"	"0"	"Etc"
"4445"	"Slave Necklace"	"2188"	"0"	"Etc"
"4446"	"Promise Necklace"	"2189"	"0"	"Etc"
"4447"	"Liberation Necklace"	"2190"	"0"	"Etc"
"4448"	"Hound Necklace"	"2191"	"0"	"Etc"
"4449"	"Evil Sorcerer's Necklace"	"2192"	"0"	"Etc"
"4450"	"Warrior's Necklace"	"2193"	"0"	"Etc"
"4451"	"Warlord's Necklac"	"2194"	"0"	"Etc"
"4452"	"High Warlord's Necklace"	"2195"	"0"	"Etc"
"23457"	"\aEMagic Book (그레이스 아바타)"	"16772"	"0"	"Etc"
"23458"	"\aETech Book (앱솔루트 블레이드)"	"16773"	"0"	"Etc"
"23459"	"\aESpirit Crystal (소울 배리어)"	"16774"	"0"	"Etc"
"23460"	"\aEMagic Book (데스힐)"	"16775"	"0"	"Etc"
"23461"	"\aE흑Spirit Crystal (Assassin)"	"16776"	"0"	"Etc"
"23464"	"\aE흑Spirit Crystal (블레이징 스피릿츠)"	"16779"	"0"	"Etc"
"23465"	"\aE기억의 Crystal (임팩트)"	"16780"	"0"	"Etc"
"23462"	"\aE용Knight의 서판 (Destroy)"	"16777"	"0"	"Etc"
"23463"	"\aE전사의 인장 (타이탄: 라이징)"	"16778"	"0"	"Etc"
"23606"	"Long Sword 고대한 룸티스의 검은빛 Earrings"	"16803"	"0"	"Etc"
"23614"	"+3 고대한 Earrings Voucher"	"16811"	"0"	"Etc"
"23615"	"+4 고대한 Earrings Voucher"	"16812"	"0"	"Etc"
"23616"	"+5 고대한 Earrings Voucher"	"16813"	"0"	"Etc"
"23611"	"+3 고대한 Ring Voucher"	"16808"	"0"	"Etc"
"23612"	"+4 고대한 Ring Voucher"	"16809"	"0"	"Etc"
"23613"	"+5 고대한 Ring Voucher"	"16810"	"0"	"Etc"
"23692"	"Mysterious Skull Helmet"	"16861"	"0"	"Etc"
"23691"	"조각난 Skeleton Bone"	"16860"	"0"	"Etc"
"1024"	"Skull Helmet"	"320"	"0"	"Etc"
"1035"	"Bone Armor"	"331"	"0"	"Etc"
"1030"	"Bone Shield"	"326"	"0"	"Etc"
"23694"	"짐의 선물"	"16863"	"0"	"Etc"
"11152"	"+0 성장의 문장"	"16876"	"0"	"Etc"
"11148"	"성장의 문장 Pouch"	"16873"	"0"	"Etc"
"11153"	"+0 회복의 문장"	"16877"	"0"	"Etc"
"11149"	"회복의 문장 Pouch"	"16874"	"0"	"Etc"
"2003"	"Steel Staff of Mana"	"684"	"0"	"Etc"
"24115"	"테베라스 마법상자"	"16897"	"0"	"Etc"
"24114"	"테베라스 보석"	"16896"	"0"	"Etc"
"24136"	"용의 T-shirt Greater Scroll"	"16904"	"0"	"Etc"
"24145"	"Lesser 지룡의 T-shirt Box"	"16913"	"0"	"Etc"
"5356"	"%i의 Strength T-shirt"	"2872"	"0"	"Etc"
"5357"	"%i의 Dexterity T-shirt"	"2873"	"0"	"Etc"
"5358"	"%i의 Charisma T-shirt"	"2874"	"0"	"Etc"
"5359"	"%i의 마력의 T-shirt"	"2875"	"0"	"Etc"
"5360"	"%i의 Constitution T-shirt"	"2876"	"0"	"Etc"
"5361"	"%i의 Wisdom T-shirt"	"2877"	"0"	"Etc"
"8377"	"%i의 Stun 내성의 T-shirt"	"4249"	"0"	"Etc"
"8378"	"%i의 Hold 내성의 T-shirt"	"4250"	"0"	"Etc"
"8379"	"%i의 마법 저항의 T-shirt"	"4251"	"0"	"Etc"
"11776"	"%i의 2010 힘 T-shirt"	"10882"	"0"	"Etc"
"11777"	"%i의 2010 마력 T-shirt"	"10883"	"0"	"Etc"
"11778"	"%i의 2010 스턴내성 T-shirt"	"10884"	"0"	"Etc"
"11779"	"%i의 2010 마법저항 T-shirt"	"10885"	"0"	"Etc"
"11721"	"Strength T-shirt"	"11892"	"0"	"Etc"
"11722"	"Dexterity T-shirt"	"11893"	"0"	"Etc"
"11723"	"Charisma T-shirt"	"11894"	"0"	"Etc"
"11724"	"마력의 T-shirt"	"11895"	"0"	"Etc"
"11725"	"Constitution T-shirt"	"11896"	"0"	"Etc"
"11726"	"Wisdom T-shirt"	"11897"	"0"	"Etc"
"11727"	"Stun 내성의 T-shirt"	"11898"	"0"	"Etc"
"11728"	"Hold 내성의 T-shirt"	"11899"	"0"	"Etc"
"11729"	"마법 저항의 T-shirt"	"11900"	"0"	"Etc"
"15311"	"Strength 마법저항 T-shirt[%i]"	"14201"	"0"	"Etc"
"15312"	"Strength Stun T-shirt[%i]"	"14202"	"0"	"Etc"
"15313"	"Strength Hold T-shirt[%i]"	"14203"	"0"	"Etc"
"15314"	"Dexterity 마법저항 T-shirt[%i]"	"14204"	"0"	"Etc"
"15315"	"Dexterity Stun T-shirt[%i]"	"14205"	"0"	"Etc"
"15316"	"Dexterity Hold T-shirt[%i]"	"14206"	"0"	"Etc"
"15317"	"지식의 마법저항 T-shirt[%i]"	"14207"	"0"	"Etc"
"15318"	"지식의 Stun T-shirt[%i]"	"14208"	"0"	"Etc"
"15319"	"지식의 Hold T-shirt[%i]"	"14209"	"0"	"Etc"
"15320"	"Charisma 마법저항 T-shirt[%i]"	"14210"	"0"	"Etc"
"15321"	"Charisma Stun T-shirt[%i]"	"14211"	"0"	"Etc"
"15322"	"Charisma Hold T-shirt[%i]"	"14212"	"0"	"Etc"
"24146"	"Lesser 화룡의 T-shirt Box"	"16914"	"0"	"Etc"
"24147"	"Lesser 풍룡의 T-shirt Box"	"16915"	"0"	"Etc"
"24148"	"Lesser 수룡의 T-shirt Box"	"16916"	"0"	"Etc"
"8368"	"%i의 Strength Premium T-shirt"	"4240"	"0"	"Etc"
"8369"	"%i의 Dexterity Premium T-shirt"	"4241"	"0"	"Etc"
"8370"	"%i의 Charisma Premium T-shirt"	"4242"	"0"	"Etc"
"8371"	"%i의 마력의 Premium T-shirt"	"4243"	"0"	"Etc"
"8372"	"%i의 Constitution Premium T-shirt"	"4244"	"0"	"Etc"
"8373"	"%i의 Wisdom Premium T-shirt"	"4245"	"0"	"Etc"
"8374"	"%i의 Stun 내성의 Premium T-shirt"	"4246"	"0"	"Etc"
"8375"	"%i의 Hold 내성의 Premium T-shirt"	"4247"	"0"	"Etc"
"8376"	"%i의 마법 저항의 Premium T-shirt"	"4248"	"0"	"Etc"
"11780"	"%i의 2010 Premium 힘 T-shirt"	"10886"	"0"	"Etc"
"11781"	"%i의 2010 Premium 마력 T-shirt"	"10887"	"0"	"Etc"
"11782"	"%i의 2010 Premium 스턴내성 T-shirt"	"10888"	"0"	"Etc"
"11783"	"%i의 2010 Premium 마법저항 T-shirt"	"10889"	"0"	"Etc"
"11730"	"Strength Premium T-shirt"	"11901"	"0"	"Etc"
"11731"	"Dexterity Premium T-shirt"	"11902"	"0"	"Etc"
"11732"	"Charisma Premium T-shirt"	"11903"	"0"	"Etc"
"11733"	"마력의 Premium T-shirt"	"11904"	"0"	"Etc"
"11734"	"Constitution Premium T-shirt"	"11905"	"0"	"Etc"
"11735"	"Wisdom Premium T-shirt"	"11906"	"0"	"Etc"
"11736"	"Stun 내성의 Premium T-shirt"	"11907"	"0"	"Etc"
"11737"	"Hold 내성의 Premium T-shirt"	"11908"	"0"	"Etc"
"11738"	"마법 저항의 Premium T-shirt"	"11909"	"0"	"Etc"
"15323"	"Premium Strength 마법저항 T-shirt[%i]"	"14213"	"0"	"Etc"
"15324"	"Premium Strength Stun T-shirt[%i]"	"14214"	"0"	"Etc"
"15325"	"Premium Strength Hold T-shirt[%i]"	"14215"	"0"	"Etc"
"15326"	"Premium Dexterity 마법저항 T-shirt[%i]"	"14216"	"0"	"Etc"
"15327"	"Premium Dexterity Stun T-shirt[%i]"	"14217"	"0"	"Etc"
"15328"	"Premium Dexterity Hold T-shirt[%i]"	"14218"	"0"	"Etc"
"15329"	"Premium 지식의 마법저항 T-shirt[%i]"	"14219"	"0"	"Etc"
"15330"	"Premium 지식의 Stun T-shirt[%i]"	"14220"	"0"	"Etc"
"15331"	"Premium 지식의 Hold T-shirt[%i]"	"14221"	"0"	"Etc"
"15332"	"Premium Charisma 마법저항 T-shirt[%i]"	"14222"	"0"	"Etc"
"15333"	"Premium Charisma Stun T-shirt[%i]"	"14223"	"0"	"Etc"
"15334"	"Premium Charisma Hold T-shirt[%i]"	"14224"	"0"	"Etc"
"20578"	"Mr.K의 Premium Strength 마법저항 T-shirt"	"15932"	"0"	"Etc"
"20579"	"Mr.K의 Premium Dexterity 마법저항 T-shirt"	"15933"	"0"	"Etc"
"20580"	"Mr.K의 Premium 지식의 마법저항 T-shirt"	"15934"	"0"	"Etc"
"20581"	"Mr.K의 Premium Strength 스턴내성 T-shirt"	"15935"	"0"	"Etc"
"20582"	"Mr.K의 Premium Dexterity 스턴내성 T-shirt"	"15936"	"0"	"Etc"
"20583"	"Mr.K의 Premium 지식의 스턴내성 T-shirt"	"15937"	"0"	"Etc"
"20584"	"Mr.K의 Premium Strength 홀드내성 T-shirt"	"15938"	"0"	"Etc"
"20585"	"Mr.K의 Premium Dexterity 홀드내성 T-shirt"	"15939"	"0"	"Etc"
"20586"	"Mr.K의 Premium 지식의 홀드내성 T-shirt"	"15940"	"0"	"Etc"
"24223"	"명품 Box"	"16927"	"0"	"Etc"
"24215"	"썸타는 Two-handed Sword"	"16918"	"0"	"Etc"
"24216"	"썸타는 Quarterstaff"	"16919"	"0"	"Etc"
"24217"	"썸타는 Dagger"	"16920"	"0"	"Etc"
"24218"	"썸타는 Bow"	"16921"	"0"	"Etc"
"24219"	"썸타는 Edoryu"	"16922"	"0"	"Etc"
"24220"	"썸타는 Chainsword"	"16923"	"0"	"Etc"
"24221"	"썸타는 Kiringku"	"16924"	"0"	"Etc"
"24222"	"썸타는 Axe"	"16925"	"0"	"Etc"
"25171"	"환생의 보석"	"17323"	"0"	"Etc"
"24425"	"드래곤의 High Quality Treasure Chest"	"15390"	"0"	"Etc"
"24608"	"드래곤의 Treasure Chest"	"4170"	"0"	"Etc"
"24920"	"신성한 Cloak of Protection"	"874"	"0"	"Etc"
"11105"	"룸티스의 검은빛 귀걸이상자"	"16326"	"0"	"Etc"
"24132"	"지룡의 T-shirt"	"16900"	"0"	"Etc"
"24133"	"화룡의 T-shirt"	"16901"	"0"	"Etc"
"24134"	"풍룡의 T-shirt"	"16902"	"0"	"Etc"
"24135"	"수룡의 T-shirt"	"16903"	"0"	"Etc"
"24470"	"유니콘의 Enchant Armor Scroll"	"16991"	"0"	"Etc"
"24659"	"생명의 Leaf"	"17053"	"0"	"Etc"
"24886"	"시원한 Ancient 물품: 무기"	"17307"	"0"	"Etc"
"14700"	"픽시의 영혼"	"14091"	"0"	"Etc"
"24887"	"시원한 Ancient 물품: 방어구"	"17308"	"0"	"Etc"
"25029"	"Ancient 무기 Box"	"17371"	"0"	"Etc"
"25062"	"군터의 인장"	"17368"	"0"	"Etc"
"25030"	"Ancient 방어구 Box"	"17372"	"0"	"Etc"
"25129"	"Dexterity 블루베리 아이스콘"	"17376"	"0"	"Etc"
"25133"	"얼음 알갱이"	"17380"	"0"	"Etc"
"25128"	"완력의 딸기 아이스콘"	"17377"	"0"	"Etc"
"25130"	"지식의 Orange 아이스콘"	"17378"	"0"	"Etc"
"25131"	"3단 아이스콘"	"17375"	"0"	"Etc"
"9166"	"Highest Quality 마력의 Heart"	"12409"	"0"	"Etc"
"4350"	"Longbow of Moon"	"2072"	"0"	"Etc"
"24919"	"흑Knight의 면갑"	"17313"	"0"	"Etc"
"24923"	"신성한 Blessed of Elm"	"17316"	"0"	"Etc"
"24922"	"수호성의 Power Gloves"	"17317"	"0"	"Etc"
"24921"	"수호성의 Bracer"	"17315"	"0"	"Etc"
"24927"	"신성한 Amulet of Strength"	"17318"	"0"	"Etc"
"24933"	"신성한 Necklace 조각"	"17322"	"0"	"Etc"
"24928"	"신성한 Amulet of Dexterity"	"17319"	"0"	"Etc"
"24929"	"신성한 Amulet of Intelligence"	"17320"	"0"	"Etc"
"24932"	"신성한 영생의 Necklace"	"17321"	"0"	"Etc"
"11131"	"Horrific Necklace"	"16664"	"0"	"Etc"
"12903"	"Alluring Ice Queen 티아라"	"12532"	"0"	"Etc"
"25212"	"환생의 보석 Pouch"	"17324"	"0"	"Etc"
"24426"	"드래곤의 Highest Quality Treasure Chest"	"17037"	"0"	"Etc"
"24926"	"Jinn Rapier"	"17310"	"0"	"Etc"
"24930"	"Jinn 싸울아비 Greatsword"	"17311"	"0"	"Etc"
"24931"	"Ogre 킹의 Belt"	"17326"	"0"	"Etc"
"24924"	"신성한 Elven Plate Mail"	"17325"	"0"	"Etc"
"24925"	"신성한 Elven Shield"	"17312"	"0"	"Etc"
"25365"	"에바의 문장 Voucher"	"17426"	"0"	"Etc"
"25366"	"완력의 문장 Pouch"	"17420"	"0"	"Etc"
"25367"	"Dexterity 문장 Pouch"	"17421"	"0"	"Etc"
"25368"	"지식의 문장 Pouch"	"17422"	"0"	"Etc"
"25369"	"+0 완력의 문장"	"17423"	"0"	"Etc"
"25370"	"+0 Dexterity 문장"	"17424"	"0"	"Etc"
"25371"	"+0 지식의 문장"	"17425"	"0"	"Etc"
"25431"	"Lesser +7 스냅퍼의 체력 Ring"	"17444"	"0"	"Etc"
"25432"	"Lesser +7 Blessed 스냅퍼의 체력 Ring"	"17445"	"0"	"Etc"
"25433"	"Lesser +8 스냅퍼의 체력 Ring"	"17446"	"0"	"Etc"
"25434"	"Lesser +8 Blessed 스냅퍼의 체력 Ring"	"17447"	"0"	"Etc"
"25427"	"Lesser +7 스냅퍼의 마법저항 Ring"	"17448"	"0"	"Etc"
"25428"	"Lesser +7 Blessed 스냅퍼의 마법저항 Ring"	"17449"	"0"	"Etc"
"25429"	"Lesser +8 스냅퍼의 마법저항 Ring"	"17450"	"0"	"Etc"
"25430"	"Lesser +8 Blessed 스냅퍼의 마법저항 Ring"	"17451"	"0"	"Etc"
"25435"	"Lesser +7 스냅퍼의 집중 Ring"	"17452"	"0"	"Etc"
"25436"	"Lesser +7 Blessed 스냅퍼의 집중 Ring"	"17453"	"0"	"Etc"
"25437"	"Lesser +8 스냅퍼의 집중 Ring"	"17454"	"0"	"Etc"
"25438"	"Lesser +8 Blessed 스냅퍼의 집중 Ring"	"17455"	"0"	"Etc"
"25439"	"Lesser +7 스냅퍼의 마나 Ring"	"17456"	"0"	"Etc"
"25440"	"Lesser +7 Blessed 스냅퍼의 마나 Ring"	"17457"	"0"	"Etc"
"25441"	"Lesser +8 스냅퍼의 마나 Ring"	"17458"	"0"	"Etc"
"25442"	"Lesser +8 Blessed 스냅퍼의 마나 Ring"	"17459"	"0"	"Etc"
"25443"	"Lesser +7 스냅퍼의 회복 Ring"	"17460"	"0"	"Etc"
"25444"	"Lesser +7 Blessed 스냅퍼의 회복 Ring"	"17461"	"0"	"Etc"
"25445"	"Lesser +8 스냅퍼의 회복 Ring"	"17462"	"0"	"Etc"
"25446"	"Lesser +8 Blessed 스냅퍼의 회복 Ring"	"17463"	"0"	"Etc"
"25419"	"Lesser +7 스냅퍼의 지혜 Ring"	"17464"	"0"	"Etc"
"25420"	"Lesser +7 Blessed 스냅퍼의 지혜 Ring"	"17465"	"0"	"Etc"
"25421"	"Lesser +8 스냅퍼의 지혜 Ring"	"17466"	"0"	"Etc"
"25422"	"Lesser +8 Blessed 스냅퍼의 지혜 Ring"	"17467"	"0"	"Etc"
"25423"	"Lesser +7 스냅퍼의 용사 Ring"	"17468"	"0"	"Etc"
"25424"	"Lesser +7 Blessed 스냅퍼의 용사 Ring"	"17469"	"0"	"Etc"
"25425"	"Lesser +8 스냅퍼의 용사 Ring"	"17470"	"0"	"Etc"
"25426"	"Lesser +8 Blessed 스냅퍼의 용사 Ring"	"17471"	"0"	"Etc"
"25415"	"Lesser +7 룸티스의 검은빛 Earrings"	"17472"	"0"	"Etc"
"25416"	"Lesser +7 Blessed 룸티스의 검은빛 Earrings"	"17473"	"0"	"Etc"
"25417"	"Lesser +8 룸티스의 검은빛 Earrings"	"17474"	"0"	"Etc"
"25418"	"Lesser +8 Blessed 룸티스의 검은빛 Earrings"	"17475"	"0"	"Etc"
"25403"	"Lesser +7 룸티스의 붉은빛 Earrings"	"17476"	"0"	"Etc"
"25404"	"Lesser +7 Blessed 룸티스의 붉은빛 Earrings"	"17477"	"0"	"Etc"
"25405"	"Lesser +8 룸티스의 붉은빛 Earrings"	"17478"	"0"	"Etc"
"25406"	"Lesser +8 Blessed 룸티스의 붉은빛 Earrings"	"17479"	"0"	"Etc"
"25407"	"Lesser +7 룸티스의 푸른빛 Earrings"	"17480"	"0"	"Etc"
"25408"	"Lesser +7 Blessed 룸티스의 푸른빛 Earrings"	"17481"	"0"	"Etc"
"25409"	"Lesser +8 룸티스의 푸른빛 Earrings"	"17482"	"0"	"Etc"
"25410"	"Lesser +8 Blessed 룸티스의 푸른빛 Earrings"	"17483"	"0"	"Etc"
"25411"	"Lesser +7 룸티스의 보랏빛 Earrings"	"17484"	"0"	"Etc"
"25412"	"Lesser +7 Blessed 룸티스의 보랏빛 Earrings"	"17485"	"0"	"Etc"
"25413"	"Lesser +8 룸티스의 보랏빛 Earrings"	"17486"	"0"	"Etc"
"25414"	"Lesser +8 Blessed 룸티스의 보랏빛 Earrings"	"17487"	"0"	"Etc"
"253293867"	"고대한 Crystal Dagger"	"17394"	"0"	"Etc"
"21881"	"드래곤의 Enchant Armor Scroll"	"16304"	"0"	"Etc"
"25058"	"칠흑의 Cloak"	"17373"	"0"	"Etc"
"312"	"Red Knight Cloak"	"122"	"0"	"Etc"
"25381"	"+0 서큐버스의 계약"	"17390"	"0"	"Etc"
"25383"	"+0 Succubus 퀸의 계약"	"17392"	"0"	"Etc"
"25501"	"케플리샤의 선물"	"17489"	"0"	"Etc"
"25500"	"케플리샤의 마법 구슬"	"17488"	"0"	"Etc"
"25677"	"Pumpkin 막대 Candy"	"17509"	"0"	"Etc"
"1020"	" \aHDragon Slayer"	"316"	"0"	"Etc"
"25713"	"은Knight의 견갑"	"17536"	"0"	"Etc"
"25716"	"낡은 견갑"	"17539"	"0"	"Etc"
"25714"	"사냥꾼의 견갑"	"17537"	"0"	"Etc"
"25715"	"예언자의 견갑"	"17538"	"0"	"Etc"
"25399"	"Rumtis 보호 Scroll Box"	"17440"	"0"	"Etc"
"25790"	"Rumtis/스냅퍼 보호 Scroll Box Voucher"	"17546"	"0"	"Etc"
"25400"	"스냅퍼 보호 Scroll Box"	"17441"	"0"	"Etc"
"2532917838"	"고대한 Iron Axe"	"17395"	"0"	"Etc"
"253291063"	"고대한 Staff of Mana"	"17408"	"0"	"Etc"
"18695"	"고대한 Sword of Thunder"	"17409"	"0"	"Etc"
"18693"	"고대한 Salcheon's Bow"	"17410"	"0"	"Etc"
"18697"	"고대한 파괴의 Claw"	"17411"	"0"	"Etc"
"18698"	"고대한 공명의 Kiringku"	"17412"	"0"	"Etc"
"18699"	"고대한 환영의 Chainsword"	"17413"	"0"	"Etc"
"25835"	"고이 아껴둔 신성한 Helmet of Magic Resistance"	"17556"	"0"	"Etc"
"25328569"	"고이 아껴둔 Helmet of Magic Resistance"	"17396"	"0"	"Etc"
"25836"	"고이 아껴둔 쿠쿨간의 마스크"	"17557"	"0"	"Etc"
"2532817850"	"고이 아껴둔 전사단 Helmet"	"17397"	"0"	"Etc"
"25838"	"고이 아껴둔 유니콘의 Strength 각반"	"17559"	"0"	"Etc"
"2532820556"	"고이 아껴둔 Iron 각반"	"17399"	"0"	"Etc"
"25839"	"고이 아껴둔 유니콘의 Dexterity 각반"	"17560"	"0"	"Etc"
"25840"	"고이 아껴둔 유니콘의 Knowledge 각반"	"17561"	"0"	"Etc"
"25837"	"고이 아껴둔 신성한 Cloak of Protection"	"17558"	"0"	"Etc"
"25328182"	"고이 아껴둔 Cloak of Magic Resistance"	"17398"	"0"	"Etc"
"25328178"	"고이 아껴둔 Cloak of Protection"	"17490"	"0"	"Etc"
"253283853"	"고이 아껴둔 New King Book of Magical Powers"	"17404"	"0"	"Etc"
"25841"	"고이 아껴둔 수호의 Garder"	"17567"	"0"	"Etc"
"2532810704"	"고이 아껴둔 Constitution Garder"	"17405"	"0"	"Etc"
"25842"	"고이 아껴둔 Ogre Belt"	"17568"	"0"	"Etc"
"253281818"	"고이 아껴둔 Troll Belt"	"17406"	"0"	"Etc"
"22145"	"고이 아껴둔 Pretender King Gloves"	"17415"	"0"	"Etc"
"22151"	"고이 아껴둔 New King Gloves"	"17417"	"0"	"Etc"
"2532814240"	"고이 아껴둔 젤라틴 Amulet of Constitution"	"17407"	"0"	"Etc"
"25843"	"고이 아껴둔 신성한 Elven Shield"	"17570"	"0"	"Etc"
"253283846"	"고이 아껴둔 Pretender King Shield"	"17414"	"0"	"Etc"
"25844"	"고이 아껴둔 Dexterity Boots"	"17573"	"0"	"Etc"
"22146"	"고이 아껴둔 Pretender King Boots"	"17416"	"0"	"Etc"
"22152"	"고이 아껴둔 New King Boots"	"17418"	"0"	"Etc"
"25845"	"고이 아껴둔 지식의 Boots"	"17574"	"0"	"Etc"
"25846"	"고이 아껴둔 완력의 Boots"	"17575"	"0"	"Etc"
"25970"	"휘장 사용 허가서"	"17605"	"0"	"Etc"
"25969"	"오래된 낡은 견갑"	"17602"	"0"	"Etc"
"9279"	"Wizard 돌"	"12861"	"0"	"Etc"
"9596"	"Reminiscence Candle Box"	"10642"	"0"	"Etc"
"25971"	"낡은 책 가방"	"17606"	"0"	"Etc"
"25980"	"Ancient Basilisk's Horn"	"17608"	"0"	"Etc"
"11128"	"오림의 가넷"	"16661"	"0"	"Etc"
"25981"	"Ancient 수룡의 Treasure Chest"	"17609"	"0"	"Etc"
"25982"	"Ancient Drake's Claw"	"17610"	"0"	"Etc"
"25983"	"Ancient 화룡의 Treasure Chest"	"17611"	"0"	"Etc"
"2532815666152"	"고이 아껴둔 멸마의 Plate Mail"	"17400"	"0"	"Etc"
"2532815666162"	"고이 아껴둔 멸마의 Scale Mail"	"17401"	"0"	"Etc"
"2532815666116"	"고이 아껴둔 멸마의 Leather Armor"	"17402"	"0"	"Etc"
"25328156662466"	"고이 아껴둔 멸마의 Robe"	"17403"	"0"	"Etc"
