"npc_id"	"name"	"type"	"locx"	"locy"	"mapid"	"heading"	"title"	"gfxid"	"lawful"	"chat_msg"	"clan_id"	"clan_name"
"100017"	"황마담"	"1"	"33420"	"32828"	"4"	"6"	"\f45배~15배!"	"37"	"32767"	"\\fTf2소막게임합니다!!대박찬스!!"	"200000001"	"마담빠담"
"100017"	"강원랜드1호"	"1"	"33432"	"32827"	"4"	"6"	"\f=Dream Team!"	"1"	"32767"	"\\f=f=강원랜드에서대박의꿈을펼치세요!"	"200000003"	"쫄리면뒈지던지"
