"item_id"	"item_name"	"enchant"	"buy_price"	"sell_price"	"msg"
"9"	"Oriharukon Dagger"	"0"	"50000000"	"900000000"	"걍오단"
"9"	"Oriharukon Dagger"	"7"	"50000000"	"900000000"	"7오단"
"9"	"Oriharukon Dagger"	"8"	"50000000"	"900000000"	"8오단"
"9"	"Oriharukon Dagger"	"9"	"50000000"	"900000000"	"9오단"
"9"	"Oriharukon Dagger"	"10"	"51250000"	"900000000"	"10오단"
"11"	"Crystal Dagger"	"7"	"1150000"	"900000000"	"7수단"
"11"	"Crystal Dagger"	"8"	"3950000"	"900000000"	"8수단"
"11"	"Crystal Dagger"	"9"	"9850000"	"900000000"	"9수단"
"11"	"Crystal Dagger"	"10"	"45250000"	"900000000"	"10수단"
"47"	"Sword of Silence"	"8"	"9865000"	"900000000"	"8침검"
"47"	"Sword of Silence"	"9"	"17650000"	"900000000"	"9침검"
"49"	"Pretender King Long Sword"	"0"	"50000"	"900000000"	"걍무장"
"49"	"Pretender King Long Sword"	"7"	"395000"	"900000000"	"7무장"
"49"	"Pretender King Long Sword"	"8"	"1125000"	"900000000"	"8무장"
"49"	"Pretender King Long Sword"	"9"	"5450000"	"900000000"	"9무장"
"49"	"Pretender King Long Sword"	"10"	"24650000"	"900000000"	"10무장"
"54"	"Kurtz's검"	"0"	"31250000"	"900000000"	"커검"
"54"	"Kurtz's검"	"7"	"31250000"	"900000000"	"7커검"
"57"	"Tsurugi"	"0"	"50000"	"900000000"	"걍싸울"
"57"	"Tsurugi"	"7"	"850000"	"900000000"	"7싸울"
"57"	"Tsurugi"	"8"	"2450000"	"900000000"	"8싸울"
"57"	"Tsurugi"	"9"	"6850000"	"900000000"	"9싸울"
"57"	"Tsurugi"	"10"	"25650000"	"900000000"	"10싸울"
"58"	"Death Knight Fire Sword"	"0"	"35650000"	"900000000"	"데불"
"58"	"Death Knight Fire Sword"	"7"	"35650000"	"900000000"	"7데불"
"62"	"Pretender King Greatsword"	"0"	"50000000"	"900000000"	"걍무양"
"62"	"Pretender King Greatsword"	"7"	"50000000"	"900000000"	"7무양"
"62"	"Pretender King Greatsword"	"8"	"50000000"	"900000000"	"8무양"
"62"	"Pretender King Greatsword"	"9"	"50000000"	"900000000"	"9무양"
"62"	"Pretender King Greatsword"	"10"	"53250000"	"900000000"	"10무양"
"64"	"Greatsword"	"7"	"600000"	"900000000"	"7대검"
"64"	"Greatsword"	"8"	"1560000"	"900000000"	"8대검"
"64"	"Greatsword"	"9"	"4325000"	"900000000"	"9대검"
"64"	"Greatsword"	"10"	"18650000"	"900000000"	"10대검"
"67"	"Ancient Greatsword"	"0"	"50000000"	"900000000"	"고대검"
"68"	"Ancient Sword"	"0"	"50000000"	"900000000"	"고검"
"74"	"Silver Edoryu"	"0"	"250000"	"900000000"	"걍은이"
"74"	"Silver Edoryu"	"1"	"300000"	"900000000"	"1은이"
"74"	"Silver Edoryu"	"2"	"350000"	"900000000"	"2은이"
"74"	"Silver Edoryu"	"3"	"420000"	"900000000"	"3은이"
"74"	"Silver Edoryu"	"4"	"490000"	"900000000"	"4은이"
"74"	"Silver Edoryu"	"5"	"560000"	"900000000"	"5은이"
"74"	"Silver Edoryu"	"6"	"695000"	"900000000"	"6은이"
"74"	"Silver Edoryu"	"7"	"1326000"	"900000000"	"7은이"
"74"	"Silver Edoryu"	"8"	"3250000"	"900000000"	"8은이"
"74"	"Silver Edoryu"	"9"	"8650000"	"900000000"	"9은이"
"74"	"Silver Edoryu"	"10"	"24650000"	"900000000"	"10은이"
"81"	"Black Edoryu"	"8"	"2965000"	"900000000"	"8흑이"
"81"	"Black Edoryu"	"9"	"7650000"	"900000000"	"9흑이"
"81"	"Black Edoryu"	"10"	"21250000"	"900000000"	"10흑이"
"84"	"Kaiser Edoryu"	"0"	"50000000"	"900000000"	"왕도"
"84"	"Kaiser Edoryu"	"7"	"50000000"	"900000000"	"7왕도"
"84"	"Kaiser Edoryu"	"8"	"17650000"	"900000000"	"8왕도"
"84"	"Kaiser Edoryu"	"9"	"31250000"	"900000000"	"9왕도"
"118"	"Jet-Black Crystal Ball"	"0"	"115000"	"900000000"	"칠흑"
"119"	"Staff of Demon"	"0"	"50000000"	"900000000"	"데지"
"121"	"Staff of Ice Queen"	"0"	"50000000"	"900000000"	"얼지"
"121"	"Staff of Ice Queen"	"7"	"50000000"	"900000000"	"7얼지"
"121"	"Staff of Ice Queen"	"8"	"50000000"	"900000000"	"8얼지"
"121"	"Staff of Ice Queen"	"9"	"50000000"	"900000000"	"9얼지"
"124"	"Staff of Baphomet"	"0"	"6450000"	"900000000"	"바지"
"157"	"Silver Claw"	"0"	"190000"	"900000000"	"걍은크"
"157"	"Silver Claw"	"1"	"230000"	"900000000"	"1은크"
"157"	"Silver Claw"	"2"	"270000"	"900000000"	"2은크"
"157"	"Silver Claw"	"3"	"310000"	"900000000"	"3은크"
"157"	"Silver Claw"	"4"	"350000"	"900000000"	"4은크"
"157"	"Silver Claw"	"5"	"390000"	"900000000"	"5은크"
"157"	"Silver Claw"	"6"	"432500"	"900000000"	"6은크"
"157"	"Silver Claw"	"7"	"1125000"	"900000000"	"7은크"
"157"	"Silver Claw"	"8"	"2425000"	"900000000"	"8은크"
"157"	"Silver Claw"	"9"	"7565000"	"900000000"	"9은크"
"157"	"Silver Claw"	"10"	"18650000"	"900000000"	"10은크"
"162"	"Black Claw"	"0"	"70000"	"900000000"	"걍흑크"
"162"	"Black Claw"	"1"	"130000"	"900000000"	"1흑크"
"162"	"Black Claw"	"2"	"190000"	"900000000"	"2흑크"
"162"	"Black Claw"	"3"	"250000"	"900000000"	"3흑크"
"162"	"Black Claw"	"4"	"310000"	"900000000"	"4흑크"
"162"	"Black Claw"	"5"	"370000"	"900000000"	"5흑크"
"162"	"Black Claw"	"6"	"420000"	"900000000"	"6흑크"
"162"	"Black Claw"	"7"	"650000"	"900000000"	"7흑크"
"162"	"Black Claw"	"8"	"1565000"	"900000000"	"8흑크"
"162"	"Black Claw"	"9"	"3545000"	"900000000"	"9흑크"
"162"	"Black Claw"	"10"	"18650000"	"900000000"	"10흑크"
"164"	"Kaiser Claw"	"0"	"50000000"	"900000000"	"Kaiser Claw"
"164"	"Kaiser Claw"	"7"	"6500000"	"900000000"	"7왕아"
"164"	"Kaiser Claw"	"8"	"16000000"	"900000000"	"8왕아"
"164"	"Kaiser Claw"	"9"	"29650000"	"900000000"	"9왕아"
"177"	"Black Bow"	"0"	"120000"	"900000000"	"걍흑활"
"177"	"Black Bow"	"1"	"150000"	"900000000"	"1흑활"
"177"	"Black Bow"	"2"	"180000"	"900000000"	"2흑활"
"177"	"Black Bow"	"3"	"210000"	"900000000"	"3흑활"
"177"	"Black Bow"	"4"	"240000"	"900000000"	"4흑활"
"177"	"Black Bow"	"5"	"280000"	"900000000"	"5흑활"
"177"	"Black Bow"	"6"	"320000"	"900000000"	"6흑활"
"177"	"Black Bow"	"7"	"890000"	"900000000"	"7흑활"
"177"	"Black Bow"	"8"	"2620000"	"900000000"	"8흑활"
"177"	"Black Bow"	"9"	"5020000"	"900000000"	"9흑활"
"177"	"Black Bow"	"10"	"19650000"	"900000000"	"10흑활"
"180"	"Crossbow"	"6"	"130000"	"900000000"	"6크로"
"180"	"Crossbow"	"7"	"510000"	"900000000"	"7크로"
"180"	"Crossbow"	"8"	"1380000"	"900000000"	"8크로"
"180"	"Crossbow"	"9"	"3245000"	"900000000"	"9크로"
"180"	"Crossbow"	"10"	"9865000"	"900000000"	"10크로"
"182"	"Ancient Bowgun"	"0"	"50000000"	"900000000"	"걍보우건"
"182"	"Ancient Bowgun"	"1"	"50000000"	"900000000"	"1보우건"
"182"	"Ancient Bowgun"	"2"	"50000000"	"900000000"	"2보우건"
"182"	"Ancient Bowgun"	"3"	"50000000"	"900000000"	"3보우건"
"182"	"Ancient Bowgun"	"4"	"50000000"	"900000000"	"4보우건"
"182"	"Ancient Bowgun"	"5"	"50000000"	"900000000"	"5보우건"
"182"	"Ancient Bowgun"	"6"	"50000000"	"900000000"	"6보우건"
"182"	"Ancient Bowgun"	"7"	"50000000"	"900000000"	"7보우건"
"182"	"Ancient Bowgun"	"8"	"50000000"	"900000000"	"8보우건"
"182"	"Ancient Bowgun"	"9"	"50000000"	"900000000"	"9보우건"
"182"	"Ancient Bowgun"	"10"	"50000000"	"900000000"	"10보우건"
"189"	"Kaiser Crossbow"	"0"	"3865000"	"900000000"	"Kaiser Crossbow"
"189"	"Kaiser Crossbow"	"7"	"5125000"	"900000000"	"7왕궁"
"189"	"Kaiser Crossbow"	"8"	"9865000"	"900000000"	"8왕궁"
"189"	"Kaiser Crossbow"	"9"	"22350000"	"900000000"	"9왕궁"
"190"	"Sayha Bow"	"0"	"50000000"	"900000000"	"걍사이하"
"190"	"Sayha Bow"	"7"	"50000000"	"900000000"	"7사이하"
"190"	"Sayha Bow"	"8"	"50000000"	"900000000"	"8사이하"
"190"	"Sayha Bow"	"9"	"23250000"	"900000000"	"9사이하"
"191"	"Salcheon's Bow"	"0"	"50000000"	"900000000"	"살천"
"191"	"Salcheon's Bow"	"7"	"50000000"	"900000000"	"7살천"
"191"	"Salcheon's Bow"	"8"	"50000000"	"900000000"	"8살천"
"191"	"Salcheon's Bow"	"9"	"50000000"	"900000000"	"9살천"
"191"	"Salcheon's Bow"	"10"	"49650000"	"900000000"	"10살천"
"205"	"Longbow of Moon"	"0"	"50000000"	"900000000"	"달장"
"205"	"Longbow of Moon"	"7"	"50000000"	"900000000"	"7달장"
"205"	"Longbow of Moon"	"8"	"50000000"	"900000000"	"8달장"
"205"	"Longbow of Moon"	"9"	"42350000"	"900000000"	"9달장"
"212"	"Sea God's Trident"	"0"	"50000000"	"900000000"	"해창"
"212"	"Sea God's Trident"	"7"	"50000000"	"900000000"	"7해창"
"212"	"Sea God's Trident"	"8"	"50000000"	"900000000"	"8해창"
"212"	"Sea God's Trident"	"9"	"50000000"	"900000000"	"9해창"
"212"	"Sea God's Trident"	"10"	"50000000"	"900000000"	"10해창"
"259"	"파괴의 Claw"	"0"	"5250000"	"900000000"	"파크"
"259"	"파괴의 Claw"	"7"	"6250000"	"900000000"	"7파크"
"259"	"파괴의 Claw"	"8"	"13265000"	"900000000"	"8파크"
"259"	"파괴의 Claw"	"9"	"27650000"	"900000000"	"9파크"
"259"	"파괴의 Claw"	"10"	"46500000"	"900000000"	"10파크"
"260"	"파괴의 Edoryu"	"0"	"50000000"	"900000000"	"파이"
"260"	"파괴의 Edoryu"	"7"	"6250000"	"900000000"	"7파이"
"260"	"파괴의 Edoryu"	"8"	"13265000"	"900000000"	"8파이"
"260"	"파괴의 Edoryu"	"9"	"25650000"	"900000000"	"9파이"
"260"	"파괴의 Edoryu"	"10"	"44500000"	"900000000"	"10파이"
"262"	"블러드 서커"	"0"	"50000000"	"900000000"	"블서"
"262"	"블러드 서커"	"7"	"6500000"	"900000000"	"7블서"
"262"	"블러드 서커"	"8"	"12350000"	"900000000"	"8블서"
"262"	"블러드 서커"	"9"	"27650000"	"900000000"	"9블서"
"262"	"블러드 서커"	"10"	"51250000"	"900000000"	"10블서"
"264"	"Pumpkin Kiringku"	"0"	"50000"	"900000000"	"호키"
"264"	"Pumpkin Kiringku"	"8"	"2100000"	"900000000"	"8호키"
"264"	"Pumpkin Kiringku"	"9"	"7650000"	"900000000"	"9호키"
"265"	"Pumpkin Chainsword"	"0"	"50000"	"900000000"	"호체"
"266"	"공명의 Kiringku"	"0"	"50000000"	"900000000"	"공키"
"266"	"공명의 Kiringku"	"7"	"4650000"	"900000000"	"7공키"
"266"	"공명의 Kiringku"	"8"	"12650000"	"900000000"	"8공키"
"266"	"공명의 Kiringku"	"9"	"31250000"	"900000000"	"9공키"
"266"	"공명의 Kiringku"	"10"	"51250000"	"900000000"	"10공키"
"275"	"환영의 Chainsword"	"0"	"51250000"	"900000000"	"환체"
"275"	"환영의 Chainsword"	"7"	"5200000"	"900000000"	"7환체"
"275"	"환영의 Chainsword"	"8"	"9865000"	"900000000"	"8환체"
"275"	"환영의 Chainsword"	"9"	"29650000"	"900000000"	"9환체"
"275"	"환영의 Chainsword"	"10"	"86500000"	"900000000"	"10환체"
"276"	"붉은Knight의 Greatsword"	"0"	"51250000"	"900000000"	"붉대검"
"276"	"붉은Knight의 Greatsword"	"7"	"51250000"	"900000000"	"7붉대검"
"276"	"붉은Knight의 Greatsword"	"8"	"51250000"	"900000000"	"8붉대검"
"276"	"붉은Knight의 Greatsword"	"9"	"51250000"	"900000000"	"9붉대검"
"276"	"붉은Knight의 Greatsword"	"10"	"98500000"	"900000000"	"10붉대검"
"292"	"진노의 Claw"	"0"	"51250000"	"900000000"	"진노"
"293"	"악몽의 Longbow"	"0"	"51250000"	"900000000"	"악장"
"6000"	"극한의 Chainsword"	"0"	"51250000"	"900000000"	"극체"
"6000"	"극한의 Chainsword"	"7"	"33000000"	"900000000"	"7극체"
"6000"	"극한의 Chainsword"	"8"	"63250000"	"900000000"	"8극체"
"6001"	"냉한의 Kiringku"	"0"	"63250000"	"900000000"	"냉키"
"6001"	"냉한의 Kiringku"	"7"	"34000000"	"900000000"	"7냉키"
"6001"	"냉한의 Kiringku"	"8"	"64000000"	"900000000"	"8냉키"
"6001"	"냉한의 Kiringku"	"9"	"63250000"	"900000000"	"9냉키"
"6003"	"극한의 Helmet"	"0"	"63250000"	"900000000"	"극투"
"6003"	"극한의 Helmet"	"5"	"4300000"	"900000000"	"5극투"
"6003"	"극한의 Helmet"	"6"	"7150000"	"900000000"	"6극투"
"6003"	"극한의 Helmet"	"7"	"9860000"	"900000000"	"7극투"
"6003"	"극한의 Helmet"	"8"	"25600000"	"900000000"	"8극투"
"6003"	"극한의 Helmet"	"9"	"41250000"	"900000000"	"9극투"
"6004"	"극한의 Armor"	"0"	"41250000"	"900000000"	"극한갑옷"
"6004"	"극한의 Armor"	"5"	"4300000"	"900000000"	"5극한갑옷"
"6004"	"극한의 Armor"	"6"	"7150000"	"900000000"	"6극한갑옷"
"6004"	"극한의 Armor"	"7"	"9860000"	"900000000"	"7극한갑옷"
"6004"	"극한의 Armor"	"8"	"25600000"	"900000000"	"8극한갑옷"
"6004"	"극한의 Armor"	"9"	"41250000"	"900000000"	"9극한갑옷"
"6005"	"극한의 Boots"	"0"	"29000000"	"900000000"	"극부"
"6005"	"극한의 Boots"	"5"	"4300000"	"900000000"	"5극부"
"6005"	"극한의 Boots"	"6"	"7150000"	"900000000"	"6극부"
"6005"	"극한의 Boots"	"7"	"9860000"	"900000000"	"7극부"
"6005"	"극한의 Boots"	"8"	"25600000"	"900000000"	"8극부"
"6005"	"극한의 Boots"	"9"	"41250000"	"900000000"	"9극부"
"6008"	"Lesser 극한의 Chainsword"	"0"	"29000000"	"900000000"	"봉인극체"
"7214"	"완력의 Ring"	"0"	"29000000"	"900000000"	"완반"
"7215"	"Dexterity Ring"	"0"	"29000000"	"900000000"	"민반"
"7225"	"산적의 Axe"	"0"	"29000000"	"900000000"	"7산도"
"7225"	"산적의 Axe"	"8"	"29000000"	"900000000"	"8산도"
"7228"	"질풍의 Axe"	"0"	"29000000"	"900000000"	"질풍"
"7229"	"Iron Axe"	"0"	"29000000"	"900000000"	"강도"
"7229"	"Iron Axe"	"8"	"29000000"	"900000000"	"8강도"
"7229"	"Iron Axe"	"9"	"29000000"	"900000000"	"9강도"
"7245"	"마력의 Gloves"	"0"	"29000000"	"900000000"	"마력장갑"
"7247"	"전사단의 Helmet"	"4"	"29000000"	"900000000"	"4전투"
"7247"	"전사단의 Helmet"	"5"	"29000000"	"900000000"	"5전투"
"7247"	"전사단의 Helmet"	"7"	"29000000"	"900000000"	"7전투"
"7304"	"타이탄 락"	"0"	"29000000"	"900000000"	"타이탄락"
"7306"	"타이탄 매직"	"0"	"10000000"	"900000000"	"타이탄 매직"
"7309"	"기간틱"	"0"	"29000000"	"900000000"	"기간틱"
"20004"	"Shadow Mask"	"6"	"29000000"	"900000000"	"6그가"
"20004"	"Shadow Mask"	"7"	"29000000"	"900000000"	"7그가"
"20004"	"Shadow Mask"	"8"	"1235000"	"900000000"	"8그가"
"20004"	"Shadow Mask"	"9"	"4560000"	"900000000"	"9그가"
"20011"	"Helmet of Magic Resistance"	"4"	"29000000"	"900000000"	"4마투"
"20011"	"Helmet of Magic Resistance"	"5"	"29000000"	"900000000"	"5마투"
"20011"	"Helmet of Magic Resistance"	"6"	"29000000"	"900000000"	"6마투"
"20011"	"Helmet of Magic Resistance"	"7"	"29000000"	"900000000"	"7마투"
"20011"	"Helmet of Magic Resistance"	"8"	"8600000"	"900000000"	"8마투"
"20011"	"Helmet of Magic Resistance"	"9"	"28650000"	"900000000"	"9마투"
"20016"	"맘보모자"	"0"	"615000"	"900000000"	"맘보모자"
"20016"	"맘보모자"	"5"	"965000"	"900000000"	"5맘보모자"
"20017"	"Mummy Lord Crown"	"0"	"29000000"	"900000000"	"머미왕관"
"20017"	"Mummy Lord Crown"	"7"	"10300000"	"900000000"	"7머미왕관"
"20017"	"Mummy Lord Crown"	"8"	"25450000"	"900000000"	"8머미왕관"
"20017"	"Mummy Lord Crown"	"9"	"62550000"	"900000000"	"9머미왕관"
"20018"	"Cap of Melchior"	"0"	"2000000"	"900000000"	"메르모"
"20018"	"메로키오르의 모자"	"5"	"2500000"	"900000000"	"5메르모"
"20018"	"메로키오르의 모자"	"6"	"4650000"	"900000000"	"6메르모"
"20018"	"메로키오르의 모자"	"7"	"9860000"	"900000000"	"7메르모"
"20018"	"메로키오르의 모자"	"8"	"31250000"	"900000000"	"8메르모"
"20020"	"Pretender King Helmet"	"0"	"50000"	"900000000"	"무관투구"
"20020"	"Pretender King Helmet"	"7"	"530000"	"900000000"	"7무관투구"
"20020"	"Pretender King Helmet"	"8"	"1125000"	"900000000"	"8무관투구"
"20020"	"Pretender King Helmet"	"9"	"3125000"	"900000000"	"9무관투구"
"20025"	"Cap of Balthazar"	"0"	"3250000"	"900000000"	"발모"
"20025"	"Cap of Balthazar"	"5"	"3700000"	"900000000"	"5발모"
"20025"	"Cap of Balthazar"	"6"	"8650000"	"900000000"	"6발모"
"20025"	"Cap of Balthazar"	"7"	"18650000"	"900000000"	"7발모"
"20030"	"New King Helmet"	"0"	"50000"	"900000000"	"신관투구"
"20030"	"New King Helmet"	"7"	"360000"	"900000000"	"7신관투구"
"20030"	"New King Helmet"	"8"	"1365000"	"900000000"	"8신관투구"
"20030"	"New King Helmet"	"9"	"6125000"	"900000000"	"9신관투구"
"20033"	"Blessed of Elm"	"6"	"186000"	"900000000"	"6엘름"
"20033"	"Blessed of Elm"	"7"	"650000"	"900000000"	"7엘름"
"20033"	"Blessed of Elm"	"8"	"2960000"	"900000000"	"8엘름"
"20033"	"Blessed of Elm"	"9"	"11250000"	"900000000"	"9엘름"
"20048"	"혼돈의투구"	"0"	"4000000"	"900000000"	"걍혼투"
"20049"	"거대여왕개미의금빛날개"	"0"	"9500000"	"900000000"	"금날"
"20049"	"거대여왕개미의금빛날개"	"5"	"10100000"	"900000000"	"5금날"
"20049"	"거대여왕개미의금빛날개"	"6"	"21250000"	"900000000"	"6금날"
"20049"	"거대여왕개미의금빛날개"	"7"	"31200000"	"900000000"	"7금날"
"20049"	"거대여왕개미의금빛날개"	"8"	"54250000"	"900000000"	"8금날"
"20049"	"거대여왕개미의금빛날개"	"9"	"24500000"	"900000000"	"9금날"
"20050"	"거대여왕개미의은빛날개"	"0"	"6300000"	"900000000"	"은날"
"20050"	"거대여왕개미의은빛날개"	"5"	"6800000"	"900000000"	"5은날"
"20050"	"거대여왕개미의은빛날개"	"6"	"15450000"	"900000000"	"6은날"
"20050"	"거대여왕개미의은빛날개"	"7"	"24500000"	"900000000"	"7은날"
"20055"	"마나망토"	"0"	"50000"	"900000000"	"마나망토"
"20055"	"마나망토"	"5"	"380000"	"900000000"	"5마나망토"
"20055"	"마나망토"	"6"	"1120000"	"900000000"	"6마나망토"
"20055"	"마나망토"	"7"	"3100000"	"900000000"	"7마나망토"
"20055"	"마나망토"	"8"	"8650000"	"900000000"	"8마나망토"
"20055"	"마나망토"	"9"	"19650000"	"900000000"	"9마나망토"
"20056"	"Cloak of Magic Resistance"	"4"	"85000"	"900000000"	"4마망"
"20056"	"Cloak of Magic Resistance"	"5"	"380000"	"900000000"	"5마망"
"20056"	"Cloak of Magic Resistance"	"6"	"1150000"	"900000000"	"6마망"
"20056"	"Cloak of Magic Resistance"	"7"	"24500000"	"900000000"	"7마망"
"20056"	"Cloak of Magic Resistance"	"8"	"9860000"	"900000000"	"8마망"
"20056"	"Cloak of Magic Resistance"	"9"	"24600000"	"900000000"	"9마망"
"20057"	"Arcane King Cloak"	"0"	"3000000"	"900000000"	"걍명망"
"20057"	"Arcane King Cloak"	"5"	"3600000"	"900000000"	"5명망"
"20057"	"Arcane King Cloak"	"6"	"8600000"	"900000000"	"6명망"
"20057"	"Arcane King Cloak"	"7"	"15400000"	"900000000"	"7명망"
"20057"	"Arcane King Cloak"	"8"	"31000000"	"900000000"	"8명망"
"20058"	"Pretender King Cloak"	"0"	"24500000"	"900000000"	"무관망토"
"20058"	"Pretender King Cloak"	"5"	"200000"	"900000000"	"5무관망토"
"20058"	"Pretender King Cloak"	"6"	"550000"	"900000000"	"6무관망토"
"20058"	"Pretender King Cloak"	"7"	"1560000"	"900000000"	"7무관망토"
"20058"	"Pretender King Cloak"	"8"	"3100000"	"900000000"	"8무관망토"
"20058"	"Pretender King Cloak"	"9"	"4600000"	"900000000"	"9무관망토"
"20060"	"Cloak of Sea"	"0"	"15000"	"900000000"	"Cloak of Sea"
"20060"	"Cloak of Sea"	"1"	"35000"	"900000000"	"Cloak of Sea"
"20060"	"Cloak of Sea"	"2"	"55000"	"900000000"	"Cloak of Sea"
"20060"	"Cloak of Sea"	"3"	"75000"	"900000000"	"Cloak of Sea"
"20060"	"Cloak of Sea"	"4"	"95000"	"900000000"	"Cloak of Sea"
"20060"	"Cloak of Sea"	"5"	"235000"	"900000000"	"Cloak of Sea"
"20067"	"New King Cloak"	"0"	"50000"	"900000000"	"신관망토"
"20067"	"New King Cloak"	"5"	"300000"	"900000000"	"5신관망토"
"20067"	"New King Cloak"	"6"	"750000"	"900000000"	"6신관망토"
"20067"	"New King Cloak"	"7"	"1560000"	"900000000"	"7신관망토"
"20067"	"New King Cloak"	"8"	"3650000"	"900000000"	"8신관망토"
"20067"	"New King Cloak"	"9"	"11250000"	"900000000"	"9신관망토"
"20074"	"Silver Cloak"	"0"	"2400000"	"900000000"	"은망"
"20074"	"Silver Cloak"	"5"	"2950000"	"900000000"	"5은망"
"20074"	"Silver Cloak"	"6"	"4650000"	"900000000"	"6은망"
"20074"	"Silver Cloak"	"7"	"9860000"	"900000000"	"7은망"
"20074"	"Silver Cloak"	"8"	"28750000"	"900000000"	"8은망"
"20074"	"Silver Cloak"	"9"	"60000000"	"900000000"	"9은망"
"20077"	"Cloak of Invisibility"	"0"	"7000000"	"900000000"	"투망"
"20077"	"Cloak of Invisibility"	"5"	"7500000"	"900000000"	"5투망"
"20079"	"뱀파이어의망토"	"0"	"14800000"	"900000000"	"뱀망"
"20079"	"뱀파이어의망토"	"7"	"15400000"	"900000000"	"7뱀망"
"20079"	"뱀파이어의망토"	"8"	"32350000"	"900000000"	"8뱀망"
"20079"	"Vampire's Cloak"	"9"	"72000000"	"900000000"	"9뱀망"
"20085"	"T-shirt"	"4"	"140000"	"900000000"	"4티"
"20085"	"T-shirt"	"5"	"450000"	"900000000"	"5티"
"20085"	"T-shirt"	"6"	"1200000"	"900000000"	"6티"
"20085"	"T-shirt"	"7"	"1"	"900000000"	"7티"
"20085"	"T-shirt"	"8"	"9800000"	"900000000"	"8티"
"20085"	"T-shirt"	"9"	"38000000"	"900000000"	"9티"
"20092"	"Ancient Leather Armor"	"0"	"38000000"	"900000000"	"고가죽"
"20093"	"Ancient Robe"	"0"	"38000000"	"900000000"	"고롭"
"20094"	"Ancient Scale갑옷"	"0"	"38000000"	"900000000"	"고Scale"
"20095"	"Ancient 판금갑옷"	"0"	"38000000"	"900000000"	"고판금"
"20107"	"Lich Robe"	"0"	"9000000"	"900000000"	"리롭"
"20107"	"Lich Robe"	"5"	"9800000"	"900000000"	"5리롭"
"20107"	"Lich Robe"	"6"	"15400000"	"900000000"	"6리롭"
"20107"	"Lich Robe"	"7"	"29800000"	"900000000"	"7리롭"
"20107"	"Lich Robe"	"8"	"54000000"	"900000000"	"8리롭"
"20107"	"Lich Robe"	"9"	"90000000"	"900000000"	"9리롭"
"20108"	"린드비오르의마갑주"	"0"	"21000000"	"900000000"	"린드마갑"
"20108"	"린드비오르의마갑주"	"5"	"21500000"	"900000000"	"5린드마갑"
"20109"	"Dread Queen Robe"	"0"	"4000000"	"900000000"	"마령군왕로브"
"20109"	"Dread Queen Robe"	"5"	"4500000"	"900000000"	"5마령군왕로브"
"20109"	"Dread Queen Robe"	"6"	"7650000"	"900000000"	"6마령군왕로브"
"20109"	"Dread Queen Robe"	"7"	"11250000"	"900000000"	"7마령군왕로브"
"20109"	"Dread Queen Robe"	"8"	"27650000"	"900000000"	"8마령군왕로브"
"20110"	"Magic Resistance Chain Mail"	"4"	"85000"	"900000000"	"4마사"
"20110"	"Magic Resistance Chain Mail"	"5"	"350000"	"900000000"	"5마사"
"20110"	"Magic Resistance Chain Mail"	"6"	"1120000"	"900000000"	"6마사"
"20110"	"Magic Resistance Chain Mail"	"7"	"3100000"	"900000000"	"7마사"
"20110"	"Magic Resistance Chain Mail"	"8"	"6200000"	"900000000"	"8마사"
"20110"	"Magic Resistance Chain Mail"	"9"	"29650000"	"900000000"	"9마사"
"20110"	"Magic Resistance Chain Mail"	"10"	"65000000"	"900000000"	"10마사"
"20112"	"맘보코트"	"0"	"1500000"	"900000000"	"맘보코트"
"20112"	"맘보코트"	"5"	"2000000"	"900000000"	"5맘보코트"
"20113"	"Pretender King Armor"	"0"	"50000"	"900000000"	"무관갑옷"
"20113"	"Pretender King Armor"	"7"	"500000"	"900000000"	"7무관갑옷"
"20113"	"Pretender King Armor"	"8"	"1200000"	"900000000"	"8무관갑옷"
"20113"	"Pretender King Armor"	"9"	"3100000"	"900000000"	"9무관갑옷"
"20117"	"Armor of Baphomet"	"5"	"9500000"	"900000000"	"5바갑"
"20119"	"발라카스의마갑주"	"0"	"6500000"	"900000000"	"발라마갑"
"20119"	"발라카스의마갑주"	"5"	"7000000"	"900000000"	"5발라마갑"
"20129"	"New King Robe"	"0"	"200000"	"900000000"	"신관로브"
"20129"	"New King Robe"	"7"	"1100000"	"900000000"	"7신관로브"
"20129"	"New King Robe"	"8"	"1850000"	"900000000"	"8신관로브"
"20129"	"New King Robe"	"9"	"5700000"	"900000000"	"9신관로브"
"20130"	"안타라스의마갑주"	"0"	"21000000"	"900000000"	"안타마갑"
"20130"	"안타라스의마갑주"	"5"	"21500000"	"900000000"	"5안타마갑"
"20153"	"파푸리온의마갑주"	"0"	"25000000"	"900000000"	"파푸마갑"
"20153"	"파푸리온의마갑주"	"5"	"25500000"	"900000000"	"5파푸마갑"
"20160"	"Dark Elder Robe"	"0"	"3800000"	"900000000"	"흑롭"
"20160"	"Dark Elder Robe"	"5"	"4300000"	"900000000"	"5흑롭"
"20160"	"Dark Elder Robe"	"6"	"5400000"	"900000000"	"6흑롭"
"20160"	"Dark Elder Robe"	"7"	"7600000"	"900000000"	"7흑롭"
"20160"	"Dark Elder Robe"	"8"	"21200000"	"900000000"	"8흑롭"
"20160"	"Dark Elder Robe"	"9"	"64000000"	"900000000"	"9흑롭"
"20164"	"Shadow Gloves"	"0"	"10000"	"900000000"	"그장"
"20164"	"Shadow Gloves"	"6"	"150000"	"900000000"	"6그장"
"20164"	"Shadow Gloves"	"7"	"350000"	"900000000"	"7그장"
"20164"	"Shadow Gloves"	"8"	"2200000"	"900000000"	"8그장"
"20164"	"Shadow Gloves"	"9"	"12350000"	"900000000"	"9그장"
"20165"	"Demon Gloves"	"0"	"1000000"	"900000000"	"데장"
"20167"	"Gloves of Lizardman Hero's"	"0"	"100000"	"900000000"	"걍리장"
"20167"	"Gloves of Lizardman Hero's"	"1"	"250000"	"900000000"	"1리장"
"20167"	"Gloves of Lizardman Hero's"	"2"	"800000"	"900000000"	"2리장"
"20167"	"Gloves of Lizardman Hero's"	"3"	"3200000"	"900000000"	"3리장"
"20167"	"Gloves of Lizardman Hero's"	"4"	"9860000"	"900000000"	"4리장"
"20167"	"Gloves of Lizardman Hero's"	"5"	"32000000"	"900000000"	"5리장"
"20167"	"Gloves of Lizardman Hero's"	"6"	"64250000"	"900000000"	"6리장"
"20167"	"Gloves of Lizardman Hero's"	"7"	"64250000"	"900000000"	"7리장"
"20168"	"Pretender King Gloves"	"0"	"64250000"	"900000000"	"무관장갑"
"20168"	"Pretender King Gloves"	"7"	"650000"	"900000000"	"7무관장갑"
"20168"	"Pretender King Gloves"	"8"	"1500000"	"900000000"	"8무관장갑"
"20168"	"Pretender King Gloves"	"9"	"3100000"	"900000000"	"9무관장갑"
"20175"	"Crystal Gloves"	"4"	"500000"	"900000000"	"4수장"
"20175"	"Crystal Gloves"	"5"	"1000000"	"900000000"	"5수장"
"20175"	"Crystal Gloves"	"6"	"1900000"	"900000000"	"6수장"
"20175"	"Crystal Gloves"	"7"	"3400000"	"900000000"	"7수장"
"20175"	"Crystal Gloves"	"8"	"7000000"	"900000000"	"8수장"
"20175"	"Crystal Gloves"	"9"	"29000000"	"900000000"	"9수장"
"20176"	"New King Gloves"	"0"	"200000"	"900000000"	"신관장갑"
"20176"	"New King Gloves"	"6"	"300000"	"900000000"	"6신관장갑"
"20176"	"New King Gloves"	"7"	"850000"	"900000000"	"7신관장갑"
"20176"	"New King Gloves"	"8"	"1600000"	"900000000"	"8신관장갑"
"20176"	"New King Gloves"	"9"	"5200000"	"900000000"	"9신관장갑"
"20178"	"암살군왕의장갑"	"0"	"4600000"	"900000000"	"걍암장"
"20178"	"암살군왕의장갑"	"7"	"5100000"	"900000000"	"7암장"
"20178"	"암살군왕의장갑"	"8"	"9000000"	"900000000"	"8암장"
"20178"	"암살군왕의장갑"	"9"	"36000000"	"900000000"	"9암장"
"20186"	"Tarak Gloves"	"0"	"15000000"	"900000000"	"타장"
"20186"	"Tarak Gloves"	"5"	"15500000"	"900000000"	"5타장"
"20186"	"Tarak Gloves"	"6"	"21250000"	"900000000"	"6타장"
"20186"	"Tarak Gloves"	"7"	"43000000"	"900000000"	"7타장"
"20187"	"파워글로브"	"0"	"43000000"	"900000000"	"파글"
"20187"	"파워글로브"	"4"	"43000000"	"900000000"	"4파글"
"20187"	"파워글로브"	"5"	"43000000"	"900000000"	"5파글"
"20187"	"파워글로브"	"6"	"43000000"	"900000000"	"6파글"
"20187"	"파워글로브"	"7"	"43000000"	"900000000"	"7파글"
"20187"	"파워글로브"	"8"	"43000000"	"900000000"	"8파글"
"20187"	"파워글로브"	"9"	"28600000"	"900000000"	"9파글"
"20190"	"혼돈의손길"	"0"	"43000000"	"900000000"	"걍혼손"
"20190"	"혼돈의손길"	"1"	"6000000"	"900000000"	"1혼손"
"20190"	"혼돈의손길"	"2"	"9500000"	"900000000"	"2혼손"
"20190"	"혼돈의손길"	"3"	"17000000"	"900000000"	"3혼손"
"20190"	"혼돈의손길"	"4"	"39200000"	"900000000"	"4혼손"
"20190"	"혼돈의손길"	"5"	"76500000"	"900000000"	"5혼손"
"20191"	"활골무"	"4"	"110000"	"900000000"	"4골무"
"20191"	"활골무"	"5"	"300000"	"900000000"	"5골무"
"20191"	"활골무"	"6"	"900000"	"900000000"	"6골무"
"20191"	"활골무"	"7"	"2900000"	"900000000"	"7골무"
"20191"	"활골무"	"8"	"6750000"	"900000000"	"8골무"
"20191"	"활골무"	"9"	"26250000"	"900000000"	"9골무"
"20194"	"강철부츠"	"4"	"120000"	"900000000"	"4강부"
"20194"	"강철부츠"	"5"	"320000"	"900000000"	"5강부"
"20194"	"강철부츠"	"6"	"1500000"	"900000000"	"6강부"
"20194"	"강철부츠"	"7"	"3100000"	"900000000"	"7강부"
"20194"	"강철부츠"	"8"	"9800000"	"900000000"	"8강부"
"20194"	"강철부츠"	"9"	"25600000"	"900000000"	"9강부"
"20195"	"Shadow Boots"	"4"	"130000"	"900000000"	"4그부"
"20195"	"Shadow Boots"	"5"	"430000"	"900000000"	"5그부"
"20195"	"Shadow Boots"	"6"	"1200000"	"900000000"	"6그부"
"20195"	"Shadow Boots"	"7"	"3800000"	"900000000"	"7그부"
"20195"	"Shadow Boots"	"8"	"11000000"	"900000000"	"8그부"
"20195"	"Shadow Boots"	"9"	"31000000"	"900000000"	"9그부"
"20197"	"Demon Boots"	"0"	"1000000"	"900000000"	"데부"
"20200"	"마수군왕의부츠"	"0"	"5000000"	"900000000"	"걍마부"
"20200"	"마수군왕의부츠"	"7"	"5600000"	"900000000"	"7마부"
"20200"	"마수군왕의부츠"	"8"	"16700000"	"900000000"	"8마부"
"20200"	"마수군왕의부츠"	"9"	"42000000"	"900000000"	"9마부"
"20201"	"Pretender King Boots"	"0"	"150000"	"900000000"	"무관부츠"
"20201"	"Pretender King Boots"	"7"	"480000"	"900000000"	"7무관부츠"
"20201"	"Pretender King Boots"	"8"	"1560000"	"900000000"	"8무관부츠"
"20201"	"Pretender King Boots"	"9"	"4500000"	"900000000"	"9무관부츠"
"20208"	"New King Boots"	"0"	"160000"	"900000000"	"신관부츠"
"20208"	"New King Boots"	"6"	"240000"	"900000000"	"6신관부츠"
"20208"	"New King Boots"	"7"	"850000"	"900000000"	"7신관부츠"
"20208"	"New King Boots"	"8"	"1860000"	"900000000"	"8신관부츠"
"20208"	"New King Boots"	"9"	"4150000"	"900000000"	"9신관부츠"
"20216"	"타락의부츠"	"0"	"15000000"	"900000000"	"타부"
"20216"	"타락의부츠"	"5"	"15500000"	"900000000"	"5타부"
"20216"	"타락의부츠"	"6"	"21300000"	"900000000"	"6타부"
"20216"	"타락의부츠"	"7"	"42000000"	"900000000"	"7타부"
"20216"	"타락의부츠"	"8"	"76500000"	"900000000"	"8타부"
"20216"	"타락의부츠"	"9"	"76500000"	"900000000"	"9타부"
"20218"	"Dark Elder Sandals"	"0"	"3200000"	"900000000"	"흑샌"
"20218"	"Dark Elder Sandals"	"5"	"3600000"	"900000000"	"5흑샌"
"20218"	"Dark Elder Sandals"	"6"	"5600000"	"900000000"	"6흑샌"
"20218"	"Dark Elder Sandals"	"7"	"11250000"	"900000000"	"7흑샌"
"20218"	"Dark Elder Sandals"	"8"	"38000000"	"900000000"	"8흑샌"
"20218"	"Dark Elder Sandals"	"9"	"64000000"	"900000000"	"9흑샌"
"20228"	"Pretender King Shield"	"0"	"50000"	"900000000"	"무관방패"
"20228"	"Pretender King Shield"	"7"	"950000"	"900000000"	"7무관방패"
"20228"	"Pretender King Shield"	"8"	"1750000"	"900000000"	"8무관방패"
"20228"	"Pretender King Shield"	"9"	"3100000"	"900000000"	"9무관방패"
"20233"	"New King Book of Magical Powers"	"0"	"50000"	"900000000"	"신관마력서"
"20233"	"New King Book of Magical Powers"	"6"	"150000"	"900000000"	"6신관마력서"
"20233"	"New King Book of Magical Powers"	"7"	"400000"	"900000000"	"7신관마력서"
"20233"	"New King Book of Magical Powers"	"8"	"1560000"	"900000000"	"8신관마력서"
"20233"	"New King Book of Magical Powers"	"9"	"4200000"	"900000000"	"9신관마력서"
"20235"	"Shield of Eva"	"4"	"1200000"	"900000000"	"에방"
"20235"	"Shield of Eva"	"5"	"1700000"	"900000000"	"5에방"
"20235"	"Shield of Eva"	"6"	"2300000"	"900000000"	"6에방"
"20235"	"Shield of Eva"	"7"	"4200000"	"900000000"	"7에방"
"20235"	"Shield of Eva"	"8"	"6800000"	"900000000"	"8에방"
"20235"	"Shield of Eva"	"9"	"18000000"	"900000000"	"9에방"
"20236"	"Elven Shield"	"0"	"10000"	"900000000"	"걍요방"
"20236"	"Elven Shield"	"7"	"525000"	"900000000"	"7요방"
"20236"	"Elven Shield"	"8"	"1160000"	"900000000"	"8요방"
"20236"	"Elven Shield"	"9"	"3550000"	"900000000"	"9요방"
"20253"	"Dread Queen Amulet"	"0"	"2860000"	"900000000"	"마목"
"20255"	"Arcane King Ring"	"0"	"4100000"	"900000000"	"명반"
"20256"	"Amulet of Dexterity"	"7"	"50000"	"900000000"	"Dexterity"
"20257"	"Black Wizard's Necklace"	"0"	"1500000"	"900000000"	"블목"
"20260"	"Iris Necklace"	"0"	"4700000"	"900000000"	"아이리스목걸이"
"20264"	"Amulet of Strength"	"0"	"50000"	"900000000"	"Strength"
"20266"	"Amulet of Intelligence"	"9"	"50000"	"900000000"	"Knowledge"
"20279"	"Laia's Ring"	"0"	"18000000"	"900000000"	"Laban"
"20280"	"멸마의반지"	"0"	"18000000"	"900000000"	"멸마"
"20288"	"순간 이동 조종 Ring"	"0"	"1000000"	"900000000"	"Ivan"
"20314"	"에이션트자이언트반지"	"0"	"3100000"	"900000000"	"Evan"
"20317"	"오우거의벨트"	"0"	"18000000"	"900000000"	"오벨"
"20320"	"Titan Belt"	"0"	"2500000"	"900000000"	"타벨"
"20321"	"Troll Belt"	"0"	"50000"	"900000000"	"트벨"
"20422"	"빛나는고대의목걸이"	"0"	"2200000"	"900000000"	"빛고목"
"21093"	"반역자의 Shield"	"0"	"18000000"	"900000000"	"반방"
"21093"	"반역자의 Shield"	"5"	"5200000"	"900000000"	"5반방"
"21093"	"반역자의 Shield"	"6"	"7900000"	"900000000"	"6반방"
"21093"	"반역자의 Shield"	"7"	"12000000"	"900000000"	"7반방"
"21093"	"반역자의 Shield"	"8"	"28000000"	"900000000"	"8반방"
"21093"	"반역자의 Shield"	"9"	"70000000"	"900000000"	"9반방"
"21095"	"Constitution Garder"	"0"	"500000"	"900000000"	"체가더"
"21095"	"Constitution Garder"	"1"	"1000000"	"900000000"	"1체가더"
"21095"	"Constitution Garder"	"2"	"2100000"	"900000000"	"2체가더"
"21095"	"Constitution Garder"	"3"	"4100000"	"900000000"	"3체가더"
"21095"	"Constitution Garder"	"4"	"11000000"	"900000000"	"4체가더"
"21095"	"Constitution Garder"	"5"	"21000000"	"900000000"	"5체가더"
"21096"	"수호의 Garder"	"0"	"600000"	"900000000"	"수호가더"
"21096"	"수호의 Garder"	"1"	"1200000"	"900000000"	"1수호가더"
"21096"	"수호의 Garder"	"2"	"2100000"	"900000000"	"2수호가더"
"21096"	"수호의 Garder"	"3"	"6100000"	"900000000"	"3수호가더"
"21096"	"수호의 Garder"	"4"	"13650000"	"900000000"	"4수호가더"
"21096"	"수호의 Garder"	"5"	"25600000"	"900000000"	"5수호가더"
"21097"	"Wizard Garder"	"0"	"400000"	"900000000"	"마가더"
"21097"	"Wizard Garder"	"1"	"950000"	"900000000"	"1마가더"
"21097"	"Wizard Garder"	"2"	"1800000"	"900000000"	"2마가더"
"21097"	"Wizard Garder"	"3"	"2600000"	"900000000"	"3마가더"
"21097"	"Wizard Garder"	"4"	"6000000"	"900000000"	"4마가더"
"21097"	"Wizard Garder"	"5"	"12000000"	"900000000"	"5마가더"
"21122"	"지휘관의 Helmet"	"0"	"12000000"	"900000000"	"지투"
"21122"	"지휘관의 Helmet"	"5"	"8500000"	"900000000"	"5지투"
"21124"	"단단한 Pumpkin Armor"	"0"	"12000000"	"900000000"	"호갑"
"21124"	"단단한 Pumpkin Armor"	"8"	"12000000"	"900000000"	"8호갑"
"21124"	"단단한 Pumpkin Armor"	"9"	"12000000"	"900000000"	"9호갑"
"21124"	"단단한 Pumpkin Armor"	"10"	"12000000"	"900000000"	"10호갑"
"21255"	"용의호박갑옷"	"0"	"2000000"	"900000000"	"용호갑"
"21258"	"포노스 Warrior Necklace"	"0"	"12000000"	"900000000"	"포목"
"21259"	"완력의 Boots"	"0"	"12000000"	"900000000"	"완부"
"21260"	"Amulet of Wisdom"	"0"	"12000000"	"900000000"	"현목"
"21261"	"완력의 Belt"	"0"	"12000000"	"900000000"	"완벨"
"21262"	"지식의 Belt"	"0"	"12000000"	"900000000"	"지벨"
"21263"	"민첩의벨트"	"0"	"12000000"	"900000000"	"민벨"
"21263"	"Dexterity Belt"	"5"	"12000000"	"900000000"	"민벨"
"21265"	"Dexterity Boots"	"0"	"12000000"	"900000000"	"민부"
"21266"	"지식의 Boots"	"0"	"12000000"	"900000000"	"지부"
"21266"	"지식의 Boots"	"7"	"6100000"	"900000000"	"지부"
"21267"	"Shining Sayha Ring"	"0"	"12000000"	"900000000"	"빛사반"
"21268"	"Shining Saiha's Amulet"	"0"	"12000000"	"900000000"	"빛사목"
"21269"	"Pumpkin Necklace"	"0"	"12000000"	"900000000"	"호목"
"22009"	"시어의 심안"	"0"	"9800000"	"900000000"	"심안"
"22009"	"시어의 심안"	"7"	"10400000"	"900000000"	"7심안"
"22009"	"시어의 심안"	"8"	"25000000"	"900000000"	"8심안"
"30218"	"Wisdom Boots"	"0"	"12000000"	"900000000"	"지부"
"30219"	"Stone Gloves"	"0"	"12000000"	"900000000"	"돌장"
"30219"	"Stone Gloves"	"5"	"2300000"	"900000000"	"5돌장"
"30219"	"Stone Gloves"	"6"	"3300000"	"900000000"	"6돌장"
"30219"	"Stone Gloves"	"7"	"6450000"	"900000000"	"7돌장"
"30219"	"Stone Gloves"	"8"	"15450000"	"900000000"	"8돌장"
"30219"	"Stone Gloves"	"9"	"31000000"	"900000000"	"9돌장"
"30220"	"파괴의 Longbow"	"0"	"12000000"	"900000000"	"파장"
"30220"	"파괴의 Longbow"	"7"	"6500000"	"900000000"	"7파장"
"30220"	"파괴의 Longbow"	"8"	"12500000"	"900000000"	"8파장"
"30220"	"파괴의 Longbow"	"9"	"29650000"	"900000000"	"9파장"
"30220"	"파괴의 Longbow"	"10"	"65000000"	"900000000"	"10파장"
"30229"	"지식의 Ring"	"0"	"12000000"	"900000000"	"지식반지"
"40033"	"Elixir(STR)"	"0"	"12000000"	"900000000"	"힘엘릭"
"40035"	"Elixir(dex)"	"0"	"31000000"	"900000000"	"덱엘릭"
"40164"	"Tech Book (Shock Stun)"	"0"	"31000000"	"900000000"	"Stun"
"40197"	"Magic Book(Holy Walk)"	"0"	"31000000"	"900000000"	"홀리"
"40205"	"Invisibility"	"0"	"900000"	"900000000"	"인비지"
"40213"	"Magic Book(이 뮨 투함)"	"0"	"31000000"	"900000000"	"이뮨"
"40219"	"Magic Book(Meteor Strike)"	"0"	"9000000"	"900000000"	"미티어"
"40222"	"Magic Book(Disintegrate)"	"0"	"31000000"	"900000000"	"디스"
"40223"	"Magic Book(Absolute Barrier)"	"0"	"4500000"	"900000000"	"앱솔"
"40224"	"Advanced Spirit"	"0"	"2200000"	"900000000"	"어밴"
"40225"	"Ice Spike"	"0"	"1500000"	"900000000"	"아이스스파이크"
"40238"	"Spirit Crystal (Blood to Soul)"	"0"	"31000000"	"900000000"	"소울"
"40346"	"Antharas Heart"	"0"	"20000000"	"900000000"	"안타Heart"
"40362"	"Fafurion Heart"	"0"	"25000000"	"900000000"	"파푸Heart"
"40466"	"Dragon Heart"	"0"	"3200000"	"900000000"	"용심"
"41149"	"Spirit Crystal(Flame Soul)"	"0"	"31000000"	"900000000"	"소프"
"41152"	"Spirit Crystal(폴루트워터)"	"0"	"500000"	"900000000"	"똥물"
"41153"	"Spirit Crystal(Striker Gale)"	"0"	"2500000"	"900000000"	"Gayle"
"41352"	"Blessed Unicorn Horn"	"0"	"31000000"	"900000000"	"유뿔"
"60187"	"Antharas Heart"	"0"	"20000000"	"900000000"	"축안타Heart"
"60510"	"장인의 Enchant Weapon Scroll"	"0"	"31000000"	"900000000"	"장인"
"90084"	"섬멸자의 Chainsword"	"0"	"31000000"	"900000000"	"섬체"
"100009"	"Oriharukon Dagger"	"0"	"875000"	"900000000"	"축오단"
"100009"	"Oriharukon Dagger"	"7"	"1258000"	"900000000"	"축7오단"
"100009"	"Oriharukon Dagger"	"8"	"4350000"	"900000000"	"축8오단"
"100009"	"Oriharukon Dagger"	"9"	"10850000"	"900000000"	"축9오단"
"100009"	"Oriharukon Dagger"	"10"	"51250000"	"900000000"	"축10오단"
"100011"	"Crystal Dagger"	"0"	"31000000"	"900000000"	"축수단"
"100011"	"Crystal Dagger"	"8"	"31000000"	"900000000"	"축8수단"
"100049"	"Pretender King Long Sword"	"0"	"50000"	"900000000"	"축무장"
"100049"	"Pretender King Long Sword"	"7"	"395000"	"900000000"	"축7무장"
"100049"	"Pretender King Long Sword"	"8"	"1125000"	"900000000"	"축8무장"
"100049"	"Pretender King Long Sword"	"9"	"5450000"	"900000000"	"축9무장"
"100049"	"Pretender King Long Sword"	"10"	"24650000"	"900000000"	"축10무장"
"100057"	"Tsurugi"	"0"	"50000"	"900000000"	"축싸울"
"100057"	"Tsurugi"	"7"	"850000"	"900000000"	"축7싸울"
"100057"	"Tsurugi"	"8"	"2450000"	"900000000"	"축8싸울"
"100057"	"Tsurugi"	"9"	"6850000"	"900000000"	"축9싸울"
"100057"	"Tsurugi"	"10"	"25650000"	"900000000"	"축10싸울"
"100062"	"Pretender King Greatsword"	"0"	"31000000"	"900000000"	"축무양"
"100062"	"Pretender King Greatsword"	"7"	"2950000"	"900000000"	"축7무양"
"100062"	"Pretender King Greatsword"	"8"	"7650000"	"900000000"	"축8무양"
"100062"	"Pretender King Greatsword"	"9"	"22350000"	"900000000"	"축9무양"
"100062"	"Pretender King Greatsword"	"10"	"53250000"	"900000000"	"축10무양"
"100084"	"Kaiser Edoryu"	"0"	"6520000"	"900000000"	"축왕도"
"100084"	"Kaiser Edoryu"	"7"	"7150000"	"900000000"	"축7왕도"
"100084"	"Kaiser Edoryu"	"8"	"17650000"	"900000000"	"축8왕도"
"100084"	"Kaiser Edoryu"	"9"	"31250000"	"900000000"	"축9왕도"
"100164"	"Kaiser Claw"	"0"	"6000000"	"900000000"	"축왕아"
"100164"	"Kaiser Claw"	"7"	"6500000"	"900000000"	"축7왕아"
"100164"	"Kaiser Claw"	"8"	"16000000"	"900000000"	"축8왕아"
"100164"	"Kaiser Claw"	"9"	"29650000"	"900000000"	"축9왕아"
"100189"	"Kaiser Crossbow"	"0"	"3865000"	"900000000"	"축왕궁"
"100189"	"Kaiser Crossbow"	"7"	"5125000"	"900000000"	"축7왕궁"
"100189"	"Kaiser Crossbow"	"8"	"9865000"	"900000000"	"축8왕궁"
"100189"	"Kaiser Crossbow"	"9"	"22350000"	"900000000"	"축9왕궁"
"100259"	"파괴의 Claw"	"0"	"5250000"	"900000000"	"축파크"
"100259"	"파괴의 Claw"	"7"	"6250000"	"900000000"	"축7파크"
"100259"	"파괴의 Claw"	"8"	"13265000"	"900000000"	"축8파크"
"100259"	"파괴의 Claw"	"9"	"27650000"	"900000000"	"축9파크"
"100259"	"파괴의 Claw"	"10"	"46500000"	"900000000"	"축10파크"
"100260"	"파괴의 Edoryu"	"0"	"5250000"	"900000000"	"축파이"
"100260"	"파괴의 Edoryu"	"7"	"6250000"	"900000000"	"축7파이"
"100260"	"파괴의 Edoryu"	"8"	"13265000"	"900000000"	"축8파이"
"100260"	"파괴의 Edoryu"	"9"	"25650000"	"900000000"	"축9파이"
"100260"	"파괴의 Edoryu"	"10"	"44500000"	"900000000"	"축10파이"
"120011"	"Helmet of Magic Resistance"	"4"	"85000"	"900000000"	"축4마투"
"120011"	"Helmet of Magic Resistance"	"5"	"380000"	"900000000"	"축5마투"
"120011"	"Helmet of Magic Resistance"	"6"	"980000"	"900000000"	"축6마투"
"120011"	"Helmet of Magic Resistance"	"7"	"8600000"	"900000000"	"축7마투"
"120011"	"Helmet of Magic Resistance"	"8"	"8600000"	"900000000"	"축8마투"
"120011"	"Helmet of Magic Resistance"	"9"	"28650000"	"900000000"	"축9마투"
"120016"	"맘보모자"	"0"	"615000"	"900000000"	"축맘보모자"
"120016"	"맘보모자"	"5"	"965000"	"900000000"	"축5맘보모자"
"120017"	"Mummy Lord Crown"	"0"	"9860000"	"900000000"	"머미왕관"
"120017"	"Mummy Lord Crown"	"7"	"10300000"	"900000000"	"7머미왕관"
"120017"	"Mummy Lord Crown"	"8"	"25450000"	"900000000"	"8머미왕관"
"120017"	"Mummy Lord Crown"	"9"	"54250000"	"900000000"	"9머미왕관"
"120020"	"Pretender King Helmet"	"0"	"50000"	"900000000"	"축무관투구"
"120020"	"Pretender King Helmet"	"7"	"530000"	"900000000"	"축7무관투구"
"120020"	"Pretender King Helmet"	"8"	"1125000"	"900000000"	"축8무관투구"
"120020"	"Pretender King Helmet"	"9"	"3125000"	"900000000"	"축9무관투구"
"120030"	"New King Helmet"	"0"	"50000"	"900000000"	"축신관투구"
"120030"	"New King Helmet"	"7"	"360000"	"900000000"	"축7신관투구"
"120030"	"New King Helmet"	"8"	"1365000"	"900000000"	"축8신관투구"
"120030"	"New King Helmet"	"9"	"6125000"	"900000000"	"축9신관투구"
"120056"	"Cloak of Magic Resistance"	"4"	"8600000"	"900000000"	"축4마망"
"120056"	"Cloak of Magic Resistance"	"5"	"8600000"	"900000000"	"축5마망"
"120056"	"Cloak of Magic Resistance"	"6"	"8600000"	"900000000"	"축6마망"
"120056"	"Cloak of Magic Resistance"	"7"	"8600000"	"900000000"	"축7마망"
"120056"	"Cloak of Magic Resistance"	"8"	"8600000"	"900000000"	"축8마망"
"120056"	"Cloak of Magic Resistance"	"9"	"8600000"	"900000000"	"축9마망"
"120058"	"Pretender King Cloak"	"0"	"10000"	"900000000"	"축무관망토"
"120058"	"Pretender King Cloak"	"5"	"200000"	"900000000"	"축5무관망토"
"120058"	"Pretender King Cloak"	"6"	"550000"	"900000000"	"축6무관망토"
"120058"	"Pretender King Cloak"	"7"	"1560000"	"900000000"	"축7무관망토"
"120058"	"Pretender King Cloak"	"8"	"3100000"	"900000000"	"축8무관망토"
"120058"	"Pretender King Cloak"	"9"	"4600000"	"900000000"	"축9무관망토"
"120067"	"New King Cloak"	"0"	"50000"	"900000000"	"축신관망토"
"120067"	"New King Cloak"	"5"	"300000"	"900000000"	"축5신관망토"
"120067"	"New King Cloak"	"6"	"750000"	"900000000"	"축6신관망토"
"120067"	"New King Cloak"	"7"	"1560000"	"900000000"	"축7신관망토"
"120067"	"New King Cloak"	"8"	"3650000"	"900000000"	"축8신관망토"
"120067"	"New King Cloak"	"9"	"11250000"	"900000000"	"축9신관망토"
"120074"	"Silver Cloak"	"0"	"2400000"	"900000000"	"축은망"
"120074"	"Silver Cloak"	"5"	"2950000"	"900000000"	"축5은망"
"120074"	"Silver Cloak"	"6"	"4650000"	"900000000"	"축6은망"
"120074"	"Silver Cloak"	"7"	"9860000"	"900000000"	"축7은망"
"120074"	"Silver Cloak"	"8"	"28750000"	"900000000"	"축8은망"
"120074"	"Silver Cloak"	"9"	"60000000"	"900000000"	"축9은망"
"120079"	"뱀파이어의망토"	"0"	"14800000"	"900000000"	"축뱀망"
"120079"	"뱀파이어의망토"	"7"	"15400000"	"900000000"	"축7뱀망"
"120079"	"뱀파이어의망토"	"8"	"32350000"	"900000000"	"축8뱀망"
"120079"	"Vampire's Cloak"	"9"	"72000000"	"900000000"	"축9뱀망"
"120112"	"맘보코트"	"0"	"1500000"	"900000000"	"축맘보코트"
"120112"	"맘보코트"	"5"	"2000000"	"900000000"	"축5맘보코트"
"120113"	"Pretender King Armor"	"0"	"50000"	"900000000"	"축무관갑옷"
"120113"	"Pretender King Armor"	"7"	"500000"	"900000000"	"축7무관갑옷"
"120113"	"Pretender King Armor"	"8"	"1200000"	"900000000"	"축8무관갑옷"
"120113"	"Pretender King Armor"	"9"	"3100000"	"900000000"	"축9무관갑옷"
"120129"	"New King Robe"	"0"	"200000"	"900000000"	"축신관로브"
"120129"	"New King Robe"	"7"	"1100000"	"900000000"	"축7신관로브"
"120129"	"New King Robe"	"8"	"1850000"	"900000000"	"축8신관로브"
"120129"	"New King Robe"	"9"	"5700000"	"900000000"	"축9신관로브"
"120160"	"Dark Elder Robe"	"0"	"3800000"	"900000000"	"축흑롭"
"120160"	"Dark Elder Robe"	"5"	"4300000"	"900000000"	"축5흑롭"
"120160"	"Dark Elder Robe"	"6"	"5400000"	"900000000"	"축6흑롭"
"120160"	"Dark Elder Robe"	"7"	"7600000"	"900000000"	"축7흑롭"
"120160"	"Dark Elder Robe"	"8"	"21200000"	"900000000"	"축8흑롭"
"120160"	"Dark Elder Robe"	"9"	"64000000"	"900000000"	"축9흑롭"
"120168"	"Pretender King Gloves"	"0"	"50000"	"900000000"	"축무관장갑"
"120168"	"Pretender King Gloves"	"7"	"650000"	"900000000"	"축7무관장갑"
"120168"	"Pretender King Gloves"	"8"	"1500000"	"900000000"	"축8무관장갑"
"120168"	"Pretender King Gloves"	"9"	"3100000"	"900000000"	"축9무관장갑"
"120176"	"New King Gloves"	"0"	"200000"	"900000000"	"축신관장갑"
"120176"	"New King Gloves"	"6"	"300000"	"900000000"	"축6신관장갑"
"120176"	"New King Gloves"	"7"	"850000"	"900000000"	"축7신관장갑"
"120176"	"New King Gloves"	"8"	"1600000"	"900000000"	"축8신관장갑"
"120176"	"New King Gloves"	"9"	"5200000"	"900000000"	"축9신관장갑"
"120187"	"타라스의장갑"	"0"	"7000000"	"900000000"	"타장"
"120187"	"타라스의장갑"	"5"	"7500000"	"900000000"	"5타장"
"120187"	"타라스의장갑"	"6"	"9850000"	"900000000"	"6타장"
"120187"	"타라스의장갑"	"7"	"21250000"	"900000000"	"7타장"
"120194"	"Talass Boots"	"0"	"7000000"	"900000000"	"타부"
"120194"	"Talass Boots"	"5"	"7500000"	"900000000"	"5타부"
"120194"	"Talass Boots"	"6"	"9850000"	"900000000"	"6타부"
"120194"	"Talass Boots"	"7"	"21250000"	"900000000"	"7타부"
"120201"	"Pretender King Boots"	"0"	"150000"	"900000000"	"축무관부츠"
"120201"	"Pretender King Boots"	"7"	"480000"	"900000000"	"축7무관부츠"
"120201"	"Pretender King Boots"	"8"	"1560000"	"900000000"	"축8무관부츠"
"120201"	"Pretender King Boots"	"9"	"4500000"	"900000000"	"축9무관부츠"
"120208"	"New King Boots"	"0"	"160000"	"900000000"	"축신관부츠"
"120208"	"New King Boots"	"6"	"240000"	"900000000"	"축6신관부츠"
"120208"	"New King Boots"	"7"	"850000"	"900000000"	"축7신관부츠"
"120208"	"New King Boots"	"8"	"1860000"	"900000000"	"축8신관부츠"
"120208"	"New King Boots"	"9"	"4150000"	"900000000"	"축9신관부츠"
"120218"	"Dark Elder Sandals"	"0"	"3200000"	"900000000"	"축흑샌"
"120218"	"Dark Elder Sandals"	"5"	"3600000"	"900000000"	"축5흑샌"
"120218"	"Dark Elder Sandals"	"6"	"5600000"	"900000000"	"축6흑샌"
"120218"	"Dark Elder Sandals"	"7"	"11250000"	"900000000"	"축7흑샌"
"120218"	"Dark Elder Sandals"	"8"	"38000000"	"900000000"	"축8흑샌"
"120218"	"Dark Elder Sandals"	"9"	"64000000"	"900000000"	"축9흑샌"
"120228"	"Pretender King Shield"	"0"	"50000"	"900000000"	"축무관방패"
"120228"	"Pretender King Shield"	"7"	"950000"	"900000000"	"축7무관방패"
"120228"	"Pretender King Shield"	"8"	"1750000"	"900000000"	"축8무관방패"
"120228"	"Pretender King Shield"	"9"	"3100000"	"900000000"	"축9무관방패"
"120233"	"New King Book of Magical Powers"	"0"	"50000"	"900000000"	"축신관마력서"
"120233"	"New King Book of Magical Powers"	"6"	"150000"	"900000000"	"축6신관마력서"
"120233"	"New King Book of Magical Powers"	"7"	"400000"	"900000000"	"축7신관마력서"
"120233"	"New King Book of Magical Powers"	"8"	"1560000"	"900000000"	"축8신관마력서"
"120233"	"New King Book of Magical Powers"	"9"	"4200000"	"900000000"	"축9신관마력서"
"120256"	"축 Amulet of Dexterity"	"8"	"70000"	"900000000"	"축민첩"
"120264"	"축 Amulet of Strength"	"6"	"70000"	"900000000"	"축완력"
"120266"	"축 Amulet of Intelligence"	"0"	"70000"	"900000000"	"축지식"
"122009"	"시어의 심안"	"0"	"9800000"	"900000000"	"심안"
"122009"	"시어의 심안"	"7"	"10400000"	"900000000"	"7심안"
"122009"	"시어의 심안"	"8"	"25000000"	"900000000"	"8심안"
"410001"	"Defiler's Chainsword"	"0"	"1500000"	"900000000"	"파체"
"410001"	"Defiler's Chainsword"	"7"	"2000000"	"900000000"	"7파체"
"410001"	"Defiler's Chainsword"	"8"	"4200000"	"900000000"	"8파체"
"410001"	"Defiler's Chainsword"	"9"	"8750000"	"900000000"	"9파체"
"410001"	"Defiler's Chainsword"	"10"	"27650000"	"900000000"	"10파체"
"410001"	"Defiler's Chainsword"	"11"	"40000000"	"900000000"	"11파체"
"410004"	"흑요석키링크"	"0"	"700000"	"900000000"	"걍흑키"
"410004"	"흑요석키링크"	"7"	"700000"	"900000000"	"7흑키"
"410004"	"흑요석키링크"	"8"	"2100000"	"900000000"	"8흑키"
"410004"	"흑요석키링크"	"9"	"4350000"	"900000000"	"9흑키"
"410004"	"흑요석키링크"	"10"	"13000000"	"900000000"	"10흑키"
"412000"	"Sword of Thunder"	"0"	"62000000"	"900000000"	"Sword of Thunder"
"412000"	"Sword of Thunder"	"7"	"4500000"	"900000000"	"7뇌신"
"412000"	"Sword of Thunder"	"8"	"11250000"	"900000000"	"8뇌신"
"412000"	"Sword of Thunder"	"9"	"26500000"	"900000000"	"9뇌신"
"412000"	"Sword of Thunder"	"10"	"62000000"	"900000000"	"10뇌신"
"412001"	"Greatsword of Doom"	"0"	"62000000"	"900000000"	"파대"
"412001"	"파멸의대검"	"7"	"50000000"	"900000000"	"7파대"
"412001"	"파멸의대검"	"8"	"50000000"	"900000000"	"8파대"
"412001"	"파멸의대검"	"9"	"50000000"	"900000000"	"9파대"
"412001"	"파멸의대검"	"10"	"47000000"	"900000000"	"10파대"
"412002"	"마력의단검"	"0"	"50000000"	"900000000"	"마단"
"412002"	"마력의단검"	"7"	"4200000"	"900000000"	"7마단"
"412002"	"마력의단검"	"8"	"12500000"	"900000000"	"8마단"
"412002"	"마력의단검"	"9"	"27650000"	"900000000"	"9마단"
"412002"	"마력의단검"	"10"	"54250000"	"900000000"	"10마단"
"412003"	"천사의지팡이"	"0"	"2000000"	"900000000"	"걍천사지"
"412003"	"천사의지팡이"	"7"	"2500000"	"900000000"	"7천사지"
"412003"	"천사의지팡이"	"8"	"4325000"	"900000000"	"8천사지"
"412003"	"천사의지팡이"	"9"	"12500000"	"900000000"	"9천사지"
"412003"	"천사의지팡이"	"10"	"29650000"	"900000000"	"10천사지"
"412004"	"Cold Spear"	"0"	"2000000"	"900000000"	"걍혹한창"
"412004"	"Cold Spear"	"7"	"2500000"	"900000000"	"7혹한창"
"412004"	"Cold Spear"	"8"	"4325000"	"900000000"	"8혹한창"
"412004"	"Cold Spear"	"9"	"12500000"	"900000000"	"9혹한창"
"412004"	"Cold Spear"	"10"	"29650000"	"900000000"	"10혹한창"
"412005"	"광풍의도끼"	"0"	"2000000"	"900000000"	"광풍"
"412005"	"광풍의도끼"	"7"	"2500000"	"900000000"	"7광풍"
"412005"	"광풍의도끼"	"8"	"4325000"	"900000000"	"8광풍"
"412005"	"광풍의도끼"	"9"	"12500000"	"900000000"	"9광풍"
"412005"	"광풍의도끼"	"10"	"29650000"	"900000000"	"10광풍"
"415010"	"Thebes Osiris Two-handed Sword"	"0"	"50000000"	"900000000"	"걍테양"
"415010"	"Thebes Osiris Two-handed Sword"	"7"	"50000000"	"900000000"	"7테양"
"415010"	"Thebes Osiris Two-handed Sword"	"8"	"50000000"	"900000000"	"8테양"
"415010"	"Thebes Osiris Two-handed Sword"	"9"	"50000000"	"900000000"	"9테양"
"415010"	"Thebes Osiris Two-handed Sword"	"10"	"50000000"	"900000000"	"10테양"
"415011"	"Thebes Osiris Edoryu"	"0"	"50000000"	"900000000"	"걍테이"
"415011"	"Thebes Osiris Edoryu"	"7"	"50000000"	"900000000"	"7테이"
"415011"	"Thebes Osiris Edoryu"	"8"	"50000000"	"900000000"	"8테이"
"415011"	"Thebes Osiris Edoryu"	"9"	"50000000"	"900000000"	"9테이"
"415011"	"Thebes Osiris Edoryu"	"10"	"50000000"	"900000000"	"10테이"
"415012"	"Thebes Osiris Bow"	"0"	"50000000"	"900000000"	"걍테활"
"415012"	"Thebes Osiris Bow"	"7"	"50000000"	"900000000"	"7테활"
"415012"	"Thebes Osiris Bow"	"8"	"50000000"	"900000000"	"8테활"
"415012"	"Thebes Osiris Bow"	"9"	"50000000"	"900000000"	"9테활"
"415012"	"Thebes Osiris Bow"	"10"	"50000000"	"900000000"	"10테활"
"415013"	"Staff of Thebes Osiris"	"0"	"50000000"	"900000000"	"걍테지"
"415013"	"Staff of Thebes Osiris"	"7"	"50000000"	"900000000"	"7테지"
"415013"	"Staff of Thebes Osiris"	"8"	"50000000"	"900000000"	"8테지"
"415013"	"Staff of Thebes Osiris"	"9"	"50000000"	"900000000"	"9테지"
"415013"	"Staff of Thebes Osiris"	"10"	"50000000"	"900000000"	"10테지"
"415016"	"Kukulkan's Spear"	"0"	"50000000"	"900000000"	"쿠창"
"415016"	"Kukulkan's Spear"	"7"	"50000000"	"900000000"	"7쿠창"
"415016"	"Kukulkan's Spear"	"8"	"50000000"	"900000000"	"8쿠창"
"415016"	"Kukulkan's Spear"	"9"	"50000000"	"900000000"	"9쿠창"
"415016"	"Kukulkan's Spear"	"10"	"50000000"	"900000000"	"10쿠창"
"420000"	"Ancient Archer Garder"	"0"	"2000000"	"900000000"	"명가더"
"420000"	"Ancient Archer Garder"	"1"	"3000000"	"900000000"	"1명가더"
"420000"	"Ancient Archer Garder"	"2"	"4500000"	"900000000"	"2명가더"
"420000"	"Ancient Archer Garder"	"3"	"7200000"	"900000000"	"3명가더"
"420000"	"Ancient Archer Garder"	"4"	"10000000"	"900000000"	"4명가더"
"420000"	"Ancient Archer Garder"	"5"	"25600000"	"900000000"	"5명가더"
"420001"	"Dragon Scale Garder"	"0"	"50000"	"900000000"	"용가더"
"420001"	"Dragon Scale Garder"	"1"	"150000"	"900000000"	"1용가더"
"420001"	"Dragon Scale Garder"	"2"	"350000"	"900000000"	"2용가더"
"420001"	"Dragon Scale Garder"	"3"	"1250000"	"900000000"	"3용가더"
"420001"	"Dragon Scale Garder"	"4"	"6500000"	"900000000"	"4용가더"
"420001"	"Dragon Scale Garder"	"5"	"21250000"	"900000000"	"5용가더"
"420003"	"Ancient Warrior Garder"	"0"	"2000000"	"900000000"	"고투사"
"420003"	"Ancient Warrior Garder"	"1"	"3000000"	"900000000"	"1고투사"
"420003"	"Ancient Warrior Garder"	"2"	"4500000"	"900000000"	"2고투사"
"420003"	"Ancient Warrior Garder"	"3"	"7200000"	"900000000"	"3고투사"
"420003"	"Ancient Warrior Garder"	"4"	"10000000"	"900000000"	"4고투사"
"420003"	"Ancient Warrior Garder"	"5"	"25600000"	"900000000"	"5고투사"
"420007"	"Thebes Osiris Belt"	"0"	"25000000"	"900000000"	"테벨"
"420008"	"Thebes Horus Ring"	"0"	"25000000"	"900000000"	"인반"
"420009"	"Thebes Anubis Ring"	"0"	"20000000"	"900000000"	"힘반"
"420011"	"Kukulkan's Mask"	"0"	"850000"	"900000000"	"쿠마"
"420011"	"Kukulkan's Mask"	"5"	"1325000"	"900000000"	"5쿠마"
"420011"	"Kukulkan's Mask"	"6"	"1865000"	"900000000"	"6쿠마"
"420011"	"Kukulkan's Mask"	"7"	"4650000"	"900000000"	"7쿠마"
"420011"	"Kukulkan's Mask"	"8"	"12350000"	"900000000"	"8쿠마"
"420011"	"Kukulkan's Mask"	"9"	"39250000"	"900000000"	"9쿠마"
"420012"	"Kukulkan's Shield"	"0"	"2900000"	"900000000"	"걍쿠방"
"420012"	"Kukulkan's Shield"	"7"	"3600000"	"900000000"	"7쿠방"
"420012"	"Kukulkan's Shield"	"8"	"7500000"	"900000000"	"8쿠방"
"420012"	"Kukulkan's Shield"	"9"	"25000000"	"900000000"	"9쿠방"
"420013"	"제브레퀴의 Fang"	"0"	"9500000"	"900000000"	"제브송곳니"
"420014"	"제브레퀴의 마안"	"0"	"1000000"	"900000000"	"제브마안"
"430100"	"Lesser 수룡의 마안"	"0"	"3200000"	"900000000"	"수룡마안"
"430102"	"Lesser 지룡의 마안"	"0"	"2650000"	"900000000"	"지룡마안"
"500022"	"어두운 하딘의 Journal Page"	"0"	"2000000"	"900000000"	"하딘완본"
"500214"	"마법 방어 각반"	"0"	"1000000"	"900000000"	"마각반"
"1020187"	"파워글로브"	"0"	"500000"	"900000000"	"파글"
"1020187"	"파워글로브"	"4"	"600000"	"900000000"	"4파글"
"1020187"	"파워글로브"	"5"	"900000"	"900000000"	"5파글"
"1020187"	"파워글로브"	"6"	"1800000"	"900000000"	"6파글"
"1020187"	"파워글로브"	"7"	"4500000"	"900000000"	"7파글"
"1020187"	"파워글로브"	"8"	"10000000"	"900000000"	"8파글"
"1020187"	"파워글로브"	"9"	"28600000"	"900000000"	"9파글"
