"npc_id"	"id"	"item_id"	"memo"	"count"	"enchant"	"selling_price"	"purchasing_price"
"8000041"	"0"	"40354"	"Valakas Heart"	"1"	"0"	"200000000"	"-1"
"8000041"	"1"	"40354"	"Valakas Heart"	"1"	"0"	"200000000"	"-1"
"8000043"	"3"	"20191"	"Bracer"	"1"	"4"	"178000"	"-1"
"8000043"	"4"	"20191"	"Bracer"	"1"	"4"	"178000"	"-1"
"8000043"	"5"	"20191"	"Bracer"	"1"	"4"	"178000"	"-1"
"8000043"	"1"	"20033"	"Blessed of Elm"	"1"	"6"	"645000"	"-1"
"8000043"	"2"	"20033"	"Blessed of Elm"	"1"	"6"	"645000"	"-1"
"8000047"	"3"	"20191"	"Bracer"	"1"	"5"	"450000"	"-1"
"8000047"	"4"	"20191"	"Bracer"	"1"	"5"	"450000"	"-1"
"8000047"	"5"	"20191"	"Bracer"	"1"	"5"	"450000"	"-1"
"8000047"	"6"	"180"	"Crossbow"	"1"	"7"	"750000"	"-1"
"8000046"	"4"	"20191"	"Bracer"	"1"	"5"	"460000"	"-1"
"8000046"	"5"	"20191"	"Bracer"	"1"	"5"	"460000"	"-1"
"8000046"	"6"	"180"	"Crossbow"	"1"	"7"	"750000"	"-1"
"8000047"	"0"	"20033"	"Blessed of Elm"	"1"	"6"	"655000"	"-1"
"8000047"	"1"	"20033"	"Blessed of Elm"	"1"	"6"	"655000"	"-1"
"8000047"	"2"	"20033"	"Blessed of Elm"	"1"	"6"	"655000"	"-1"
"8000046"	"0"	"20033"	"Blessed of Elm"	"1"	"6"	"680000"	"-1"
"8000046"	"1"	"20033"	"Blessed of Elm"	"1"	"6"	"680000"	"-1"
"8000046"	"3"	"20191"	"Bracer"	"1"	"5"	"450000"	"-1"
"8000045"	"3"	"20191"	"Bracer"	"1"	"5"	"450000"	"-1"
"8000045"	"4"	"20191"	"Bracer"	"1"	"5"	"450000"	"-1"
"8000045"	"5"	"20191"	"Bracer"	"1"	"5"	"450000"	"-1"
"8000045"	"6"	"180"	"Crossbow"	"1"	"7"	"750000"	"-1"
"8000044"	"4"	"20191"	"Bracer"	"1"	"5"	"450000"	"-1"
"8000044"	"5"	"20191"	"Bracer"	"1"	"5"	"450000"	"-1"
"8000044"	"6"	"180"	"Crossbow"	"1"	"7"	"750000"	"-1"
"8000045"	"0"	"20033"	"Blessed of Elm"	"1"	"7"	"980000"	"-1"
"8000045"	"1"	"20033"	"Blessed of Elm"	"1"	"7"	"980000"	"-1"
"8000043"	"6"	"180"	"Crossbow"	"1"	"6"	"320000"	"-1"
"8000044"	"2"	"20033"	"Blessed of Elm"	"1"	"7"	"975000"	"-1"
"8000044"	"3"	"20191"	"Bracer"	"1"	"5"	"450000"	"-1"
"8000001"	"0"	"40074"	"Enchant Armor Scroll"	"3"	"0"	"40000"	"-1"
"8000001"	"1"	"120056"	"Cloak of Magic Resistance"	"1"	"4"	"164000"	"-1"
"8000001"	"2"	"120056"	"Cloak of Magic Resistance"	"1"	"4"	"164000"	"-1"
"8000001"	"3"	"120056"	"Cloak of Magic Resistance"	"1"	"4"	"164000"	"-1"
"8000001"	"4"	"120011"	"Helmet of Magic Resistance"	"1"	"4"	"165000"	"-1"
"8000001"	"5"	"120011"	"Helmet of Magic Resistance"	"1"	"4"	"165000"	"-1"
"8000035"	"1"	"40889"	"Counter Magic"	"900"	"0"	"300000"	"-1"
"8000035"	"0"	"40879"	"블레스트 아머"	"900"	"0"	"100000"	"-1"
"8000005"	"0"	"40074"	"Enchant Armor Scroll"	"15"	"0"	"43000"	"-1"
"8000005"	"1"	"120056"	"Cloak of Magic Resistance"	"1"	"4"	"162000"	"-1"
"8000005"	"2"	"120056"	"Cloak of Magic Resistance"	"1"	"4"	"162000"	"-1"
"8000005"	"3"	"120056"	"Cloak of Magic Resistance"	"1"	"4"	"162000"	"-1"
"8000005"	"4"	"120011"	"Helmet of Magic Resistance"	"1"	"4"	"163000"	"-1"
"8000005"	"6"	"120011"	"Helmet of Magic Resistance"	"1"	"4"	"163000"	"-1"
"8000006"	"0"	"140100"	"순간 이동 Scroll"	"386"	"0"	"1300"	"-1"
"8000006"	"3"	"40678"	"Soul Stone Fragment"	"135"	"0"	"12000"	"-1"
"8000006"	"4"	"40718"	"Blood Stone Fragment"	"1000"	"0"	"12000"	"-1"
"8000013"	"6"	"500022"	"어두운 하딘의 Journal Page"	"1"	"0"	"3150000"	"-1"
"8000037"	"0"	"500022"	"어두운 하딘의 Journal Page"	"1"	"0"	"3130000"	"-1"
"8000012"	"0"	"120056"	"5마망"	"1"	"5"	"409000"	"-1"
"8000012"	"1"	"120056"	"5마망"	"1"	"5"	"409000"	"-1"
"8000012"	"2"	"120056"	"5마망"	"1"	"5"	"409000"	"-1"
"8000012"	"3"	"120011"	"5마투"	"1"	"5"	"449000"	"-1"
"8000015"	"0"	"240087"	"Enchant Weapon Scroll"	"100"	"0"	"450000"	"-1"
"8000015"	"1"	"240074"	"Enchant Armor Scroll"	"100"	"0"	"400000"	"-1"
"8000014"	"0"	"140087"	"Enchant Weapon Scroll"	"100"	"0"	"1200000"	"-1"
"8000017"	"1"	"162"	"Black Claw"	"1"	"7"	"1675000"	"-1"
"8000017"	"2"	"162"	"Black Claw"	"1"	"7"	"1675000"	"-1"
"8000017"	"3"	"81"	"Black Edoryu"	"1"	"7"	"1785000"	"-1"
"8000016"	"1"	"120056"	"Cloak of Magic Resistance"	"1"	"4"	"163500"	"-1"
"8000016"	"2"	"120056"	"Cloak of Magic Resistance"	"1"	"4"	"163500"	"-1"
"8000016"	"3"	"120056"	"Cloak of Magic Resistance"	"1"	"4"	"163500"	"-1"
"8000016"	"4"	"120011"	"Helmet of Magic Resistance"	"1"	"4"	"164500"	"-1"
"8000016"	"6"	"120011"	"Helmet of Magic Resistance"	"1"	"4"	"164500"	"-1"
"8000017"	"4"	"81"	"Black Edoryu"	"1"	"7"	"1785000"	"-1"
"8000017"	"5"	"81"	"Black Edoryu"	"1"	"7"	"1785000"	"-1"
"8000019"	"3"	"54"	"커검"	"1"	"7"	"70000000"	"-1"
"8000019"	"4"	"54"	"커검"	"1"	"7"	"70000000"	"-1"
"8000019"	"5"	"54"	"커검"	"1"	"7"	"70000000"	"-1"
"8000019"	"6"	"54"	"커검"	"1"	"7"	"70000000"	"-1"
"8000019"	"0"	"54"	"커검"	"1"	"7"	"70000000"	"-1"
"8000019"	"1"	"54"	"커검"	"1"	"7"	"70000000"	"-1"
"8000019"	"2"	"54"	"커검"	"1"	"7"	"70000000"	"-1"
"8000020"	"5"	"21267"	"일격의 Ring"	"1"	"0"	"50000000"	"-1"
"8000020"	"4"	"21267"	"일격의 Ring"	"1"	"0"	"50000000"	"-1"
"8000020"	"3"	"420008"	"마왕의 Ring"	"1"	"0"	"50000000"	"-1"
"8000020"	"2"	"420008"	"마왕의 Ring"	"1"	"0"	"50000000"	"-1"
"8000020"	"1"	"420009"	"기백의 Ring"	"1"	"0"	"50000000"	"-1"
"8000020"	"0"	"420009"	"기백의 Ring"	"1"	"0"	"50000000"	"-1"
"8000021"	"5"	"21267"	"일격의 Ring"	"1"	"0"	"50000000"	"-1"
"8000021"	"4"	"21267"	"일격의 Ring"	"1"	"0"	"50000000"	"-1"
"8000021"	"3"	"420008"	"마왕의 Ring"	"1"	"0"	"50000000"	"-1"
"8000021"	"2"	"420008"	"마왕의 Ring"	"1"	"0"	"50000000"	"-1"
"8000021"	"1"	"420009"	"기백의 Ring"	"1"	"0"	"50000000"	"-1"
"8000021"	"0"	"420009"	"기백의 Ring"	"1"	"0"	"50000000"	"-1"
"8000022"	"5"	"21267"	"일격의 Ring"	"1"	"0"	"50000000"	"-1"
"8000022"	"4"	"21267"	"일격의 Ring"	"1"	"0"	"50000000"	"-1"
"8000022"	"3"	"420008"	"마왕의 Ring"	"1"	"0"	"50000000"	"-1"
"8000022"	"2"	"420008"	"마왕의 Ring"	"1"	"0"	"50000000"	"-1"
"8000022"	"1"	"420009"	"기백의 Ring"	"1"	"0"	"50000000"	"-1"
"8000022"	"0"	"420009"	"기백의 Ring"	"1"	"0"	"50000000"	"-1"
"8000023"	"5"	"21267"	"일격의 Ring"	"1"	"0"	"50000000"	"-1"
"8000023"	"4"	"21267"	"일격의 Ring"	"1"	"0"	"50000000"	"-1"
"8000023"	"3"	"420008"	"마왕의 Ring"	"1"	"0"	"50000000"	"-1"
"8000023"	"2"	"420008"	"마왕의 Ring"	"1"	"0"	"50000000"	"-1"
"8000023"	"1"	"420009"	"기백의 Ring"	"1"	"0"	"50000000"	"-1"
"8000023"	"0"	"420009"	"기백의 Ring"	"1"	"0"	"50000000"	"-1"
"8000025"	"1"	"20187"	"5파글"	"1"	"5"	"2300000"	"-1"
"8000025"	"2"	"20187"	"5파글"	"1"	"5"	"2300000"	"-1"
"8000028"	"0"	"20164"	"6그장"	"1"	"6"	"210000"	"-1"
"8000028"	"1"	"20164"	"6그장"	"1"	"6"	"210000"	"-1"
"8000028"	"3"	"20004"	"6그가"	"1"	"6"	"212500"	"-1"
"8000028"	"5"	"20195"	"5그부"	"1"	"5"	"550000"	"-1"
"8000031"	"0"	"120056"	"5마망"	"1"	"5"	"410000"	"-1"
"8000031"	"1"	"120056"	"5마망"	"1"	"5"	"410000"	"-1"
"8000031"	"2"	"120011"	"5마투"	"1"	"5"	"450000"	"-1"
"8000031"	"3"	"20195"	"5티"	"1"	"5"	"670000"	"-1"
"8000031"	"4"	"20195"	"5티"	"1"	"5"	"670000"	"-1"
"8000031"	"5"	"20194"	"5강부"	"1"	"5"	"650000"	"-1"
"8000034"	"5"	"40091"	"Blank Scroll"	"1000"	"0"	"12500"	"-1"
"8000034"	"4"	"40090"	"Blank Scroll"	"900"	"0"	"12000"	"-1"
"8000036"	"0"	"8020"	"환생의 보석"	"900"	"0"	"500000"	"-1"
"8000061"	"3"	"420007"	"테벨"	"1"	"5"	"5000000"	"-1"
"8000061"	"2"	"420007"	"테벨"	"1"	"5"	"5000000"	"-1"
"8000013"	"2"	"500022"	"어두운 하딘의 Journal Page"	"1"	"0"	"3155000"	"-1"
"8000012"	"4"	"120011"	"5마투"	"1"	"5"	"449000"	"-1"
"8000006"	"1"	"600248"	"아르카의 Magic Doll"	"67"	"0"	"1000000"	"-1"
"8000003"	"0"	"76"	"Edoryu of Ronde"	"1"	"7"	"50000000"	"-1"
"8000017"	"0"	"162"	"Black Claw"	"1"	"7"	"1675000"	"-1"
"8000016"	"0"	"40074"	"Enchant Armor Scroll"	"5"	"0"	"41500"	"-1"
"8000005"	"5"	"120011"	"Helmet of Magic Resistance"	"1"	"4"	"163000"	"-1"
"8000016"	"5"	"120011"	"Helmet of Magic Resistance"	"1"	"4"	"164500"	"-1"
"8000029"	"1"	"20164"	"7그장"	"1"	"7"	"550000"	"-1"
"8000029"	"3"	"20004"	"7그가"	"1"	"7"	"580000"	"-1"
"8000029"	"4"	"20195"	"5그부"	"1"	"5"	"580000"	"-1"
"8000029"	"5"	"20195"	"5그부"	"1"	"5"	"580000"	"-1"
"8000032"	"0"	"120056"	"5마망"	"1"	"5"	"409000"	"-1"
"8000032"	"1"	"120056"	"5마망"	"1"	"5"	"409000"	"-1"
"8000032"	"2"	"120011"	"5마투"	"1"	"5"	"449000"	"-1"
"8000032"	"3"	"120011"	"5마투"	"1"	"5"	"449000"	"-1"
"8000032"	"4"	"20194"	"5강부"	"1"	"5"	"650000"	"-1"
"8000032"	"5"	"20194"	"5강부"	"1"	"5"	"650000"	"-1"
"8000033"	"0"	"120056"	"5마망"	"1"	"5"	"410000"	"-1"
"8000033"	"1"	"120011"	"5마투"	"1"	"5"	"450000"	"-1"
"8000033"	"2"	"120011"	"5마투"	"1"	"5"	"450000"	"-1"
"8000033"	"3"	"20195"	"5티"	"1"	"5"	"670000"	"-1"
"8000033"	"4"	"20195"	"5티"	"1"	"5"	"670000"	"-1"
"8000033"	"5"	"20194"	"5강부"	"1"	"5"	"650000"	"-1"
"8000049"	"1"	"40398"	"Cimaera Leather"	"1000"	"0"	"20000"	"-1"
"8000030"	"0"	"120056"	"5마망"	"1"	"5"	"430000"	"-1"
"8000030"	"1"	"120056"	"5마망"	"1"	"5"	"430000"	"-1"
"8000030"	"2"	"120011"	"5마투"	"1"	"5"	"450000"	"-1"
"8000030"	"3"	"20195"	"5티"	"1"	"5"	"669000"	"-1"
"8000030"	"4"	"20195"	"5티"	"1"	"5"	"668000"	"-1"
"8000030"	"5"	"20194"	"5강부"	"1"	"5"	"650000"	"-1"
"8000051"	"0"	"40070"	"Evolution Fruit"	"2"	"0"	"450000"	"-1"
"8000051"	"1"	"40496"	"Rough Mithril"	"23"	"0"	"5000"	"-1"
"8000042"	"0"	"20033"	"Blessed of Elm"	"1"	"6"	"650000"	"-1"
"8000042"	"2"	"20033"	"Blessed of Elm"	"1"	"6"	"650000"	"-1"
"8000042"	"3"	"20191"	"Bracer"	"1"	"4"	"178000"	"-1"
"8000042"	"4"	"20191"	"Bracer"	"1"	"4"	"178000"	"-1"
"8000042"	"5"	"20191"	"Bracer"	"1"	"4"	"178000"	"-1"
"8000042"	"6"	"180"	"Crossbow"	"1"	"6"	"320000"	"-1"
"8000050"	"0"	"40362"	"Fafurion Heart"	"1"	"0"	"100000000"	"-1"
"8000050"	"1"	"40362"	"Fafurion Heart"	"1"	"0"	"100000000"	"-1"
"8000050"	"2"	"40362"	"Fafurion Heart"	"1"	"0"	"100000000"	"-1"
"8000050"	"3"	"40362"	"Fafurion Heart"	"1"	"0"	"100000000"	"-1"
"8000050"	"4"	"40362"	"Fafurion Heart"	"1"	"0"	"100000000"	"-1"
"8000052"	"1"	"40441"	"백금 원석 조각"	"55"	"0"	"15000"	"-1"
"8000051"	"2"	"40498"	"Wind Tears"	"15"	"0"	"48000"	"-1"
"8000051"	"3"	"40519"	"Pan's Mane"	"400"	"0"	"1500"	"-1"
"8000066"	"0"	"40087"	"Enchant Weapon Scroll"	"16"	"0"	"45000"	"-1"
"8000066"	"1"	"140087"	"Enchant Weapon Scroll"	"100"	"0"	"1200000"	"-1"
"8000052"	"0"	"40489"	"황금 원석 조각"	"23"	"0"	"68000"	"-1"
"8000052"	"2"	"40468"	"Silver 원석 조각"	"23"	"0"	"6500"	"-1"
"8000053"	"0"	"40491"	"Griffon Feather"	"5"	"0"	"550000"	"-1"
"8000059"	"1"	"40048"	"High Quality Diamond"	"500"	"0"	"35000"	"-1"
"8000060"	"0"	"40055"	"Highest Quality Emerald"	"1000"	"0"	"100000"	"-1"
"8000054"	"0"	"41246"	"Crystal"	"9999"	"0"	"7"	"-1"
"8000054"	"1"	"41246"	"Crystal"	"9999"	"0"	"7"	"-1"
"8000054"	"2"	"41246"	"Crystal"	"9999"	"0"	"7"	"-1"
"8000054"	"3"	"41246"	"Crystal"	"9999"	"0"	"7"	"-1"
"8000054"	"4"	"41246"	"Crystal"	"9999"	"0"	"7"	"-1"
"8000054"	"5"	"41246"	"Crystal"	"9999"	"0"	"7"	"-1"
"8000054"	"6"	"41246"	"Crystal"	"9999"	"0"	"7"	"-1"
"8000056"	"0"	"40444"	"Black Lump of Rough Mithril"	"65"	"0"	"550"	"-1"
"8000056"	"1"	"40496"	"Rough Mithril"	"55"	"0"	"1200"	"-1"
"8000056"	"2"	"40494"	"Pure Mithril"	"40"	"0"	"50"	"-1"
"8000056"	"3"	"40508"	"Oriharukon"	"35"	"0"	"550"	"-1"
"8000058"	"0"	"40047"	"Emerald"	"500"	"0"	"12000"	"-1"
"8000058"	"1"	"40046"	"Sapphire"	"500"	"0"	"12000"	"-1"
"8000058"	"2"	"40045"	"Ruby"	"10"	"0"	"12000"	"-1"
"8000058"	"3"	"40044"	"Diamond"	"500"	"0"	"12000"	"-1"
"8000059"	"4"	"40051"	"High Quality Emerald"	"500"	"0"	"35000"	"-1"
"8000059"	"5"	"40050"	"High Quality Sapphire"	"500"	"0"	"35000"	"-1"
"8000059"	"0"	"40049"	"High Quality Ruby"	"500"	"0"	"35000"	"-1"
"8000066"	"2"	"240087"	"Enchant Weapon Scroll"	"100"	"0"	"450000"	"-1"
"8000066"	"4"	"140074"	"Enchant Armor Scroll"	"100"	"0"	"1000000"	"-1"
"8000066"	"5"	"240074"	"Enchant Armor Scroll"	"100"	"0"	"400000"	"-1"
"8000065"	"0"	"60123"	"오림의 Journal Page"	"1"	"0"	"980000"	"-1"
"8000065"	"1"	"60123"	"오림의 Journal Page"	"1"	"0"	"980000"	"-1"
"8000065"	"2"	"60123"	"오림의 Journal Page"	"1"	"0"	"980000"	"-1"
"8000065"	"3"	"60123"	"오림의 Journal Page"	"1"	"0"	"980000"	"-1"
"8000062"	"0"	"20264"	"Amulet of Strength"	"1"	"0"	"100000"	"-1"
"8000062"	"2"	"20256"	"Amulet of Dexterity"	"1"	"0"	"100000"	"-1"
"8000062"	"4"	"20266"	"Amulet of Intelligence"	"1"	"0"	"100000"	"-1"
"8000067"	"0"	"40087"	"Enchant Weapon Scroll"	"6"	"0"	"45000"	"-1"
"8000067"	"1"	"140130"	"Enchant Weapon Scroll"	"100"	"0"	"1200000"	"-1"
"8000067"	"2"	"240087"	"Enchant Weapon Scroll"	"100"	"0"	"450000"	"-1"
"8000067"	"4"	"140074"	"Enchant Armor Scroll"	"100"	"0"	"1000000"	"-1"
"8000067"	"5"	"240074"	"Enchant Armor Scroll"	"100"	"0"	"400000"	"-1"
"8000068"	"0"	"40087"	"Enchant Weapon Scroll"	"500"	"0"	"45000"	"-1"
"8000068"	"1"	"140130"	"Enchant Weapon Scroll"	"100"	"0"	"1200000"	"-1"
"8000068"	"2"	"240087"	"Enchant Weapon Scroll"	"100"	"0"	"450000"	"-1"
"8000014"	"6"	"140074"	"Enchant Armor Scroll"	"100"	"0"	"1000000"	"-1"
"8000068"	"4"	"140074"	"Enchant Armor Scroll"	"100"	"0"	"1000000"	"-1"
"8000068"	"5"	"240074"	"Enchant Armor Scroll"	"100"	"0"	"400000"	"-1"
"8000069"	"0"	"140074"	"Enchant Armor Scroll"	"100"	"0"	"1000000"	"-1"
"8000069"	"1"	"140087"	"Enchant Weapon Scroll"	"100"	"0"	"1200000"	"-1"
"8000070"	"0"	"74"	"Silver Edoryu"	"1"	"7"	"1250000"	"-1"
"8000070"	"3"	"157"	"Silver Claw"	"1"	"7"	"1250000"	"-1"
"8000076"	"0"	"177"	"Black Bow"	"1"	"7"	"885000"	"-1"
"8000076"	"1"	"177"	"Black Bow"	"1"	"7"	"885000"	"-1"
"8000078"	"0"	"410004"	"Obsidian Kiringku"	"1"	"7"	"1250000"	"-1"
"8000078"	"1"	"410004"	"Obsidian Kiringku"	"1"	"7"	"1250000"	"-1"
"8000078"	"2"	"410004"	"Obsidian Kiringku"	"1"	"7"	"1250000"	"-1"
"8000061"	"0"	"20321"	"Troll Belt"	"1"	"0"	"295000"	"-1"
"8000061"	"1"	"20321"	"Troll Belt"	"1"	"0"	"280000"	"-1"
"8000079"	"0"	"40170"	"Magic Book (Fireball)"	"1"	"0"	"10000"	"-1"
"8000079"	"1"	"40171"	"Magic Book (Enchant: DEX)"	"1"	"0"	"10000"	"-1"
"8000079"	"2"	"40172"	"Magic Book (Weapon Break)"	"1"	"0"	"10000"	"-1"
"8000079"	"3"	"40173"	"Magic Book (Vampire Touch)"	"1"	"0"	"10000"	"-1"
"8000079"	"4"	"40174"	"Magic Book (Slow)"	"1"	"0"	"10000"	"-1"
"8000079"	"5"	"40175"	"Magic Book (카운터매직)"	"1"	"0"	"10000"	"-1"
"8000080"	"0"	"40176"	"Magic Book (Meditation)"	"1"	"0"	"10000"	"-1"
"8000080"	"1"	"40177"	"Magic Book (어스재일)"	"1"	"0"	"10000"	"-1"
"8000080"	"2"	"40178"	"Magic Book (Curse: Paralyze)"	"1"	"0"	"10000"	"-1"
"8000080"	"3"	"40179"	"Magic Book (Call Lighting)"	"1"	"0"	"10000"	"-1"
"8000080"	"4"	"40180"	"Magic Book (Greater Heal)"	"1"	"0"	"10000"	"-1"
"8000080"	"5"	"40181"	"Magic Book (Tame Monster)"	"1"	"0"	"10000"	"-1"
"8000081"	"0"	"40182"	"Magic Book (Remove Curse)"	"1"	"0"	"10000"	"-1"
"8000081"	"1"	"40183"	"Magic Book (Cone of Cold)"	"1"	"0"	"15000"	"-1"
"8000081"	"2"	"40184"	"Magic Book (Mana Drain)"	"1"	"0"	"10000"	"-1"
"8000081"	"3"	"40185"	"Magic Book (Darkness)"	"1"	"0"	"10000"	"-1"
"8000081"	"4"	"40186"	"Magic Book (Create Zombie)"	"1"	"0"	"10000"	"-1"
"8000081"	"5"	"40187"	"Magic Book (Enchant: STR)"	"1"	"0"	"20000"	"-1"
"8000082"	"0"	"40188"	"Magic Book (Haste)"	"1"	"0"	"20000"	"-1"
"8000082"	"1"	"40189"	"Magic Book (Cancel)"	"1"	"0"	"1000000"	"-1"
"8000082"	"2"	"40190"	"Magic Book (Eruption)"	"1"	"0"	"30000"	"-1"
"8000082"	"3"	"40191"	"Magic Book (Sunburst)"	"1"	"0"	"30000"	"-1"
"8000082"	"4"	"40192"	"Magic Book (Weakness)"	"1"	"0"	"10000"	"-1"
"8000082"	"5"	"40193"	"Magic Book (Bless Weapon)"	"1"	"0"	"10000"	"-1"
"8000083"	"0"	"40232"	"Spirit Crystal (Resist Magic)"	"1"	"0"	"10000"	"-1"
"8000083"	"1"	"40233"	"Spirit Crystal (Body to Mind)"	"1"	"0"	"10000"	"-1"
"8000083"	"2"	"40234"	"Spirit Crystal (Teleport to Mother)"	"1"	"0"	"10000"	"-1"
"8000083"	"3"	"40235"	"Spirit Crystal (Clear Mind)"	"1"	"0"	"10000"	"-1"
"8000083"	"4"	"40236"	"Spirit Crystal (Resist Element)"	"1"	"0"	"10000"	"-1"
"8000084"	"0"	"40237"	"Spirit Crystal (리턴 투 네이처)"	"1"	"0"	"10000"	"-1"
"8000084"	"1"	"40240"	"Spirit Crystal (Body to Mind)"	"1"	"0"	"10000"	"-1"
"8000084"	"2"	"40241"	"Spirit Crystal (Elemental Falldown)"	"1"	"0"	"10000"	"-1"
"8000084"	"3"	"40242"	"Spirit Crystal (Erase Magic)"	"1"	"0"	"50000"	"-1"
"8000085"	"0"	"439000"	"Memory Crystal(Mirror Image)"	"1"	"0"	"10000"	"-1"
"8000085"	"1"	"439001"	"Memory Crystal(Confusion)"	"1"	"0"	"10000"	"-1"
"8000085"	"2"	"439002"	"Memory Crystal(Smash Energy)"	"1"	"0"	"10000"	"-1"
"8000085"	"3"	"439003"	"Memory Crystal(Illusion:오거)"	"1"	"0"	"10000"	"-1"
"8000085"	"4"	"439004"	"Memory Crystal(큐브:이그니션)"	"1"	"0"	"10000"	"-1"
"8000086"	"0"	"439005"	"Memory Crystal(Concentration)"	"1"	"0"	"10000"	"-1"
"8000086"	"1"	"439006"	"Memory Crystal(마인트 브레이크)"	"1"	"0"	"10000"	"-1"
"8000086"	"2"	"439007"	"Memory Crystal(Bone Break)"	"1"	"0"	"10000"	"-1"
"8000086"	"3"	"439008"	"Memory Crystal(Illusion: Lich)"	"1"	"0"	"10000"	"-1"
"8000086"	"4"	"439009"	"Memory Crystal(큐브:퀘이크)"	"1"	"0"	"10000"	"-1"
"8000087"	"0"	"439010"	"Memory Crystal(Patience)"	"1"	"0"	"10000"	"-1"
"8000087"	"1"	"439011"	"Memory Crystal(Phantasm)"	"1"	"0"	"10000"	"-1"
"8000087"	"2"	"439012"	"Memory Crystal(Eye Breaker)"	"1"	"0"	"10000"	"-1"
"8000087"	"3"	"439013"	"Memory Crystal(Illusion:Diamond Golem)"	"1"	"0"	"10000"	"-1"
"8000087"	"4"	"439014"	"Memory Crystal(큐브:쇼크)"	"1"	"0"	"10000"	"-1"
"8000088"	"0"	"439015"	"Memory Crystal(Insight)"	"1"	"0"	"10000"	"-1"
"8000088"	"1"	"439016"	"Memory Crystal(Panic)"	"1"	"0"	"10000"	"-1"
"8000088"	"2"	"439017"	"Memory Crystal(Reduce Weight)"	"1"	"0"	"10000"	"-1"
"8000088"	"3"	"439018"	"Memory Crystal(Illusion: Avatar)"	"1"	"0"	"10000"	"-1"
"8000088"	"4"	"439019"	"Memory Crystal(큐브:밸런스)"	"1"	"0"	"10000"	"-1"
"8000089"	"0"	"40164"	"Tech Book (Shock Stun)"	"1"	"0"	"180000"	"-1"
"8000089"	"1"	"40165"	"Tech Book (Reduction Armor)"	"1"	"0"	"200000"	"-1"
"8000090"	"0"	"439100"	"용Knight의 서판(Dragon Skin)"	"1"	"0"	"10000"	"-1"
"8000090"	"1"	"439101"	"용Knight의 서판(Burning Slash)"	"1"	"0"	"10000"	"-1"
"8000090"	"2"	"439102"	"용Knight의 서판(Guard 브레이크)"	"1"	"0"	"10000"	"-1"
"8000090"	"3"	"439103"	"용Knight의 서판(Magma Breath)"	"1"	"0"	"10000"	"-1"
"8000090"	"4"	"439104"	"용Knight의 서판(Awakening[Antharas])"	"1"	"0"	"10000"	"-1"
"8000091"	"0"	"439105"	"용Knight의 서판(Blood Lust)"	"1"	"0"	"10000"	"-1"
"8000091"	"1"	"439106"	"용Knight의 서판(Foe Slayer)"	"1"	"0"	"10000"	"-1"
"8000091"	"2"	"439107"	"용Knight의 서판(피어)"	"1"	"0"	"10000"	"-1"
"8000091"	"3"	"439108"	"용Knight의 서판(Magma Arrow)"	"1"	"0"	"10000"	"-1"
"8000091"	"4"	"439109"	"용Knight의 서판(Awakening[Fafurion])"	"1"	"0"	"10000"	"-1"
"8000092"	"0"	"439110"	"용Knight의 서판(Mortal Body)"	"1"	"0"	"50000"	"-1"
"8000092"	"1"	"439111"	"용Knight의 서판(Thunder Grab)"	"1"	"0"	"200000"	"-1"
"8000092"	"2"	"439112"	"용Knight의 서판(호러 오브 Death)"	"1"	"0"	"10000"	"-1"
"8000092"	"3"	"439113"	"용Knight의 서판(Eye of Dragon)"	"1"	"0"	"10000"	"-1"
"8000092"	"4"	"439114"	"용Knight의 서판(Awakening[Valakas])"	"1"	"0"	"10000"	"-1"
"8000093"	"0"	"40226"	"Magic Book (True Target)"	"1"	"0"	"50000"	"-1"
"8000093"	"1"	"40227"	"Magic Book (Glowing Weapon)"	"1"	"0"	"50000"	"-1"
"8000093"	"3"	"40229"	"Magic Book (Shining Shield)"	"1"	"0"	"50000"	"-1"
"8000093"	"4"	"40230"	"Magic Book (Brave Aura)"	"1"	"0"	"50000"	"-1"
"8000094"	"0"	"40265"	"Dark Spirit Crystal (Blind Hiding)"	"1"	"0"	"20000"	"-1"
"8000094"	"1"	"40266"	"Dark Spirit Crystal (Enchant Venom)"	"1"	"0"	"20000"	"-1"
"8000094"	"2"	"40267"	"Dark Spirit Crystal (Shadow Armor)"	"1"	"0"	"20000"	"-1"
"8000094"	"3"	"40269"	"Dark Spirit Crystal (Dress Mighty)"	"1"	"0"	"20000"	"-1"
"8000095"	"0"	"40271"	"Dark Spirit Crystal (Burning Spirit)"	"1"	"0"	"30000"	"-1"
"8000095"	"1"	"40272"	"Dark Spirit Crystal (Shadow Sleep)"	"1"	"0"	"10000"	"-1"
"8000095"	"2"	"40273"	"Dark Spirit Crystal (Venom Resist)"	"1"	"0"	"10000"	"-1"
"8000095"	"3"	"40274"	"Dark Spirit Crystal (Dress Dexterity)"	"1"	"0"	"30000"	"-1"
"8000038"	"5"	"500022"	"어두운 하딘의 Journal Page"	"1"	"0"	"3133000"	"-1"
"8000066"	"3"	"40074"	"Enchant Armor Scroll"	"9"	"0"	"42000"	"-1"
"8000067"	"3"	"40074"	"Enchant Armor Scroll"	"5"	"0"	"39900"	"-1"
"8000068"	"3"	"40074"	"Enchant Armor Scroll"	"11"	"0"	"41200"	"-1"
"8000012"	"5"	"120011"	"5마투"	"1"	"5"	"449000"	"-1"
"8000034"	"6"	"7247"	"전사단의 Helmet"	"1"	"4"	"175000"	"-1"
"8000002"	"1"	"40370"	"Lindvior Heart"	"1"	"0"	"100000000"	"-1"
"8000004"	"0"	"6001"	"냉한의 Kiringku"	"1"	"7"	"50000000"	"-1"
"8000061"	"4"	"420007"	"테벨"	"1"	"5"	"5000000"	"-1"
"8000073"	"0"	"20092"	"Ancient Leather Armor"	"1"	"0"	"2000000"	"-1"
"8000073"	"1"	"20093"	"Ancient Robe"	"1"	"0"	"2000000"	"-1"
"8000073"	"2"	"20094"	"Ancient Scale갑옷"	"1"	"0"	"2000000"	"-1"
"8000073"	"3"	"20095"	"Ancient 판금갑옷"	"1"	"0"	"2000000"	"-1"
"8000064"	"0"	"7225"	"혈풍의 Axe"	"1"	"7"	"35000000"	"-1"
"8000073"	"4"	"20092"	"Ancient Leather Armor"	"1"	"0"	"2000000"	"-1"
"8000073"	"5"	"20093"	"Ancient Robe"	"1"	"0"	"2000000"	"-1"
"8000073"	"6"	"20094"	"Ancient Scale갑옷"	"1"	"0"	"2000000"	"-1"
"8000073"	"7"	"20095"	"Ancient 판금갑옷"	"1"	"0"	"2000000"	"-1"
"8000064"	"1"	"7225"	"혈풍의 Axe"	"1"	"7"	"35000000"	"-1"
"8000064"	"3"	"262"	"블러드서커"	"1"	"7"	"35000000"	"-1"
"8000064"	"4"	"262"	"블러드서커"	"1"	"7"	"35000000"	"-1"
"8000064"	"6"	"203025"	"진싸울아비대검"	"1"	"7"	"35000000"	"-1"
"8000064"	"7"	"203025"	"진싸울아비대검"	"1"	"7"	"35000000"	"-1"
"8000071"	"0"	"84"	"Kaiser Edoryu"	"1"	"7"	"35000000"	"-1"
"8000071"	"1"	"84"	"Kaiser Edoryu"	"1"	"7"	"35000000"	"-1"
"8000071"	"2"	"164"	"Kaiser Claw"	"1"	"7"	"35000000"	"-1"
"8000071"	"3"	"164"	"Kaiser Claw"	"1"	"7"	"35000000"	"-1"
"8000071"	"4"	"189"	"Kaiser Crossbow"	"1"	"7"	"35000000"	"-1"
"8000071"	"5"	"189"	"Kaiser Crossbow"	"1"	"7"	"35000000"	"-1"
"8000072"	"0"	"291"	"제로스의 Quarterstaff"	"1"	"7"	"70000000"	"-1"
"8000072"	"1"	"291"	"제로스의 Quarterstaff"	"1"	"7"	"70000000"	"-1"
"8000072"	"2"	"291"	"제로스의 Quarterstaff"	"1"	"7"	"70000000"	"-1"
"8000072"	"4"	"291"	"제로스의 Quarterstaff"	"1"	"7"	"70000000"	"-1"
"8000072"	"5"	"291"	"제로스의 Quarterstaff"	"1"	"7"	"70000000"	"-1"
"8000072"	"6"	"291"	"제로스의 Quarterstaff"	"1"	"7"	"70000000"	"-1"
"8000072"	"7"	"291"	"제로스의 Quarterstaff"	"1"	"7"	"70000000"	"-1"
"8000097"	"0"	"90084"	"섬멸자의체인소드"	"1"	"7"	"70000000"	"-1"
"8000063"	"0"	"6003"	"극한의 Helmet"	"1"	"5"	"10000000"	"-1"
"8000063"	"1"	"6003"	"극한의 Helmet"	"1"	"7"	"30000000"	"-1"
"8000063"	"3"	"6004"	"극한의 Armor"	"1"	"5"	"10000000"	"-1"
"8000063"	"4"	"6004"	"극한의 Armor"	"1"	"7"	"30000000"	"-1"
"8000097"	"1"	"90084"	"섬멸자의체인소드"	"1"	"7"	"70000000"	"-1"
"8000063"	"6"	"6005"	"극한의 Boots"	"1"	"5"	"10000000"	"-1"
"8000063"	"7"	"6005"	"극한의 Boots"	"1"	"7"	"30000000"	"-1"
"8000097"	"2"	"90084"	"섬멸자의체인소드"	"1"	"7"	"70000000"	"-1"
"8000097"	"3"	"90084"	"섬멸자의체인소드"	"1"	"7"	"70000000"	"-1"
"8000075"	"0"	"30219"	"Stone Gloves"	"1"	"5"	"3000000"	"-1"
"8000075"	"1"	"30219"	"Stone Gloves"	"1"	"7"	"15000000"	"-1"
"8000075"	"3"	"7245"	"마력의 Gloves"	"1"	"5"	"3500000"	"-1"
"8000075"	"4"	"7245"	"마력의 Gloves"	"1"	"7"	"10000000"	"-1"
"8000077"	"0"	"21259"	"완력의 Boots"	"1"	"5"	"10000000"	"-1"
"8000077"	"1"	"21259"	"완력의 Boots"	"1"	"7"	"30000000"	"-1"
"8000077"	"2"	"21265"	"Dexterity Boots"	"1"	"5"	"10000000"	"-1"
"8000077"	"3"	"21265"	"Dexterity Boots"	"1"	"7"	"30000000"	"-1"
"8000077"	"4"	"21266"	"지식의 Boots"	"1"	"5"	"10000000"	"-1"
"8000077"	"5"	"21266"	"지식의 Boots"	"1"	"7"	"30000000"	"-1"
"8000039"	"5"	"21267"	"일격의 Ring"	"1"	"0"	"50000000"	"-1"
"8000039"	"4"	"21267"	"일격의 Ring"	"1"	"0"	"50000000"	"-1"
"8000039"	"3"	"420008"	"마왕의 Ring"	"1"	"0"	"50000000"	"-1"
"8000039"	"2"	"420008"	"마왕의 Ring"	"1"	"0"	"50000000"	"-1"
"8000027"	"0"	"500203"	"Mummy Lord"	"1"	"0"	"10000000"	"-1"
"8000027"	"1"	"500204"	"Magic Doll Lich"	"1"	"0"	"10000000"	"-1"
"8000027"	"2"	"500205"	"Magic Doll Seer"	"1"	"0"	"10000000"	"-1"
"8000027"	"3"	"60324"	"Magic Doll 나발"	"1"	"0"	"10000000"	"-1"
"8000027"	"4"	"500110"	"Magic Doll 사이"	"1"	"0"	"10000000"	"-1"
"8000027"	"5"	"600243"	"Magic Doll Iris"	"1"	"0"	"10000000"	"-1"
"8000011"	"0"	"450022"	"신묘한장검"	"1"	"7"	"35000000"	"-1"
"8000011"	"1"	"450022"	"신묘한장검"	"1"	"7"	"35000000"	"-1"
"8000011"	"3"	"450025"	"신묘한장궁"	"1"	"7"	"35000000"	"-1"
"8000011"	"4"	"450025"	"신묘한장궁"	"1"	"7"	"35000000"	"-1"
"8000011"	"6"	"90101"	"은날의대검"	"1"	"0"	"2200000"	"-1"
"8000011"	"7"	"90101"	"은날의대검"	"1"	"0"	"2200000"	"-1"
"8000011"	"8"	"90101"	"은날의대검"	"1"	"0"	"2200000"	"-1"
"8000039"	"1"	"420009"	"기백의 Ring"	"1"	"0"	"50000000"	"-1"
"8000039"	"0"	"420009"	"기백의 Ring"	"1"	"0"	"50000000"	"-1"
"8000013"	"1"	"66755"	"오림의 수정구"	"1"	"0"	"10000000"	"-1"
"8000013"	"0"	"66756"	"하딘의 수정구"	"1"	"0"	"10000000"	"-1"
"8000013"	"3"	"66756"	"하딘의 수정구"	"1"	"0"	"10000000"	"-1"
"8000013"	"4"	"66755"	"오림의수정구"	"1"	"0"	"10000000"	"-1"
"8000038"	"0"	"66755"	"오림의 수정구"	"1"	"0"	"10000000"	"-1"
"8000038"	"2"	"66755"	"오림의 수정구"	"1"	"0"	"10000000"	"-1"
"8000038"	"3"	"66756"	"하딘의 수정구"	"1"	"0"	"10000000"	"-1"
"8000038"	"4"	"66756"	"하딘의 수정구"	"1"	"0"	"10000000"	"-1"
"8000037"	"1"	"66755"	"오림의 수정구"	"1"	"0"	"10000000"	"-1"
"8000037"	"2"	"66755"	"오림의 수정구"	"1"	"0"	"10000000"	"-1"
"8000037"	"3"	"66756"	"하딘의 수정구"	"1"	"0"	"10000000"	"-1"
"8000037"	"4"	"66756"	"하딘의 수정구"	"1"	"0"	"10000000"	"-1"
"8000008"	"0"	"293"	"악몽의장궁"	"1"	"7"	"70000000"	"-1"
"8000008"	"1"	"293"	"악몽의장궁"	"1"	"7"	"70000000"	"-1"
"8000008"	"2"	"293"	"악몽의장궁"	"1"	"7"	"70000000"	"-1"
"8000008"	"3"	"293"	"악몽의장궁"	"1"	"7"	"70000000"	"-1"
"8000008"	"4"	"293"	"악몽의장궁"	"1"	"7"	"70000000"	"-1"
"8000008"	"5"	"293"	"악몽의장궁"	"1"	"7"	"70000000"	"-1"
"8000008"	"6"	"293"	"악몽의장궁"	"1"	"7"	"70000000"	"-1"
"8000008"	"7"	"293"	"악몽의장궁"	"1"	"7"	"70000000"	"-1"
"8000009"	"0"	"90083"	"표효의이도류"	"1"	"7"	"70000000"	"-1"
"8000009"	"1"	"90083"	"표효의이도류"	"1"	"7"	"70000000"	"-1"
"8000009"	"2"	"90083"	"표효의이도류"	"1"	"7"	"70000000"	"-1"
"8000009"	"3"	"90083"	"표효의이도류"	"1"	"7"	"70000000"	"-1"
"8000009"	"4"	"90083"	"표효의이도류"	"1"	"7"	"70000000"	"-1"
"8000009"	"5"	"90083"	"표효의이도류"	"1"	"7"	"70000000"	"-1"
"8000009"	"6"	"90083"	"표효의이도류"	"1"	"7"	"70000000"	"-1"
"8000009"	"7"	"90083"	"표효의이도류"	"1"	"7"	"70000000"	"-1"
"8000010"	"0"	"59"	"Knight Vald Two-handed Sword"	"1"	"7"	"70000000"	"-1"
"8000010"	"1"	"59"	"Knight Vald Two-handed Sword"	"1"	"7"	"70000000"	"-1"
"8000010"	"2"	"59"	"Knight Vald Two-handed Sword"	"1"	"7"	"70000000"	"-1"
"8000010"	"3"	"59"	"Knight Vald Two-handed Sword"	"1"	"7"	"70000000"	"-1"
"8000010"	"4"	"59"	"Knight Vald Two-handed Sword"	"1"	"7"	"70000000"	"-1"
"8000010"	"5"	"59"	"Knight Vald Two-handed Sword"	"1"	"7"	"70000000"	"-1"
"8000026"	"0"	"40346"	"Antharas Heart"	"1"	"0"	"50000000"	"-1"
"8000026"	"1"	"40346"	"Antharas Heart"	"1"	"0"	"50000000"	"-1"
"8000026"	"2"	"40346"	"Antharas Heart"	"1"	"0"	"50000000"	"-1"
"8000026"	"3"	"40346"	"Antharas Heart"	"1"	"0"	"50000000"	"-1"
"8000026"	"4"	"40346"	"Antharas Heart"	"1"	"0"	"50000000"	"-1"
"8000026"	"5"	"40346"	"Antharas Heart"	"1"	"0"	"50000000"	"-1"
"8000026"	"6"	"40346"	"Antharas Heart"	"1"	"0"	"50000000"	"-1"
"8000026"	"7"	"40346"	"Antharas Heart"	"1"	"0"	"50000000"	"-1"
"8000096"	"0"	"7227"	"태풍의 Axe"	"1"	"7"	"70000000"	"-1"
"8000096"	"1"	"7227"	"태풍의 Axe"	"1"	"7"	"70000000"	"-1"
"8000096"	"2"	"7227"	"태풍의 Axe"	"1"	"7"	"70000000"	"-1"
"8000096"	"3"	"7227"	"태풍의 Axe"	"1"	"7"	"70000000"	"-1"
"8000096"	"4"	"7227"	"태풍의 Axe"	"1"	"7"	"70000000"	"-1"
"8000096"	"5"	"7227"	"태풍의 Axe"	"1"	"7"	"70000000"	"-1"
"8000096"	"6"	"7227"	"태풍의 Axe"	"1"	"7"	"70000000"	"-1"
"8000096"	"7"	"7227"	"태풍의 Axe"	"1"	"7"	"70000000"	"-1"
"8000010"	"6"	"59"	"Knight Vald Two-handed Sword"	"1"	"7"	"70000000"	"-1"
"8000010"	"7"	"59"	"Knight Vald Two-handed Sword"	"1"	"7"	"70000000"	"-1"
"8000097"	"4"	"90084"	"섬멸자의체인소드"	"1"	"7"	"70000000"	"-1"
"8000097"	"5"	"90084"	"섬멸자의체인소드"	"1"	"7"	"70000000"	"-1"
"8000097"	"7"	"90084"	"섬멸자의체인소드"	"1"	"7"	"70000000"	"-1"
"8000097"	"6"	"90084"	"섬멸자의체인소드"	"1"	"7"	"70000000"	"-1"
"8000098"	"0"	"7238"	"살기의 Kiringku"	"1"	"7"	"70000000"	"-1"
"8000098"	"1"	"7238"	"살기의 Kiringku"	"1"	"7"	"70000000"	"-1"
"8000098"	"2"	"7238"	"살기의 Kiringku"	"1"	"7"	"70000000"	"-1"
"8000098"	"3"	"7238"	"살기의 Kiringku"	"1"	"7"	"70000000"	"-1"
"8000099"	"0"	"40393"	"화룡 Scale"	"1000"	"0"	"1500000"	"-1"
"8000099"	"1"	"40394"	"풍룡 Scale"	"1000"	"0"	"1500000"	"-1"
"8000099"	"2"	"40395"	"지룡Scale"	"1000"	"0"	"1500000"	"-1"
"8000099"	"3"	"40396"	"수룡Scale"	"1000"	"0"	"1500000"	"-1"
"8000099"	"4"	"40324"	"Kaiser Stone"	"1000"	"0"	"1350000"	"-1"
"8000099"	"5"	"40444"	"블랙미스릴원석"	"1000"	"0"	"2500"	"-1"
"8000099"	"6"	"40442"	"Blob Gastric Juice"	"1000"	"0"	"150000"	"-1"
"8000099"	"7"	"40524"	"Black Blood Stone"	"1000"	"0"	"100000"	"-1"
"8000100"	"0"	"40306"	"Relic of Eva"	"1000"	"0"	"10000"	"-1"
"8000100"	"1"	"40304"	"Relic of Maphr"	"1000"	"0"	"10000"	"-1"
"8000100"	"2"	"40305"	"파아그리오의유산"	"1000"	"0"	"10000"	"-1"
"8000100"	"3"	"40307"	"Relic of Sayha"	"1000"	"0"	"10000"	"-1"
"8000100"	"4"	"40410"	"Black Ent Bark"	"1000"	"0"	"25000"	"-1"
"8000100"	"5"	"40521"	"Ala of Fairy"	"1000"	"0"	"35000"	"-1"
"8000100"	"6"	"40504"	"Ecdysis of Arachne"	"1000"	"0"	"45000"	"-1"
"8000100"	"7"	"40458"	"Shining Scale"	"1000"	"0"	"10000"	"-1"
"8000101"	"0"	"7244"	"마력의 실타래"	"1000"	"0"	"10000"	"-1"
"8000101"	"1"	"40503"	"Arachne's Web"	"1000"	"0"	"1000"	"-1"
"8000101"	"2"	"40495"	"미스릴실"	"1000"	"0"	"2200"	"-1"
"8000101"	"3"	"40508"	"Oriharukon"	"1000"	"0"	"3200"	"-1"
"8000101"	"4"	"40509"	"Oriharukon Plate"	"1000"	"0"	"480000"	"-1"
"8000101"	"5"	"40496"	"Rough Mithril"	"1000"	"0"	"5000"	"-1"
"8000101"	"6"	"40519"	"Pan's Mane"	"1000"	"0"	"1000"	"-1"
"8000101"	"7"	"40505"	"Bark of Ent"	"1000"	"0"	"5000"	"-1"
"8000049"	"4"	"149027"	"마Water 기운"	"1000"	"0"	"100000"	"-1"
"8000102"	"0"	"40393"	"화룡 Scale"	"1000"	"0"	"1500000"	"-1"
"8000102"	"1"	"40394"	"풍룡 Scale"	"1000"	"0"	"1500000"	"-1"
"8000102"	"2"	"40395"	"지룡Scale"	"1000"	"0"	"1500000"	"-1"
"8000102"	"3"	"40396"	"수룡Scale"	"1000"	"0"	"1500000"	"-1"
"8000102"	"4"	"40324"	"Kaiser Stone"	"1000"	"0"	"1350000"	"-1"
"8000102"	"5"	"40444"	"블랙미스릴원석"	"1000"	"0"	"2500"	"-1"
"8000102"	"6"	"40442"	"Blob Gastric Juice"	"1000"	"0"	"150000"	"-1"
"8000102"	"7"	"40524"	"Black Blood Stone"	"1000"	"0"	"100000"	"-1"
"8000103"	"0"	"40306"	"Relic of Eva"	"1000"	"0"	"10000"	"-1"
"8000103"	"1"	"40304"	"Relic of Maphr"	"1000"	"0"	"10000"	"-1"
"8000103"	"2"	"40305"	"파아그리오의유산"	"1000"	"0"	"10000"	"-1"
"8000103"	"3"	"40307"	"Relic of Sayha"	"1000"	"0"	"10000"	"-1"
"8000103"	"4"	"40410"	"Black Ent Bark"	"1000"	"0"	"25000"	"-1"
"8000103"	"5"	"40521"	"Ala of Fairy"	"1000"	"0"	"35000"	"-1"
"8000103"	"6"	"40504"	"Ecdysis of Arachne"	"1000"	"0"	"45000"	"-1"
"8000103"	"7"	"40458"	"Shining Scale"	"1000"	"0"	"10000"	"-1"
"8000104"	"0"	"7244"	"마력의 실타래"	"1000"	"0"	"10000"	"-1"
"8000104"	"1"	"40503"	"Arachne's Web"	"1000"	"0"	"1000"	"-1"
"8000104"	"2"	"40495"	"미스릴실"	"1000"	"0"	"2200"	"-1"
"8000104"	"3"	"40508"	"Oriharukon"	"1000"	"0"	"3200"	"-1"
"8000104"	"4"	"40509"	"Oriharukon Plate"	"1000"	"0"	"480000"	"-1"
"8000104"	"5"	"40496"	"Rough Mithril"	"1000"	"0"	"5000"	"-1"
"8000104"	"6"	"40519"	"Pan's Mane"	"1000"	"0"	"1000"	"-1"
"8000104"	"7"	"40505"	"Bark of Ent"	"1000"	"0"	"5000"	"-1"
"8000060"	"3"	"40054"	"Highest Quality Sapphire"	"1000"	"0"	"100000"	"-1"
"8000060"	"2"	"40053"	"Highest Quality Ruby"	"1000"	"0"	"100000"	"-1"
"8000060"	"1"	"40052"	"Highest Quality Diamond"	"1000"	"0"	"100000"	"-1"
"8000119"	"0"	"420011"	"Kukulkan's Mask"	"1"	"0"	"4800000"	"-1"
"8000119"	"1"	"420012"	"쿠쿨칸의방패"	"1"	"0"	"1800000"	"-1"
"8000119"	"2"	"415016"	"Kukulkan's Spear"	"1"	"0"	"3500000"	"-1"
"8000119"	"3"	"415010"	"테양"	"1"	"0"	"3500000"	"-1"
"8000119"	"4"	"415011"	"Thebes Osiris Edoryu"	"1"	"0"	"3500000"	"-1"
"8000119"	"5"	"415012"	"Thebes Osiris Bow"	"1"	"0"	"3500000"	"-1"
"8000119"	"6"	"415013"	"Staff of Thebes Osiris"	"1"	"0"	"3500000"	"-1"
"8000120"	"0"	"420011"	"Kukulkan's Mask"	"1"	"0"	"4800000"	"-1"
"8000120"	"1"	"420012"	"쿠쿨칸의방패"	"1"	"0"	"1800000"	"-1"
"8000120"	"2"	"415016"	"Kukulkan's Spear"	"1"	"0"	"3500000"	"-1"
"8000120"	"3"	"415010"	"테양"	"1"	"0"	"3500000"	"-1"
"8000120"	"4"	"415011"	"Thebes Osiris Edoryu"	"1"	"0"	"3500000"	"-1"
"8000120"	"5"	"415012"	"Thebes Osiris Bow"	"1"	"0"	"3500000"	"-1"
"8000120"	"6"	"415013"	"Staff of Thebes Osiris"	"1"	"0"	"3500000"	"-1"
"8000121"	"1"	"420011"	"Kukulkan's Mask"	"1"	"0"	"4800000"	"-1"
"8000121"	"2"	"420012"	"쿠쿨칸의방패"	"1"	"0"	"1800000"	"-1"
"8000121"	"3"	"415016"	"Kukulkan's Spear"	"1"	"0"	"3500000"	"-1"
"8000121"	"4"	"415010"	"테양"	"1"	"0"	"3500000"	"-1"
"8000121"	"5"	"415011"	"Thebes Osiris Edoryu"	"1"	"0"	"3500000"	"-1"
"8000121"	"6"	"415012"	"Thebes Osiris Bow"	"1"	"0"	"3500000"	"-1"
"8000121"	"7"	"415013"	"Staff of Thebes Osiris"	"1"	"0"	"3500000"	"-1"
"8000122"	"1"	"21060"	"호박갑옷"	"1"	"0"	"1500000"	"-1"
"8000122"	"2"	"21060"	"호박갑옷"	"1"	"0"	"1500000"	"-1"
"8000122"	"0"	"21060"	"호박갑옷"	"1"	"0"	"1500000"	"-1"
"8000122"	"3"	"21060"	"호박갑옷"	"1"	"0"	"1500000"	"-1"
"8000122"	"4"	"21060"	"호박갑옷"	"1"	"0"	"1500000"	"-1"
"8000122"	"5"	"21060"	"호박갑옷"	"1"	"0"	"1500000"	"-1"
"8000122"	"6"	"21060"	"호박갑옷"	"1"	"0"	"1500000"	"-1"
"8000122"	"7"	"21060"	"호박갑옷"	"1"	"0"	"1500000"	"-1"
"8000123"	"0"	"21060"	"호박갑옷"	"1"	"0"	"1500000"	"-1"
"8000123"	"1"	"21060"	"호박갑옷"	"1"	"0"	"1500000"	"-1"
"8000123"	"2"	"21060"	"호박갑옷"	"1"	"0"	"1500000"	"-1"
"8000123"	"3"	"21060"	"호박갑옷"	"1"	"0"	"1500000"	"-1"
"8000123"	"4"	"21060"	"호박갑옷"	"1"	"0"	"1500000"	"-1"
"8000123"	"5"	"21060"	"호박갑옷"	"1"	"0"	"1500000"	"-1"
"8000123"	"6"	"21060"	"호박갑옷"	"1"	"0"	"1500000"	"-1"
"8000123"	"7"	"21060"	"호박갑옷"	"1"	"0"	"1500000"	"-1"
"8000124"	"0"	"420000"	"Ancient 명궁 Garder"	"1"	"0"	"2000000"	"-1"
"8000124"	"1"	"420003"	"투사가더"	"1"	"0"	"2000000"	"-1"
"8000124"	"2"	"420001"	"Dragon Scale Garder"	"1"	"0"	"2000000"	"-1"
"8000124"	"3"	"21096"	"수호 Garder"	"1"	"0"	"2000000"	"-1"
"8000124"	"4"	"21097"	"Wizard Garder"	"1"	"0"	"2000000"	"-1"
"8000124"	"5"	"210951"	"Constitution Garder"	"1"	"0"	"2000000"	"-1"
"8000125"	"0"	"420000"	"Ancient 명궁 Garder"	"1"	"0"	"2000000"	"-1"
"8000125"	"1"	"420003"	"투사가더"	"1"	"0"	"2000000"	"-1"
"8000125"	"2"	"420001"	"Dragon Scale Garder"	"1"	"0"	"2000000"	"-1"
"8000125"	"3"	"21096"	"수호 Garder"	"1"	"0"	"2000000"	"-1"
"8000125"	"4"	"21097"	"Wizard Garder"	"1"	"0"	"2000000"	"-1"
"8000125"	"5"	"210951"	"Constitution Garder"	"1"	"0"	"2000000"	"-1"
"8000126"	"0"	"420000"	"Ancient 명궁 Garder"	"1"	"0"	"2000000"	"-1"
"8000126"	"1"	"420003"	"투사가더"	"1"	"0"	"2000000"	"-1"
"8000126"	"2"	"420001"	"Dragon Scale Garder"	"1"	"0"	"2000000"	"-1"
"8000126"	"3"	"21096"	"수호 Garder"	"1"	"0"	"2000000"	"-1"
"8000126"	"4"	"21097"	"Wizard Garder"	"1"	"0"	"2000000"	"-1"
"8000126"	"5"	"210951"	"Constitution Garder"	"1"	"0"	"2000000"	"-1"
"8000128"	"3"	"9"	"7오단"	"1"	"7"	"7500000"	"-1"
"8000128"	"2"	"9"	"7오단"	"1"	"7"	"7500000"	"-1"
"8000128"	"0"	"9"	"7오단"	"1"	"7"	"7500000"	"6000000"
"8000128"	"1"	"9"	"7오단"	"1"	"7"	"7500000"	"-1"
"8000127"	"7"	"62"	"7무양"	"1"	"7"	"7500000"	"-1"
"8000127"	"6"	"62"	"7무양"	"1"	"7"	"7500000"	"-1"
"8000127"	"5"	"62"	"7무양"	"1"	"7"	"7500000"	"-1"
"8000127"	"4"	"62"	"7무양"	"1"	"7"	"7500000"	"-1"
"8000127"	"0"	"62"	"7무양"	"1"	"7"	"7500000"	"6000000"
"8000127"	"1"	"62"	"7무양"	"1"	"7"	"7500000"	"-1"
"8000127"	"2"	"62"	"7무양"	"1"	"7"	"7500000"	"-1"
"8000127"	"3"	"62"	"7무양"	"1"	"7"	"7500000"	"-1"
"8000153"	"0"	"100035"	"7강마나"	"1"	"9"	"-1"	"24000000"
"8000144"	"0"	"100035"	"7강마나"	"1"	"8"	"-1"	"12000000"
"8000145"	"0"	"62"	"Pretender King Greatsword"	"1"	"9"	"-1"	"24000000"
"8000146"	"0"	"9"	"Oriharukon Dagger"	"1"	"9"	"-1"	"24000000"
"8000147"	"0"	"259"	"파괴의 Claw"	"1"	"9"	"-1"	"24000000"
"8000148"	"0"	"260"	"파괴의 Edoryu"	"1"	"9"	"-1"	"24000000"
"8000149"	"0"	"30220"	"파괴의장궁"	"1"	"9"	"-1"	"24000000"
"8000150"	"0"	"7229"	"강도"	"1"	"9"	"-1"	"10000000"
"8000151"	"0"	"266"	"공키"	"1"	"9"	"-1"	"24000000"
"8000152"	"0"	"275"	"환체"	"1"	"9"	"-1"	"24000000"
"8000138"	"0"	"259"	"파괴의 Claw"	"1"	"8"	"-1"	"12000000"
"8000139"	"0"	"260"	"파괴의 Edoryu"	"1"	"8"	"-1"	"12000000"
"8000140"	"0"	"30220"	"파괴의장궁"	"1"	"8"	"-1"	"12000000"
"8000141"	"0"	"7229"	"강도"	"1"	"8"	"-1"	"5000000"
"8000142"	"0"	"266"	"공키"	"1"	"8"	"-1"	"12000000"
"8000143"	"0"	"275"	"환체"	"1"	"8"	"-1"	"12000000"
"8000135"	"5"	"100035"	"7강마나"	"1"	"7"	"7500000"	"-1"
"8000135"	"6"	"100035"	"7강마나"	"1"	"7"	"7500000"	"-1"
"8000135"	"7"	"100035"	"7강마나"	"1"	"7"	"7500000"	"-1"
"8000035"	"3"	"40895"	"Remove Curse"	"900"	"0"	"100000"	"-1"
"8000136"	"0"	"62"	"Pretender King Greatsword"	"1"	"8"	"-1"	"12000000"
"8000137"	"0"	"9"	"Oriharukon Dagger"	"1"	"8"	"-1"	"12000000"
"8000134"	"6"	"275"	"7환체"	"1"	"7"	"7500000"	"-1"
"8000134"	"7"	"275"	"7환체"	"1"	"7"	"7500000"	"-1"
"8000135"	"0"	"100035"	"7강마나"	"1"	"7"	"7500000"	"6000000"
"8000135"	"1"	"100035"	"7강마나"	"1"	"7"	"7500000"	"-1"
"8000135"	"2"	"100035"	"7강마나"	"1"	"7"	"7500000"	"-1"
"8000135"	"3"	"100035"	"7강마나"	"1"	"7"	"7500000"	"-1"
"8000135"	"4"	"100035"	"7강마나"	"1"	"7"	"7500000"	"-1"
"8000133"	"7"	"266"	"7공키"	"1"	"7"	"7500000"	"-1"
"8000134"	"0"	"275"	"7환체"	"1"	"7"	"7500000"	"6000000"
"8000134"	"1"	"275"	"7환체"	"1"	"7"	"7500000"	"-1"
"8000134"	"2"	"275"	"7환체"	"1"	"7"	"7500000"	"-1"
"8000134"	"3"	"275"	"7환체"	"1"	"7"	"7500000"	"-1"
"8000134"	"4"	"275"	"7환체"	"1"	"7"	"7500000"	"-1"
"8000134"	"5"	"275"	"7환체"	"1"	"7"	"7500000"	"-1"
"8000133"	"1"	"266"	"7공키"	"1"	"7"	"7500000"	"-1"
"8000133"	"2"	"266"	"7공키"	"1"	"7"	"7500000"	"-1"
"8000133"	"3"	"266"	"7공키"	"1"	"7"	"7500000"	"-1"
"8000133"	"4"	"266"	"7공키"	"1"	"7"	"7500000"	"-1"
"8000133"	"5"	"266"	"7공키"	"1"	"7"	"7500000"	"-1"
"8000133"	"6"	"266"	"7공키"	"1"	"7"	"7500000"	"-1"
"8000132"	"3"	"7229"	"7강도"	"1"	"7"	"3500000"	"-1"
"8000132"	"4"	"7229"	"7강도"	"1"	"7"	"3500000"	"-1"
"8000132"	"5"	"7229"	"7강도"	"1"	"7"	"3500000"	"-1"
"8000132"	"6"	"7229"	"7강도"	"1"	"7"	"3500000"	"-1"
"8000132"	"7"	"7229"	"7강도"	"1"	"7"	"3500000"	"-1"
"8000133"	"0"	"266"	"7공키"	"1"	"7"	"7500000"	"6000000"
"8000131"	"5"	"30220"	"7파장"	"1"	"7"	"7500000"	"-1"
"8000131"	"6"	"30220"	"7파장"	"1"	"7"	"7500000"	"-1"
"8000131"	"7"	"30220"	"7파장"	"1"	"7"	"7500000"	"-1"
"8000132"	"0"	"7229"	"7강도"	"1"	"7"	"3500000"	"2500000"
"8000132"	"1"	"7229"	"7강도"	"1"	"7"	"3500000"	"-1"
"8000132"	"2"	"7229"	"7강도"	"1"	"7"	"3500000"	"-1"
"8000130"	"7"	"260"	"7파이"	"1"	"7"	"7500000"	"-1"
"8000131"	"0"	"30220"	"7파장"	"1"	"7"	"7500000"	"6000000"
"8000131"	"1"	"30220"	"7파장"	"1"	"7"	"7500000"	"-1"
"8000131"	"2"	"30220"	"7파장"	"1"	"7"	"7500000"	"-1"
"8000131"	"3"	"30220"	"7파장"	"1"	"7"	"7500000"	"-1"
"8000131"	"4"	"30220"	"7파장"	"1"	"7"	"7500000"	"-1"
"8000130"	"1"	"260"	"7파이"	"1"	"7"	"7500000"	"-1"
"8000130"	"2"	"260"	"7파이"	"1"	"7"	"7500000"	"-1"
"8000130"	"3"	"260"	"7파이"	"1"	"7"	"7500000"	"-1"
"8000130"	"4"	"260"	"7파이"	"1"	"7"	"7500000"	"-1"
"8000130"	"5"	"260"	"7파이"	"1"	"7"	"7500000"	"-1"
"8000130"	"6"	"260"	"7파이"	"1"	"7"	"7500000"	"-1"
"8000129"	"3"	"259"	"7파크"	"1"	"7"	"7500000"	"-1"
"8000129"	"4"	"259"	"7파크"	"1"	"7"	"7500000"	"-1"
"8000129"	"5"	"259"	"7파크"	"1"	"7"	"7500000"	"-1"
"8000129"	"6"	"259"	"7파크"	"1"	"7"	"7500000"	"-1"
"8000129"	"7"	"259"	"7파크"	"1"	"7"	"7500000"	"-1"
"8000130"	"0"	"260"	"7파이"	"1"	"7"	"7500000"	"6000000"
"8000128"	"5"	"9"	"7오단"	"1"	"7"	"7500000"	"-1"
"8000128"	"6"	"9"	"7오단"	"1"	"7"	"7500000"	"-1"
"8000128"	"7"	"9"	"7오단"	"1"	"7"	"7500000"	"-1"
"8000129"	"0"	"259"	"7파크"	"1"	"7"	"7500000"	"6000000"
"8000129"	"1"	"259"	"7파크"	"1"	"7"	"7500000"	"-1"
"8000129"	"2"	"259"	"7파크"	"1"	"7"	"7500000"	"-1"
"8000128"	"4"	"9"	"7오단"	"1"	"7"	"7500000"	"-1"
"8000003"	"1"	"76"	"Edoryu of Ronde"	"1"	"7"	"50000000"	"-1"
"8000003"	"2"	"76"	"Edoryu of Ronde"	"1"	"7"	"50000000"	"-1"
"8000003"	"3"	"292"	"진노의 Claw"	"1"	"7"	"70000000"	"-1"
"8000003"	"4"	"292"	"진노의 Claw"	"1"	"7"	"70000000"	"-1"
"8000003"	"5"	"292"	"진노의 Claw"	"1"	"7"	"70000000"	"-1"
"8000003"	"6"	"292"	"진노의 Claw"	"1"	"7"	"70000000"	"-1"
"8000004"	"1"	"6001"	"냉한의 Kiringku"	"1"	"7"	"50000000"	"-1"
"8000004"	"2"	"6001"	"냉한의 Kiringku"	"1"	"7"	"50000000"	"-1"
"8000004"	"3"	"6001"	"냉한의 Kiringku"	"1"	"7"	"50000000"	"-1"
"8000004"	"4"	"6000"	"극한의 Chainsword"	"1"	"7"	"50000000"	"-1"
"8000004"	"5"	"6000"	"극한의 Chainsword"	"1"	"7"	"50000000"	"-1"
"8000004"	"6"	"6000"	"극한의 Chainsword"	"1"	"7"	"50000000"	"-1"
"8000002"	"2"	"40370"	"Lindvior Heart"	"1"	"0"	"100000000"	"-1"
"8000002"	"3"	"40370"	"Lindvior Heart"	"1"	"0"	"100000000"	"-1"
"8000002"	"4"	"40370"	"Lindvior Heart"	"1"	"0"	"100000000"	"-1"
"8000025"	"3"	"20187"	"5파글"	"1"	"5"	"2300000"	"-1"
"8000025"	"4"	"20187"	"5파글"	"1"	"5"	"2300000"	"-1"
"8000025"	"5"	"20187"	"5파글"	"1"	"5"	"2300000"	"-1"
"8000025"	"6"	"20187"	"5파글"	"1"	"5"	"2300000"	"-1"
"8000041"	"2"	"40354"	"Valakas Heart"	"1"	"0"	"200000000"	"-1"
"8000041"	"3"	"40354"	"Valakas Heart"	"1"	"0"	"200000000"	"-1"
