"id"	"itemid"	"itemname"	"price"	"type"	"status"	"html"	"pack"	"enchant"
"3"	"5559"	"탐나는 성장의 Fruit"	"5000"	"3"	"1"	""	"0"	"0"
"4"	"5560"	"탐나는 성장의 Fruit"	"10000"	"3"	"1"	""	"0"	"0"
"5"	"600212"	"강화버프 : 활력"	"1000"	"3"	"1"	""	"0"	"0"
"6"	"600213"	"강화버프 : 공격"	"1000"	"3"	"1"	""	"0"	"0"
"7"	"600214"	"강화버프 : 방어"	"1000"	"3"	"1"	""	"0"	"0"
"8"	"600215"	"강화버프 : 마법"	"1000"	"3"	"1"	""	"0"	"0"
"9"	"600216"	"강화버프 : Stun"	"1000"	"3"	"1"	""	"0"	"0"
"10"	"600217"	"강화버프 : Hold"	"1000"	"3"	"1"	""	"0"	"0"
"11"	"600223"	"PC방 Einhasad EXP+40%(7일)"	"2000"	"3"	"1"	""	"0"	"0"
"12"	"600225"	"PC방 아인하사드EXP+40%(30일)"	"5000"	"3"	"1"	""	"0"	"0"
"13"	"600224"	"Shining 성장의 Potion"	"1000"	"3"	"1"	""	"0"	"0"
"14"	"437004"	"Scroll of Enhanced Battle"	"1000"	"3"	"1"	""	"20"	"0"
"15"	"437002"	"Scroll of Enhanced HP"	"1000"	"3"	"1"	""	"20"	"0"
"16"	"437003"	"Scroll of Enhanced Mana"	"1000"	"3"	"1"	""	"20"	"0"
"17"	"42098"	"\fS라우풀 Potion"	"2000"	"3"	"1"	""	"0"	"0"
"24"	"500020"	"Highest Quality 마력의 Heart"	"1000"	"5"	"1"	""	"0"	"0"
"18"	"60360"	"조우의 이동 기억책"	"500"	"4"	"1"	""	"100"	"0"
"25"	"50022"	"축복 Spell Scroll(확률)"	"10000"	"2"	"1"	""	"0"	"0"
"26"	"5000031"	"추타 Greater Scroll(확률)"	"10000"	"2"	"1"	""	"0"	"0"
"1"	"600230"	"성장의 낚시세트"	"100"	"4"	"1"	""	"0"	"0"
"2"	"600229"	"성장의 낚싯대"	"50"	"4"	"1"	""	"0"	"0"
"27"	"500209"	"퓨어엘릭서"	"10000"	"5"	"1"	""	"35"	"0"
"29"	"47123"	"서큐버스의 계약"	"10000"	"4"	"1"	""	"0"	"0"
"30"	"471255"	"서큐버스퀸의  계약"	"30000"	"4"	"1"	""	"0"	"0"
"31"	"753"	" Magic Doll:Baphomet"	"3000"	"4"	"1"	""	"0"	"0"
"32"	"754"	"Magic Doll:얼음여왕 "	"3000"	"4"	"1"	""	"0"	"0"
"33"	"755"	" Magic Doll:Kurtz"	"3000"	"4"	"1"	""	"0"	"0"
"34"	"888892"	"커츠상자"	"3000"	"4"	"1"	""	"0"	"0"
"35"	"888893"	"커츠상자"	"3000"	"4"	"1"	""	"0"	"0"
"36"	"888894"	"커츠상자"	"3000"	"4"	"1"	""	"0"	"0"
"37"	"888895"	"커츠상자"	"3000"	"4"	"1"	""	"0"	"0"
