"id"	"note"	"trapId"	"mapId"	"locX"	"locY"	"locRndX"	"locRndY"	"count"	"span"	"doorId"
"17"	"TOI"	"3"	"114"	"32670"	"32861"	"100"	"100"	"20"	"0"	"0"
"18"	"TOI"	"4"	"114"	"32670"	"32861"	"100"	"100"	"20"	"0"	"0"
"16"	"TOI"	"2"	"114"	"32670"	"32861"	"100"	"100"	"20"	"0"	"0"
"8"	"TOI"	"9"	"108"	"32670"	"32861"	"100"	"100"	"20"	"0"	"0"
"3"	"TOI"	"3"	"104"	"32670"	"32861"	"100"	"100"	"20"	"0"	"0"
"1"	"TOI"	"8"	"104"	"32670"	"32861"	"100"	"100"	"20"	"0"	"0"
"2"	"TOI"	"2"	"104"	"32670"	"32861"	"100"	"100"	"20"	"0"	"0"
"4"	"TOI"	"4"	"104"	"32670"	"32861"	"100"	"100"	"20"	"0"	"0"
"5"	"TOI"	"5"	"104"	"32670"	"32861"	"100"	"100"	"20"	"0"	"0"
"6"	"TOI"	"6"	"104"	"32670"	"32861"	"100"	"100"	"20"	"0"	"0"
"7"	"TOI"	"7"	"104"	"32670"	"32861"	"100"	"100"	"20"	"0"	"0"
"14"	"TOI"	"7"	"108"	"32670"	"32861"	"100"	"100"	"20"	"0"	"0"
"10"	"TOI"	"3"	"108"	"32670"	"32861"	"100"	"100"	"20"	"0"	"0"
"9"	"TOI"	"2"	"108"	"32670"	"32861"	"100"	"100"	"20"	"0"	"0"
"15"	"TOI"	"10"	"114"	"32670"	"32861"	"100"	"100"	"20"	"0"	"0"
"11"	"TOI"	"4"	"108"	"32670"	"32861"	"100"	"100"	"20"	"0"	"0"
"12"	"TOI"	"5"	"108"	"32670"	"32861"	"100"	"100"	"20"	"0"	"0"
"13"	"TOI"	"6"	"108"	"32670"	"32861"	"100"	"100"	"20"	"0"	"0"
"31"	"TOI"	"3"	"124"	"32670"	"32861"	"100"	"100"	"20"	"0"	"0"
"32"	"TOI"	"4"	"124"	"32670"	"32861"	"100"	"100"	"20"	"0"	"0"
"19"	"TOI"	"5"	"114"	"32670"	"32861"	"100"	"100"	"20"	"0"	"0"
"20"	"TOI"	"6"	"114"	"32670"	"32861"	"100"	"100"	"20"	"0"	"0"
"21"	"TOI"	"7"	"114"	"32670"	"32861"	"100"	"100"	"20"	"0"	"0"
"22"	"TOI"	"11"	"118"	"32670"	"32861"	"100"	"100"	"20"	"0"	"0"
"23"	"TOI"	"2"	"118"	"32670"	"32861"	"100"	"100"	"20"	"0"	"0"
"24"	"TOI"	"3"	"118"	"32670"	"32861"	"100"	"100"	"20"	"0"	"0"
"25"	"TOI"	"4"	"118"	"32670"	"32861"	"100"	"100"	"20"	"0"	"0"
"26"	"TOI"	"5"	"118"	"32670"	"32861"	"100"	"100"	"20"	"0"	"0"
"27"	"TOI"	"6"	"118"	"32670"	"32861"	"100"	"100"	"20"	"0"	"0"
"28"	"TOI"	"7"	"118"	"32670"	"32861"	"100"	"100"	"20"	"0"	"0"
"29"	"TOI"	"12"	"124"	"32670"	"32861"	"100"	"100"	"20"	"0"	"0"
"30"	"TOI"	"2"	"124"	"32670"	"32861"	"100"	"100"	"20"	"0"	"0"
"33"	"TOI"	"5"	"124"	"32670"	"32861"	"100"	"100"	"20"	"0"	"0"
"34"	"TOI"	"6"	"124"	"32670"	"32861"	"100"	"100"	"20"	"0"	"0"
"35"	"TOI"	"7"	"124"	"32670"	"32861"	"100"	"100"	"20"	"0"	"0"
"36"	"TOI"	"13"	"128"	"32670"	"32861"	"100"	"100"	"20"	"0"	"0"
"37"	"TOI"	"2"	"128"	"32670"	"32861"	"100"	"100"	"20"	"0"	"0"
"38"	"TOI"	"3"	"128"	"32670"	"32861"	"100"	"100"	"20"	"0"	"0"
"39"	"TOI"	"4"	"128"	"32670"	"32861"	"100"	"100"	"20"	"0"	"0"
"40"	"TOI"	"5"	"128"	"32670"	"32861"	"100"	"100"	"20"	"0"	"0"
"41"	"TOI"	"6"	"128"	"32670"	"32861"	"100"	"100"	"20"	"0"	"0"
"42"	"TOI"	"7"	"128"	"32670"	"32861"	"100"	"100"	"20"	"0"	"0"
"43"	"TOI"	"14"	"134"	"32670"	"32861"	"100"	"100"	"20"	"0"	"0"
"44"	"TOI"	"2"	"134"	"32670"	"32861"	"100"	"100"	"20"	"0"	"0"
"45"	"TOI"	"3"	"134"	"32670"	"32861"	"100"	"100"	"20"	"0"	"0"
"46"	"TOI"	"4"	"134"	"32670"	"32861"	"100"	"100"	"20"	"0"	"0"
"47"	"TOI"	"5"	"134"	"32670"	"32861"	"100"	"100"	"20"	"0"	"0"
"48"	"TOI"	"6"	"134"	"32670"	"32861"	"100"	"100"	"20"	"0"	"0"
"49"	"TOI"	"7"	"134"	"32670"	"32861"	"100"	"100"	"20"	"0"	"0"
"50"	"TOI"	"15"	"138"	"32670"	"32861"	"100"	"100"	"20"	"0"	"0"
"51"	"TOI"	"2"	"138"	"32670"	"32861"	"100"	"100"	"20"	"0"	"0"
"52"	"TOI"	"3"	"138"	"32670"	"32861"	"100"	"100"	"20"	"0"	"0"
"53"	"TOI"	"4"	"138"	"32670"	"32861"	"100"	"100"	"20"	"0"	"0"
"54"	"TOI"	"5"	"138"	"32670"	"32861"	"100"	"100"	"20"	"0"	"0"
"55"	"TOI"	"6"	"138"	"32670"	"32861"	"100"	"100"	"20"	"0"	"0"
"56"	"TOI"	"7"	"138"	"32670"	"32861"	"100"	"100"	"20"	"0"	"0"
"57"	"TOI"	"16"	"144"	"32670"	"32861"	"100"	"100"	"20"	"0"	"0"
"58"	"TOI"	"2"	"144"	"32670"	"32861"	"100"	"100"	"20"	"0"	"0"
"59"	"TOI"	"3"	"144"	"32670"	"32861"	"100"	"100"	"20"	"0"	"0"
"60"	"TOI"	"4"	"144"	"32670"	"32861"	"100"	"100"	"20"	"0"	"0"
"61"	"TOI"	"5"	"144"	"32670"	"32861"	"100"	"100"	"20"	"0"	"0"
"62"	"TOI"	"6"	"144"	"32670"	"32861"	"100"	"100"	"20"	"0"	"0"
"63"	"TOI"	"7"	"144"	"32670"	"32861"	"100"	"100"	"20"	"0"	"0"
"64"	"TOI"	"17"	"148"	"32670"	"32861"	"100"	"100"	"20"	"0"	"0"
"65"	"TOI"	"2"	"148"	"32670"	"32861"	"100"	"100"	"20"	"0"	"0"
"66"	"TOI"	"3"	"148"	"32670"	"32861"	"100"	"100"	"20"	"0"	"0"
"67"	"TOI"	"4"	"148"	"32670"	"32861"	"100"	"100"	"20"	"0"	"0"
"68"	"TOI"	"5"	"148"	"32670"	"32861"	"100"	"100"	"20"	"0"	"0"
"69"	"TOI"	"6"	"148"	"32670"	"32861"	"100"	"100"	"20"	"0"	"0"
"70"	"TOI"	"7"	"148"	"32670"	"32861"	"100"	"100"	"20"	"0"	"0"
"71"	"TOI"	"18"	"154"	"32798"	"32798"	"100"	"100"	"20"	"0"	"0"
"72"	"TOI"	"2"	"154"	"32798"	"32798"	"100"	"100"	"20"	"0"	"0"
"73"	"TOI"	"3"	"154"	"32798"	"32798"	"100"	"100"	"20"	"0"	"0"
"74"	"TOI"	"4"	"154"	"32798"	"32798"	"100"	"100"	"20"	"0"	"0"
"75"	"TOI"	"5"	"154"	"32798"	"32798"	"100"	"100"	"20"	"0"	"0"
"76"	"TOI"	"6"	"154"	"32798"	"32798"	"100"	"100"	"20"	"0"	"0"
"77"	"TOI"	"7"	"154"	"32798"	"32798"	"100"	"100"	"20"	"0"	"0"
"78"	"TOI"	"18"	"158"	"32670"	"32861"	"100"	"100"	"20"	"0"	"0"
"79"	"TOI"	"2"	"158"	"32670"	"32861"	"100"	"100"	"20"	"0"	"0"
"80"	"TOI"	"3"	"158"	"32670"	"32861"	"100"	"100"	"20"	"0"	"0"
"81"	"TOI"	"4"	"158"	"32670"	"32861"	"100"	"100"	"20"	"0"	"0"
"82"	"TOI"	"5"	"158"	"32670"	"32861"	"100"	"100"	"20"	"0"	"0"
"83"	"TOI"	"6"	"158"	"32670"	"32861"	"100"	"100"	"20"	"0"	"0"
"84"	"TOI"	"7"	"158"	"32670"	"32861"	"100"	"100"	"20"	"0"	"0"
"85"	"TOI"	"19"	"164"	"32798"	"32798"	"100"	"100"	"20"	"0"	"0"
"86"	"TOI"	"2"	"164"	"32798"	"32798"	"100"	"100"	"20"	"0"	"0"
"87"	"TOI"	"3"	"164"	"32798"	"32798"	"100"	"100"	"20"	"0"	"0"
"88"	"TOI"	"4"	"164"	"32798"	"32798"	"100"	"100"	"20"	"0"	"0"
"89"	"TOI"	"5"	"164"	"32798"	"32798"	"100"	"100"	"20"	"0"	"0"
"90"	"TOI"	"6"	"164"	"32798"	"32798"	"100"	"100"	"20"	"0"	"0"
"91"	"TOI"	"7"	"164"	"32798"	"32798"	"100"	"100"	"20"	"0"	"0"
"92"	"TOI"	"19"	"168"	"32670"	"32861"	"100"	"100"	"20"	"0"	"0"
"93"	"TOI"	"2"	"168"	"32670"	"32861"	"100"	"100"	"20"	"0"	"0"
"94"	"TOI"	"3"	"168"	"32670"	"32861"	"100"	"100"	"20"	"0"	"0"
"95"	"TOI"	"4"	"168"	"32670"	"32861"	"100"	"100"	"20"	"0"	"0"
"96"	"TOI"	"5"	"168"	"32670"	"32861"	"100"	"100"	"20"	"0"	"0"
"97"	"TOI"	"6"	"168"	"32670"	"32861"	"100"	"100"	"20"	"0"	"0"
"98"	"TOI"	"7"	"168"	"32670"	"32861"	"100"	"100"	"20"	"0"	"0"
"99"	"TOI"	"20"	"174"	"32798"	"32798"	"100"	"100"	"20"	"0"	"0"
"100"	"TOI"	"2"	"174"	"32798"	"32798"	"100"	"100"	"20"	"0"	"0"
"101"	"TOI"	"3"	"174"	"32798"	"32798"	"100"	"100"	"20"	"0"	"0"
"102"	"TOI"	"4"	"174"	"32798"	"32798"	"100"	"100"	"20"	"0"	"0"
"103"	"TOI"	"5"	"174"	"32798"	"32798"	"100"	"100"	"20"	"0"	"0"
"104"	"TOI"	"6"	"174"	"32798"	"32798"	"100"	"100"	"20"	"0"	"0"
"105"	"TOI"	"7"	"174"	"32798"	"32798"	"100"	"100"	"20"	"0"	"0"
"106"	"TOI"	"21"	"178"	"32670"	"32861"	"100"	"100"	"20"	"0"	"0"
"107"	"TOI"	"2"	"178"	"32670"	"32861"	"100"	"100"	"20"	"0"	"0"
"108"	"TOI"	"3"	"178"	"32670"	"32861"	"100"	"100"	"20"	"0"	"0"
"109"	"TOI"	"4"	"178"	"32670"	"32861"	"100"	"100"	"20"	"0"	"0"
"110"	"TOI"	"5"	"178"	"32670"	"32861"	"100"	"100"	"20"	"0"	"0"
"111"	"TOI"	"6"	"178"	"32670"	"32861"	"100"	"100"	"20"	"0"	"0"
"112"	"TOI"	"7"	"178"	"32670"	"32861"	"100"	"100"	"20"	"0"	"0"
"113"	"TOI"	"22"	"184"	"32798"	"32798"	"100"	"100"	"20"	"0"	"0"
"114"	"TOI"	"2"	"184"	"32798"	"32798"	"100"	"100"	"20"	"0"	"0"
"115"	"TOI"	"3"	"184"	"32798"	"32798"	"100"	"100"	"20"	"0"	"0"
"116"	"TOI"	"4"	"184"	"32798"	"32798"	"100"	"100"	"20"	"0"	"0"
"117"	"TOI"	"5"	"184"	"32798"	"32798"	"100"	"100"	"20"	"0"	"0"
"118"	"TOI"	"6"	"184"	"32798"	"32798"	"100"	"100"	"20"	"0"	"0"
"119"	"TOI"	"7"	"184"	"32798"	"32798"	"100"	"100"	"20"	"0"	"0"
"120"	"TOI"	"22"	"188"	"32670"	"32861"	"100"	"100"	"20"	"0"	"0"
"121"	"TOI"	"2"	"188"	"32670"	"32861"	"100"	"100"	"20"	"0"	"0"
"122"	"TOI"	"3"	"188"	"32670"	"32861"	"100"	"100"	"20"	"0"	"0"
"123"	"TOI"	"4"	"188"	"32670"	"32861"	"100"	"100"	"20"	"0"	"0"
"124"	"TOI"	"5"	"188"	"32670"	"32861"	"100"	"100"	"20"	"0"	"0"
"125"	"TOI"	"6"	"188"	"32670"	"32861"	"100"	"100"	"20"	"0"	"0"
"126"	"TOI"	"7"	"188"	"32670"	"32861"	"100"	"100"	"20"	"0"	"0"
"127"	"TOI"	"23"	"194"	"32798"	"32798"	"100"	"100"	"20"	"0"	"0"
"128"	"TOI"	"2"	"194"	"32798"	"32798"	"100"	"100"	"20"	"0"	"0"
"129"	"TOI"	"3"	"194"	"32798"	"32798"	"100"	"100"	"20"	"0"	"0"
"130"	"TOI"	"4"	"194"	"32798"	"32798"	"100"	"100"	"20"	"0"	"0"
"131"	"TOI"	"5"	"194"	"32798"	"32798"	"100"	"100"	"20"	"0"	"0"
"132"	"TOI"	"6"	"194"	"32798"	"32798"	"100"	"100"	"20"	"0"	"0"
"133"	"TOI"	"7"	"194"	"32798"	"32798"	"100"	"100"	"20"	"0"	"0"
"134"	"TOI"	"23"	"198"	"32670"	"32861"	"100"	"100"	"20"	"0"	"0"
"135"	"TOI"	"2"	"198"	"32670"	"32861"	"100"	"100"	"20"	"0"	"0"
"136"	"TOI"	"3"	"198"	"32670"	"32861"	"100"	"100"	"20"	"0"	"0"
"137"	"TOI"	"4"	"198"	"32670"	"32861"	"100"	"100"	"20"	"0"	"0"
"138"	"TOI"	"5"	"198"	"32670"	"32861"	"100"	"100"	"20"	"0"	"0"
"139"	"TOI"	"6"	"198"	"32670"	"32861"	"100"	"100"	"20"	"0"	"0"
"140"	"TOI"	"7"	"198"	"32670"	"32861"	"100"	"100"	"20"	"0"	"0"
"141"	"흐랑코의 미궁"	"3"	"482"	"32695"	"32735"	"0"	"0"	"1"	"0"	"0"
"142"	"흐랑코의 미궁"	"4"	"482"	"32696"	"32746"	"0"	"0"	"1"	"0"	"0"
"143"	"흐랑코의 미궁"	"38"	"482"	"32692"	"32750"	"0"	"0"	"1"	"10000"	"0"
"144"	"흐랑코의 미궁"	"5"	"482"	"32716"	"32736"	"0"	"0"	"1"	"0"	"0"
"145"	"흐랑코의 미궁"	"39"	"482"	"32716"	"32740"	"0"	"0"	"1"	"10000"	"0"
"146"	"흐랑코의 미궁"	"6"	"482"	"32724"	"32744"	"0"	"0"	"1"	"0"	"0"
"147"	"흐랑코의 미궁"	"3"	"482"	"32727"	"32741"	"0"	"0"	"1"	"0"	"0"
"148"	"흐랑코의 미궁"	"38"	"482"	"32727"	"32747"	"0"	"0"	"1"	"10000"	"0"
"149"	"흐랑코의 미궁"	"4"	"482"	"32730"	"32744"	"0"	"0"	"1"	"0"	"0"
"150"	"흐랑코의 미궁"	"5"	"482"	"32799"	"32736"	"0"	"0"	"1"	"0"	"0"
"151"	"흐랑코의 미궁"	"40"	"482"	"32774"	"32740"	"0"	"0"	"1"	"10000"	"0"
"152"	"흐랑코의 미궁"	"40"	"482"	"32728"	"32784"	"0"	"0"	"1"	"10000"	"0"
"153"	"흐랑코의 미궁"	"6"	"482"	"32734"	"32844"	"0"	"0"	"1"	"0"	"0"
"154"	"흐랑코의 미궁"	"3"	"482"	"32731"	"32850"	"0"	"0"	"1"	"0"	"0"
"155"	"디에고가 닫힌 뇌"	"41"	"482"	"32770"	"32857"	"0"	"0"	"1"	"10000"	"0"
"156"	"디에고가 닫힌 뇌"	"40"	"482"	"32776"	"32848"	"0"	"0"	"1"	"10000"	"0"
"157"	"디에고가 닫힌 뇌"	"5"	"482"	"32770"	"32847"	"0"	"0"	"1"	"0"	"0"
"158"	"디에고가 닫힌 뇌"	"6"	"482"	"32741"	"32850"	"0"	"0"	"1"	"0"	"0"
"159"	"디에고가 닫힌 뇌"	"40"	"482"	"32703"	"32868"	"0"	"0"	"1"	"10000"	"0"
"160"	"디에고가 닫힌 뇌"	"5"	"482"	"32700"	"32866"	"0"	"0"	"1"	"0"	"0"
"161"	"디에고가 닫힌 뇌"	"4"	"482"	"32752"	"32781"	"0"	"0"	"1"	"0"	"0"
"162"	"디에고가 닫힌 뇌"	"38"	"482"	"32788"	"32769"	"0"	"0"	"1"	"10000"	"0"
"163"	"디에고가 닫힌 뇌"	"39"	"482"	"32781"	"32802"	"0"	"0"	"1"	"10000"	"0"
"164"	"디에고가 닫힌 뇌"	"5"	"482"	"32771"	"32804"	"0"	"0"	"1"	"0"	"0"
"165"	"디에고가 닫힌 뇌"	"40"	"482"	"32778"	"32758"	"0"	"0"	"1"	"10000"	"0"
"166"	"디에고가 닫힌 뇌"	"41"	"482"	"32737"	"32792"	"0"	"0"	"1"	"10000"	"0"
"167"	"디에고가 닫힌 뇌"	"4"	"482"	"32737"	"32804"	"0"	"0"	"1"	"0"	"0"
"168"	"디에고가 닫힌 뇌"	"4"	"482"	"32753"	"32810"	"0"	"0"	"1"	"0"	"0"
"169"	"디에고가 닫힌 뇌"	"40"	"482"	"32731"	"32792"	"0"	"0"	"1"	"10000"	"0"
"170"	"디에고가 닫힌 뇌"	"41"	"482"	"32731"	"32798"	"0"	"0"	"1"	"10000"	"0"
"171"	"디에고가 닫힌 뇌"	"5"	"482"	"32731"	"32804"	"0"	"0"	"1"	"0"	"0"
"172"	"디에고가 닫힌 뇌"	"38"	"482"	"32668"	"32760"	"0"	"0"	"1"	"10000"	"0"
"173"	"디에고가 닫힌 뇌"	"39"	"482"	"32673"	"32765"	"0"	"0"	"1"	"10000"	"0"
"174"	"디에고가 닫힌 뇌"	"3"	"482"	"32676"	"32779"	"0"	"0"	"1"	"0"	"0"
"175"	"디에고가 닫힌 뇌"	"4"	"482"	"32678"	"32782"	"0"	"0"	"1"	"0"	"0"
"176"	"디에고가 닫힌 뇌"	"40"	"482"	"32680"	"32788"	"0"	"0"	"1"	"10000"	"0"
"177"	"디에고가 닫힌 뇌"	"41"	"482"	"32673"	"32787"	"0"	"0"	"1"	"10000"	"0"
"178"	"디에고가 닫힌 뇌"	"4"	"482"	"32672"	"32813"	"0"	"0"	"1"	"0"	"0"
"179"	"디에고가 닫힌 뇌"	"5"	"482"	"32682"	"32816"	"0"	"0"	"1"	"0"	"0"
"180"	"디에고가 닫힌 뇌"	"6"	"482"	"32689"	"32804"	"0"	"0"	"1"	"0"	"0"
"181"	"디에고가 닫힌 뇌"	"38"	"482"	"32697"	"32810"	"0"	"0"	"1"	"10000"	"0"
"182"	"디에고가 닫힌 뇌"	"39"	"482"	"32694"	"32813"	"0"	"0"	"1"	"10000"	"0"
"183"	"디에고가 닫힌 뇌"	"3"	"482"	"32743"	"32844"	"0"	"0"	"1"	"0"	"0"
"184"	"디에고가 닫힌 뇌"	"4"	"482"	"32704"	"32829"	"0"	"0"	"1"	"0"	"0"
"185"	"디에고가 닫힌 뇌"	"40"	"482"	"32706"	"32836"	"0"	"0"	"1"	"10000"	"0"
"186"	"디에고가 닫힌 뇌"	"41"	"482"	"32702"	"32839"	"0"	"0"	"1"	"10000"	"0"
"187"	"디에고가 닫힌 뇌"	"6"	"482"	"32724"	"32808"	"0"	"0"	"1"	"0"	"0"
"188"	"디에고가 닫힌 뇌"	"38"	"482"	"32723"	"32756"	"0"	"0"	"1"	"10000"	"0"
"189"	"디에고가 닫힌 뇌"	"5"	"482"	"32726"	"32754"	"0"	"0"	"1"	"0"	"0"
"190"	"디에고가 닫힌 뇌"	"40"	"482"	"32732"	"32756"	"0"	"0"	"1"	"10000"	"0"
"191"	"디에고가 닫힌 뇌"	"41"	"482"	"32715"	"32802"	"0"	"0"	"1"	"10000"	"0"
"192"	"디에고가 닫힌 뇌"	"4"	"482"	"32795"	"32811"	"0"	"0"	"1"	"0"	"0"
"193"	"디에고가 닫힌 뇌"	"4"	"482"	"32793"	"32802"	"0"	"0"	"1"	"0"	"0"
"194"	"디에고가 닫힌 뇌"	"40"	"482"	"32743"	"32792"	"0"	"0"	"1"	"10000"	"0"
"195"	"디에고가 닫힌 뇌"	"41"	"482"	"32743"	"32798"	"0"	"0"	"1"	"10000"	"0"
"196"	"디에고가 닫힌 뇌"	"5"	"482"	"32743"	"32804"	"0"	"0"	"1"	"0"	"0"
"197"	"디에고가 닫힌 뇌"	"6"	"482"	"32777"	"32736"	"0"	"0"	"1"	"0"	"0"
"198"	"디에고가 닫힌 뇌"	"42"	"482"	"32786"	"32826"	"0"	"0"	"1"	"0"	"0"
"199"	"디에고가 닫힌 뇌"	"42"	"482"	"32663"	"32846"	"0"	"0"	"1"	"0"	"0"
"200"	"디에고가 닫힌 뇌"	"42"	"482"	"32745"	"32844"	"0"	"0"	"1"	"0"	"0"
"201"	"디에고가 닫힌 뇌"	"42"	"482"	"32712"	"32804"	"0"	"0"	"1"	"0"	"0"
"202"	"디에고가 닫힌 뇌"	"42"	"482"	"32695"	"32782"	"0"	"0"	"1"	"0"	"0"
"203"	"디에고가 닫힌 뇌"	"38"	"483"	"32750"	"32817"	"0"	"0"	"1"	"10000"	"0"
"204"	"디에고가 닫힌 뇌"	"39"	"483"	"32740"	"32834"	"0"	"0"	"1"	"10000"	"0"
"205"	"디에고가 닫힌 뇌"	"5"	"483"	"32735"	"32851"	"0"	"0"	"1"	"0"	"0"
"206"	"디에고가 닫힌 뇌"	"4"	"483"	"32749"	"32843"	"0"	"0"	"1"	"0"	"0"
"207"	"디에고가 닫힌 뇌"	"40"	"483"	"32781"	"32801"	"0"	"0"	"1"	"10000"	"0"
"208"	"디에고가 닫힌 뇌"	"43"	"483"	"32780"	"32802"	"0"	"0"	"1"	"0"	"0"
"209"	"디에고가 닫힌 뇌"	"3"	"483"	"32781"	"32803"	"0"	"0"	"1"	"0"	"0"
"210"	"디에고가 닫힌 뇌"	"6"	"483"	"32782"	"32802"	"0"	"0"	"1"	"0"	"0"
"211"	"디에고가 닫힌 뇌"	"6"	"483"	"32783"	"32807"	"0"	"0"	"1"	"0"	"0"
"212"	"디에고가 닫힌 뇌"	"43"	"483"	"32790"	"32800"	"0"	"0"	"1"	"0"	"0"
"213"	"디에고가 닫힌 뇌"	"41"	"483"	"32783"	"32809"	"0"	"0"	"1"	"10000"	"0"
"214"	"디에고가 닫힌 뇌"	"43"	"483"	"32782"	"32808"	"0"	"0"	"1"	"0"	"0"
"215"	"디에고가 닫힌 뇌"	"6"	"483"	"32789"	"32802"	"0"	"0"	"1"	"0"	"0"
"216"	"디에고가 닫힌 뇌"	"40"	"483"	"32793"	"32803"	"0"	"0"	"1"	"10000"	"0"
"217"	"디에고가 닫힌 뇌"	"6"	"483"	"32793"	"32801"	"0"	"0"	"1"	"0"	"0"
"218"	"디에고가 닫힌 뇌"	"39"	"483"	"32793"	"32799"	"0"	"0"	"1"	"10000"	"0"
"219"	"디에고가 닫힌 뇌"	"46"	"483"	"32795"	"32799"	"0"	"0"	"1"	"0"	"0"
"220"	"디에고가 닫힌 뇌"	"4"	"483"	"32783"	"32813"	"0"	"0"	"1"	"0"	"0"
"221"	"디에고가 닫힌 뇌"	"43"	"483"	"32782"	"32814"	"0"	"0"	"1"	"0"	"0"
"222"	"디에고가 닫힌 뇌"	"39"	"483"	"32783"	"32815"	"0"	"0"	"1"	"10000"	"0"
"223"	"디에고가 닫힌 뇌"	"6"	"483"	"32784"	"32814"	"0"	"0"	"1"	"0"	"0"
"224"	"디에고가 닫힌 뇌"	"41"	"483"	"32783"	"32815"	"0"	"0"	"1"	"10000"	"0"
"225"	"디에고가 닫힌 뇌"	"43"	"483"	"32779"	"32817"	"0"	"0"	"1"	"0"	"0"
"226"	"디에고가 닫힌 뇌"	"40"	"483"	"32780"	"32818"	"0"	"0"	"1"	"10000"	"0"
"227"	"디에고가 닫힌 뇌"	"39"	"483"	"32789"	"32813"	"0"	"0"	"1"	"10000"	"0"
"228"	"디에고가 닫힌 뇌"	"5"	"483"	"32788"	"32814"	"0"	"0"	"1"	"0"	"0"
"229"	"디에고가 닫힌 뇌"	"43"	"483"	"32789"	"32815"	"0"	"0"	"1"	"0"	"0"
"230"	"디에고가 닫힌 뇌"	"44"	"483"	"32790"	"32814"	"0"	"0"	"1"	"0"	"0"
"231"	"디에고가 닫힌 뇌"	"4"	"483"	"32786"	"32820"	"0"	"0"	"1"	"0"	"0"
"232"	"디에고가 닫힌 뇌"	"6"	"483"	"32787"	"32819"	"0"	"0"	"1"	"0"	"0"
"233"	"디에고가 닫힌 뇌"	"5"	"483"	"32795"	"32813"	"0"	"0"	"1"	"0"	"0"
"234"	"디에고가 닫힌 뇌"	"6"	"483"	"32794"	"32814"	"0"	"0"	"1"	"0"	"0"
"235"	"디에고가 닫힌 뇌"	"43"	"483"	"32796"	"32814"	"0"	"0"	"1"	"0"	"0"
"236"	"디에고가 닫힌 뇌"	"40"	"483"	"32795"	"32815"	"0"	"0"	"1"	"10000"	"0"
"237"	"디에고가 닫힌 뇌"	"3"	"483"	"32796"	"32810"	"0"	"0"	"1"	"0"	"0"
"238"	"디에고가 닫힌 뇌"	"39"	"483"	"32797"	"32811"	"0"	"0"	"1"	"10000"	"0"
"239"	"디에고가 닫힌 뇌"	"44"	"483"	"32791"	"32818"	"0"	"0"	"1"	"0"	"0"
"240"	"디에고가 닫힌 뇌"	"43"	"483"	"32791"	"32820"	"0"	"0"	"1"	"0"	"0"
"241"	"디에고가 닫힌 뇌"	"5"	"483"	"32792"	"32819"	"0"	"0"	"1"	"0"	"0"
"242"	"디에고가 닫힌 뇌"	"6"	"483"	"32796"	"32819"	"0"	"0"	"1"	"0"	"0"
"243"	"디에고가 닫힌 뇌"	"4"	"483"	"32797"	"32818"	"0"	"0"	"1"	"0"	"0"
"244"	"디에고가 닫힌 뇌"	"6"	"483"	"32798"	"32810"	"0"	"0"	"1"	"0"	"0"
"245"	"디에고가 닫힌 뇌"	"43"	"483"	"32799"	"32809"	"0"	"0"	"1"	"0"	"0"
"246"	"디에고가 닫힌 뇌"	"5"	"483"	"32799"	"32811"	"0"	"0"	"1"	"0"	"0"
"247"	"디에고가 닫힌 뇌"	"40"	"483"	"32800"	"32810"	"0"	"0"	"1"	"10000"	"0"
"248"	"디에고가 닫힌 뇌"	"6"	"483"	"32802"	"32809"	"0"	"0"	"1"	"0"	"0"
"249"	"디에고가 닫힌 뇌"	"43"	"483"	"32801"	"32808"	"0"	"0"	"1"	"0"	"0"
"250"	"디에고가 닫힌 뇌"	"41"	"483"	"32803"	"32808"	"0"	"0"	"1"	"10000"	"0"
"251"	"디에고가 닫힌 뇌"	"3"	"483"	"32802"	"32807"	"0"	"0"	"1"	"0"	"0"
"252"	"디에고가 닫힌 뇌"	"6"	"483"	"32807"	"32807"	"0"	"0"	"1"	"0"	"0"
"253"	"디에고가 닫힌 뇌"	"43"	"483"	"32806"	"32808"	"0"	"0"	"1"	"0"	"0"
"254"	"디에고가 닫힌 뇌"	"6"	"483"	"32800"	"32807"	"0"	"0"	"1"	"0"	"0"
"255"	"디에고가 닫힌 뇌"	"4"	"483"	"32800"	"32802"	"0"	"0"	"1"	"0"	"0"
"256"	"디에고가 닫힌 뇌"	"6"	"483"	"32803"	"32803"	"0"	"0"	"1"	"0"	"0"
"257"	"디에고가 닫힌 뇌"	"3"	"483"	"32804"	"32804"	"0"	"0"	"1"	"0"	"0"
"258"	"디에고가 닫힌 뇌"	"41"	"483"	"32803"	"32803"	"0"	"0"	"1"	"10000"	"0"
"259"	"디에고가 닫힌 뇌"	"43"	"483"	"32804"	"32802"	"0"	"0"	"1"	"0"	"0"
"260"	"디에고가 닫힌 뇌"	"6"	"483"	"32804"	"32800"	"0"	"0"	"1"	"0"	"0"
"261"	"디에고가 닫힌 뇌"	"43"	"483"	"32802"	"32800"	"0"	"0"	"1"	"0"	"0"
"262"	"디에고가 닫힌 뇌"	"39"	"483"	"32803"	"32799"	"0"	"0"	"1"	"10000"	"0"
"263"	"디에고가 닫힌 뇌"	"43"	"483"	"32802"	"32813"	"0"	"0"	"1"	"0"	"0"
"264"	"디에고가 닫힌 뇌"	"5"	"483"	"32806"	"32812"	"0"	"0"	"1"	"0"	"0"
"265"	"디에고가 닫힌 뇌"	"41"	"483"	"32807"	"32813"	"0"	"0"	"1"	"0"	"0"
"266"	"디에고가 닫힌 뇌"	"38"	"483"	"32808"	"32814"	"0"	"0"	"1"	"10000"	"0"
"267"	"디에고가 닫힌 뇌"	"6"	"483"	"32802"	"32815"	"0"	"0"	"1"	"0"	"0"
"268"	"디에고가 닫힌 뇌"	"5"	"483"	"32801"	"32816"	"0"	"0"	"1"	"0"	"0"
"269"	"디에고가 닫힌 뇌"	"43"	"483"	"32803"	"32816"	"0"	"0"	"1"	"0"	"0"
"270"	"디에고가 닫힌 뇌"	"43"	"483"	"32780"	"32837"	"0"	"0"	"1"	"0"	"0"
"271"	"디에고가 닫힌 뇌"	"5"	"483"	"32795"	"32847"	"0"	"0"	"1"	"0"	"0"
"272"	"디에고가 닫힌 뇌"	"5"	"483"	"32735"	"32831"	"0"	"0"	"1"	"0"	"0"
"273"	"디에고가 닫힌 뇌"	"43"	"483"	"32761"	"32807"	"0"	"0"	"1"	"0"	"0"
"274"	"디에고가 닫힌 뇌"	"38"	"483"	"32803"	"32814"	"0"	"0"	"1"	"10000"	"0"
"275"	"디에고가 닫힌 뇌"	"40"	"483"	"32805"	"32803"	"0"	"0"	"1"	"10000"	"0"
"276"	"디에고가 닫힌 뇌"	"5"	"483"	"32805"	"32898"	"0"	"0"	"1"	"0"	"0"
"277"	"디에고가 닫힌 뇌"	"4"	"483"	"32788"	"32927"	"0"	"0"	"1"	"0"	"0"
"278"	"디에고가 닫힌 뇌"	"5"	"483"	"32747"	"32864"	"0"	"0"	"1"	"0"	"0"
"279"	"디에고가 닫힌 뇌"	"5"	"483"	"32782"	"32907"	"0"	"0"	"1"	"0"	"0"
"280"	"디에고가 닫힌 뇌"	"5"	"483"	"32773"	"32880"	"0"	"0"	"1"	"0"	"0"
"281"	"디에고가 닫힌 뇌"	"5"	"483"	"32748"	"32914"	"0"	"0"	"1"	"0"	"0"
"282"	"호세의 지하소굴"	"5"	"484"	"32732"	"32821"	"0"	"0"	"1"	"0"	"0"
"283"	"호세의 지하소굴"	"39"	"484"	"32738"	"32821"	"0"	"0"	"1"	"10000"	"0"
"284"	"호세의 지하소굴"	"4"	"484"	"32759"	"32800"	"0"	"0"	"1"	"0"	"0"
"285"	"호세의 지하소굴"	"41"	"484"	"32769"	"32792"	"0"	"0"	"1"	"10000"	"0"
"286"	"호세의 지하소굴"	"6"	"484"	"32772"	"32793"	"0"	"0"	"1"	"0"	"0"
"287"	"호세의 지하소굴"	"39"	"484"	"32792"	"32796"	"0"	"0"	"1"	"10000"	"0"
"288"	"호세의 지하소굴"	"40"	"484"	"32807"	"32793"	"0"	"0"	"1"	"10000"	"0"
"289"	"호세의 지하소굴"	"2"	"484"	"32804"	"32796"	"0"	"0"	"1"	"10000"	"0"
"290"	"호세의 지하소굴"	"5"	"484"	"32801"	"32810"	"0"	"0"	"1"	"0"	"0"
"291"	"호세의 지하소굴"	"4"	"484"	"32806"	"32830"	"0"	"0"	"1"	"0"	"0"
"292"	"호세의 지하소굴"	"41"	"484"	"32792"	"32826"	"0"	"0"	"1"	"10000"	"0"
"293"	"호세의 지하소굴"	"5"	"484"	"32792"	"32841"	"0"	"0"	"1"	"0"	"0"
"294"	"호세의 지하소굴"	"40"	"484"	"32809"	"32846"	"0"	"0"	"1"	"10000"	"0"
"295"	"호세의 지하소굴"	"3"	"484"	"32787"	"32844"	"0"	"0"	"1"	"0"	"0"
"296"	"호세의 지하소굴"	"5"	"484"	"32784"	"32862"	"0"	"0"	"1"	"0"	"0"
"297"	"호세의 지하소굴"	"41"	"484"	"32779"	"32848"	"0"	"0"	"1"	"10000"	"0"
"298"	"호세의 지하소굴"	"45"	"484"	"32774"	"32828"	"0"	"0"	"1"	"0"	"0"
"299"	"호세의 지하소굴"	"39"	"484"	"32762"	"32845"	"0"	"0"	"1"	"10000"	"0"
"300"	"호세의 지하소굴"	"5"	"484"	"32763"	"32850"	"0"	"0"	"1"	"0"	"0"
"301"	"호세의 지하소굴"	"44"	"484"	"32761"	"32853"	"0"	"0"	"1"	"0"	"0"
"302"	"호세의 지하소굴"	"41"	"484"	"32779"	"32801"	"0"	"0"	"1"	"10000"	"0"
"303"	"도깨비 저택"	"44"	"5140"	"32818"	"32821"	"76"	"53"	"100"	"0"	"0"
"304"	"도깨비 저택"	"45"	"5140"	"32818"	"32821"	"76"	"53"	"100"	"0"	"0"
"305"	"도깨비 저택"	"46"	"5140"	"32818"	"32821"	"76"	"53"	"100"	"0"	"0"
"306"	"도깨비 저택"	"47"	"5140"	"32818"	"32821"	"76"	"53"	"100"	"0"	"0"
"307"	"도깨비 저택"	"48"	"5140"	"32818"	"32821"	"76"	"53"	"10"	"0"	"0"
"308"	"도깨비 저택"	"49"	"5140"	"32818"	"32821"	"76"	"53"	"10"	"0"	"0"
"309"	"도깨비 저택"	"50"	"5140"	"32818"	"32821"	"76"	"53"	"10"	"0"	"0"
"310"	"도깨비 저택"	"51"	"5140"	"32818"	"32821"	"76"	"53"	"10"	"0"	"0"
"311"	"도깨비 저택"	"52"	"5140"	"32818"	"32821"	"76"	"53"	"10"	"0"	"0"
"600"	"펫레이싱스타트라인"	"80"	"5143"	"32764"	"32845"	"0"	"0"	"1"	"0"	"0"
"601"	"펫레이싱스타트라인"	"80"	"5143"	"32764"	"32846"	"0"	"0"	"1"	"0"	"0"
"602"	"펫레이싱스타트라인"	"80"	"5143"	"32764"	"32847"	"0"	"0"	"1"	"0"	"0"
"603"	"펫레이싱스타트라인"	"80"	"5143"	"32764"	"32848"	"0"	"0"	"1"	"0"	"0"
"604"	"펫레이싱스타트라인"	"80"	"5143"	"32764"	"32849"	"0"	"0"	"1"	"0"	"0"
"605"	"펫레이싱스타트라인"	"80"	"5143"	"32764"	"32850"	"0"	"0"	"1"	"0"	"0"
"606"	"펫레이싱스타트라인"	"80"	"5143"	"32764"	"32851"	"0"	"0"	"1"	"0"	"0"
"607"	"펫레이싱스타트라인"	"80"	"5143"	"32764"	"32852"	"0"	"0"	"1"	"0"	"0"
"608"	"펫레이싱LAB1구간"	"81"	"5143"	"32742"	"32832"	"0"	"0"	"1"	"0"	"0"
"609"	"펫레이싱LAB1구간"	"81"	"5143"	"32741"	"32832"	"0"	"0"	"1"	"0"	"0"
"610"	"펫레이싱LAB1구간"	"81"	"5143"	"32740"	"32832"	"0"	"0"	"1"	"0"	"0"
"611"	"펫레이싱LAB1구간"	"81"	"5143"	"32739"	"32832"	"0"	"0"	"1"	"0"	"0"
"612"	"펫레이싱LAB1구간"	"81"	"5143"	"32738"	"32832"	"0"	"0"	"1"	"0"	"0"
"613"	"펫레이싱LAB1구간"	"81"	"5143"	"32737"	"32832"	"0"	"0"	"1"	"0"	"0"
"614"	"펫레이싱LAB1구간"	"81"	"5143"	"32736"	"32832"	"0"	"0"	"1"	"0"	"0"
"615"	"펫레이싱LAB1구간"	"81"	"5143"	"32735"	"32832"	"0"	"0"	"1"	"0"	"0"
"616"	"펫레이싱LAB2구간"	"82"	"5143"	"32770"	"32811"	"0"	"0"	"1"	"0"	"0"
"617"	"펫레이싱LAB2구간"	"82"	"5143"	"32770"	"32812"	"0"	"0"	"1"	"0"	"0"
"618"	"펫레이싱LAB2구간"	"82"	"5143"	"32770"	"32813"	"0"	"0"	"1"	"0"	"0"
"619"	"펫레이싱LAB2구간"	"82"	"5143"	"32770"	"32814"	"0"	"0"	"1"	"0"	"0"
"620"	"펫레이싱LAB2구간"	"82"	"5143"	"32770"	"32815"	"0"	"0"	"1"	"0"	"0"
"621"	"펫레이싱LAB2구간"	"82"	"5143"	"32770"	"32816"	"0"	"0"	"1"	"0"	"0"
"622"	"펫레이싱LAB2구간"	"82"	"5143"	"32770"	"32817"	"0"	"0"	"1"	"0"	"0"
"623"	"펫레이싱LAB2구간"	"82"	"5143"	"32770"	"32818"	"0"	"0"	"1"	"0"	"0"
"624"	"펫레이싱LAB3구간"	"83"	"5143"	"32800"	"32829"	"0"	"0"	"1"	"0"	"0"
"625"	"펫레이싱LAB3구간"	"83"	"5143"	"32799"	"32829"	"0"	"0"	"1"	"0"	"0"
"626"	"펫레이싱LAB3구간"	"83"	"5143"	"32798"	"32829"	"0"	"0"	"1"	"0"	"0"
"627"	"펫레이싱LAB3구간"	"83"	"5143"	"32797"	"32829"	"0"	"0"	"1"	"0"	"0"
"628"	"펫레이싱LAB3구간"	"83"	"5143"	"32796"	"32829"	"0"	"0"	"1"	"0"	"0"
"629"	"펫레이싱LAB3구간"	"83"	"5143"	"32795"	"32829"	"0"	"0"	"1"	"0"	"0"
"630"	"펫레이싱LAB3구간"	"83"	"5143"	"32794"	"32829"	"0"	"0"	"1"	"0"	"0"
"631"	"펫레이싱LAB3구간"	"83"	"5143"	"32793"	"32829"	"0"	"0"	"1"	"0"	"0"
"689"	"3-1체크포인트"	"94"	"5143"	"32797"	"32819"	"0"	"0"	"1"	"0"	"0"
"690"	"3-1체크포인트"	"94"	"5143"	"32798"	"32819"	"0"	"0"	"1"	"0"	"0"
"691"	"3-1체크포인트"	"94"	"5143"	"32799"	"32819"	"0"	"0"	"1"	"0"	"0"
"692"	"3-1체크포인트"	"94"	"5143"	"32800"	"32819"	"0"	"0"	"1"	"0"	"0"
"693"	"3-2체크포인트"	"95"	"5143"	"32790"	"32820"	"0"	"0"	"1"	"0"	"0"
"694"	"3-2체크포인트"	"95"	"5143"	"32791"	"32820"	"0"	"0"	"1"	"0"	"0"
"695"	"3-2체크포인트"	"95"	"5143"	"32792"	"32820"	"0"	"0"	"1"	"0"	"0"
"696"	"3-2체크포인트"	"95"	"5143"	"32793"	"32820"	"0"	"0"	"1"	"0"	"0"
"697"	"3-2체크포인트"	"95"	"5143"	"32794"	"32820"	"0"	"0"	"1"	"0"	"0"
"500"	"유령의집트랩"	"70"	"5140"	"32764"	"32789"	"0"	"0"	"1"	"0"	"6000"
"510"	"유령의집트랩"	"70"	"5140"	"32776"	"32797"	"0"	"0"	"1"	"0"	"6009"
"501"	"유령의집트랩"	"70"	"5140"	"32761"	"32799"	"0"	"0"	"1"	"0"	"6001"
"502"	"유령의집트랩"	"70"	"5140"	"32761"	"32808"	"0"	"0"	"1"	"0"	"6002"
"503"	"유령의집트랩"	"70"	"5140"	"32762"	"32817"	"0"	"0"	"1"	"0"	"6003"
"504"	"유령의집트랩"	"70"	"5140"	"32762"	"32821"	"0"	"0"	"1"	"0"	"6003"
"505"	"유령의집트랩"	"70"	"5140"	"32766"	"32828"	"0"	"0"	"1"	"0"	"6004"
"506"	"유령의집트랩"	"70"	"5140"	"32760"	"32839"	"0"	"0"	"1"	"0"	"6005"
"507"	"유령의집트랩"	"70"	"5140"	"32764"	"32849"	"0"	"0"	"1"	"0"	"6006"
"508"	"유령의집트랩"	"70"	"5140"	"32759"	"32858"	"0"	"0"	"1"	"0"	"6007"
"509"	"유령의집트랩"	"70"	"5140"	"32761"	"32868"	"0"	"0"	"1"	"0"	"6008"
"511"	"유령의집트랩"	"70"	"5140"	"32786"	"32788"	"0"	"0"	"1"	"0"	"6010"
"512"	"유령의집트랩"	"70"	"5140"	"32791"	"32803"	"0"	"0"	"1"	"0"	"6011"
"513"	"유령의집트랩"	"70"	"5140"	"32776"	"32816"	"0"	"0"	"1"	"0"	"6012"
"514"	"유령의집트랩"	"70"	"5140"	"32789"	"32818"	"0"	"0"	"1"	"0"	"6013"
"515"	"유령의집트랩"	"70"	"5140"	"32788"	"32831"	"0"	"0"	"1"	"0"	"6014"
"516"	"유령의집트랩"	"70"	"5140"	"32783"	"32854"	"0"	"0"	"1"	"0"	"6015"
"517"	"유령의집트랩"	"70"	"5140"	"32787"	"32873"	"0"	"0"	"1"	"0"	"6016"
"518"	"유령의집트랩"	"70"	"5140"	"32799"	"32868"	"0"	"0"	"1"	"0"	"6017"
"519"	"유령의집트랩"	"70"	"5140"	"32807"	"32874"	"0"	"0"	"1"	"0"	"6018"
"520"	"유령의집트랩"	"70"	"5140"	"32809"	"32859"	"0"	"0"	"1"	"0"	"6019"
"521"	"유령의집트랩"	"70"	"5140"	"32801"	"32850"	"0"	"0"	"1"	"0"	"6020"
"522"	"유령의집트랩"	"70"	"5140"	"32798"	"32812"	"0"	"0"	"1"	"0"	"6021"
"523"	"유령의집트랩"	"70"	"5140"	"32815"	"32791"	"0"	"0"	"1"	"0"	"6022"
"524"	"유령의집트랩"	"70"	"5140"	"32807"	"32801"	"0"	"0"	"1"	"0"	"6023"
"525"	"유령의집트랩"	"70"	"5140"	"32807"	"32805"	"0"	"0"	"1"	"0"	"6023"
"526"	"유령의집트랩"	"70"	"5140"	"32815"	"32819"	"0"	"0"	"1"	"0"	"6024"
"527"	"유령의집트랩"	"70"	"5140"	"32812"	"32829"	"0"	"0"	"1"	"0"	"6025"
"528"	"유령의집트랩"	"70"	"5140"	"32812"	"32833"	"0"	"0"	"1"	"0"	"6025"
"529"	"유령의집트랩"	"70"	"5140"	"32815"	"32839"	"0"	"0"	"1"	"0"	"6026"
"530"	"유령의집트랩"	"70"	"5140"	"32839"	"32788"	"0"	"0"	"1"	"0"	"6027"
"531"	"유령의집트랩"	"70"	"5140"	"32846"	"32795"	"0"	"0"	"1"	"0"	"6028"
"532"	"유령의집트랩"	"70"	"5140"	"32846"	"32799"	"0"	"0"	"1"	"0"	"6028"
"533"	"유령의집트랩"	"70"	"5140"	"32862"	"32787"	"0"	"0"	"1"	"0"	"6029"
"534"	"유령의집트랩"	"70"	"5140"	"32838"	"32807"	"0"	"0"	"1"	"0"	"6030"
"535"	"유령의집트랩"	"70"	"5140"	"32841"	"32817"	"0"	"0"	"1"	"0"	"6031"
"536"	"유령의집트랩"	"70"	"5140"	"32841"	"32821"	"0"	"0"	"1"	"0"	"6031"
"537"	"유령의집트랩"	"70"	"5140"	"32856"	"32814"	"0"	"0"	"1"	"0"	"6032"
"538"	"유령의집트랩"	"70"	"5140"	"32856"	"32818"	"0"	"0"	"1"	"0"	"6032"
"539"	"유령의집트랩"	"70"	"5140"	"32870"	"32814"	"0"	"0"	"1"	"0"	"6033"
"540"	"유령의집트랩"	"70"	"5140"	"32869"	"32818"	"0"	"0"	"1"	"0"	"6033"
"541"	"유령의집트랩"	"70"	"5140"	"32856"	"32829"	"0"	"0"	"1"	"0"	"6034"
"542"	"유령의집트랩"	"70"	"5140"	"32846"	"32833"	"0"	"0"	"1"	"0"	"6035"
"543"	"유령의집트랩"	"70"	"5140"	"32831"	"32828"	"0"	"0"	"1"	"0"	"6036"
"544"	"유령의집트랩"	"70"	"5140"	"32828"	"32846"	"0"	"0"	"1"	"0"	"6037"
"545"	"유령의집트랩"	"70"	"5140"	"32856"	"32842"	"0"	"0"	"1"	"0"	"6038"
"546"	"유령의집트랩"	"70"	"5140"	"32856"	"32846"	"0"	"0"	"1"	"0"	"6038"
"547"	"유령의집트랩"	"70"	"5140"	"32859"	"32853"	"0"	"0"	"1"	"0"	"6039"
"548"	"유령의집트랩"	"70"	"5140"	"32870"	"32842"	"0"	"0"	"1"	"0"	"6040"
"549"	"유령의집트랩"	"70"	"5140"	"32870"	"32846"	"0"	"0"	"1"	"0"	"6040"
"550"	"유령의집트랩"	"70"	"5140"	"32841"	"32863"	"0"	"0"	"1"	"0"	"6041"
"551"	"유령의집트랩"	"70"	"5140"	"32841"	"32867"	"0"	"0"	"1"	"0"	"6041"
"552"	"유령의집트랩"	"70"	"5140"	"32833"	"32875"	"0"	"0"	"1"	"0"	"6042"
"553"	"유령의집트랩"	"70"	"5140"	"32850"	"32873"	"0"	"0"	"1"	"0"	"6043"
"554"	"유령의집트랩결승점"	"71"	"5140"	"32872"	"32833"	"0"	"0"	"1"	"0"	"0"
"555"	"유령의집트랩결승점"	"71"	"5140"	"32872"	"32832"	"0"	"0"	"1"	"0"	"0"
"556"	"유령의집트랩결승점"	"71"	"5140"	"32872"	"32831"	"0"	"0"	"1"	"0"	"0"
"557"	"유령의집트랩결승점"	"71"	"5140"	"32872"	"32830"	"0"	"0"	"1"	"0"	"0"
"558"	"유령의집트랩결승점"	"71"	"5140"	"32872"	"32829"	"0"	"0"	"1"	"0"	"0"
"559"	"유령의집트랩결승점"	"71"	"5140"	"32872"	"32828"	"0"	"0"	"1"	"0"	"0"
"560"	"유령의집트랩결승점"	"71"	"5140"	"32872"	"32827"	"0"	"0"	"1"	"0"	"0"
"698"	"3-2체크포인트"	"95"	"5143"	"32795"	"32820"	"0"	"0"	"1"	"0"	"0"
"688"	"3-1체크포인트"	"94"	"5143"	"32796"	"32819"	"0"	"0"	"1"	"0"	"0"
"687"	"3-1체크포인트"	"94"	"5143"	"32795"	"32819"	"0"	"0"	"1"	"0"	"0"
"686"	"3-1체크포인트"	"94"	"5143"	"32794"	"32819"	"0"	"0"	"1"	"0"	"0"
"680"	"2-2체크포인트"	"93"	"5143"	"32744"	"32812"	"0"	"0"	"1"	"0"	"0"
"681"	"2-2체크포인트"	"93"	"5143"	"32744"	"32811"	"0"	"0"	"1"	"0"	"0"
"682"	"3-1체크포인트"	"94"	"5143"	"32790"	"32819"	"0"	"0"	"1"	"0"	"0"
"683"	"3-1체크포인트"	"94"	"5143"	"32791"	"32819"	"0"	"0"	"1"	"0"	"0"
"684"	"3-1체크포인트"	"94"	"5143"	"32792"	"32819"	"0"	"0"	"1"	"0"	"0"
"685"	"3-1체크포인트"	"94"	"5143"	"32793"	"32819"	"0"	"0"	"1"	"0"	"0"
"670"	"2-1체크포인트"	"92"	"5143"	"32743"	"32811"	"0"	"0"	"1"	"0"	"0"
"671"	"2-2체크포인트"	"93"	"5143"	"32744"	"32821"	"0"	"0"	"1"	"0"	"0"
"672"	"2-2체크포인트"	"93"	"5143"	"32744"	"32820"	"0"	"0"	"1"	"0"	"0"
"673"	"2-2체크포인트"	"93"	"5143"	"32744"	"32819"	"0"	"0"	"1"	"0"	"0"
"674"	"2-2체크포인트"	"93"	"5143"	"32744"	"32818"	"0"	"0"	"1"	"0"	"0"
"675"	"2-2체크포인트"	"93"	"5143"	"32744"	"32817"	"0"	"0"	"1"	"0"	"0"
"676"	"2-2체크포인트"	"93"	"5143"	"32744"	"32816"	"0"	"0"	"1"	"0"	"0"
"677"	"2-2체크포인트"	"93"	"5143"	"32744"	"32815"	"0"	"0"	"1"	"0"	"0"
"678"	"2-2체크포인트"	"93"	"5143"	"32744"	"32814"	"0"	"0"	"1"	"0"	"0"
"679"	"2-2체크포인트"	"93"	"5143"	"32744"	"32813"	"0"	"0"	"1"	"0"	"0"
"667"	"2-1체크포인트"	"92"	"5143"	"32743"	"32814"	"0"	"0"	"1"	"0"	"0"
"668"	"2-1체크포인트"	"92"	"5143"	"32743"	"32813"	"0"	"0"	"1"	"0"	"0"
"669"	"2-1체크포인트"	"92"	"5143"	"32743"	"32812"	"0"	"0"	"1"	"0"	"0"
"640"	"1-1체크포인트"	"90"	"5143"	"32735"	"32845"	"0"	"0"	"1"	"0"	"0"
"641"	"1-1체크포인트"	"90"	"5143"	"32736"	"32845"	"0"	"0"	"1"	"0"	"0"
"642"	"1-1체크포인트"	"90"	"5143"	"32737"	"32845"	"0"	"0"	"1"	"0"	"0"
"643"	"1-1체크포인트"	"90"	"5143"	"32738"	"32845"	"0"	"0"	"1"	"0"	"0"
"644"	"1-1체크포인트"	"90"	"5143"	"32739"	"32845"	"0"	"0"	"1"	"0"	"0"
"645"	"1-1체크포인트"	"90"	"5143"	"32740"	"32845"	"0"	"0"	"1"	"0"	"0"
"646"	"1-1체크포인트"	"90"	"5143"	"32741"	"32845"	"0"	"0"	"1"	"0"	"0"
"647"	"1-1체크포인트"	"90"	"5143"	"32742"	"32845"	"0"	"0"	"1"	"0"	"0"
"648"	"1-1체크포인트"	"90"	"5143"	"32743"	"32845"	"0"	"0"	"1"	"0"	"0"
"649"	"1-1체크포인트"	"90"	"5143"	"32744"	"32845"	"0"	"0"	"1"	"0"	"0"
"650"	"1-2체크포인트"	"91"	"5143"	"32735"	"32844"	"0"	"0"	"1"	"0"	"0"
"651"	"1-2체크포인트"	"91"	"5143"	"32736"	"32844"	"0"	"0"	"1"	"0"	"0"
"652"	"1-2체크포인트"	"91"	"5143"	"32737"	"32844"	"0"	"0"	"1"	"0"	"0"
"653"	"1-2체크포인트"	"91"	"5143"	"32738"	"32844"	"0"	"0"	"1"	"0"	"0"
"654"	"1-2체크포인트"	"91"	"5143"	"32739"	"32844"	"0"	"0"	"1"	"0"	"0"
"655"	"1-2체크포인트"	"91"	"5143"	"32740"	"32844"	"0"	"0"	"1"	"0"	"0"
"656"	"1-2체크포인트"	"91"	"5143"	"32741"	"32844"	"0"	"0"	"1"	"0"	"0"
"657"	"1-2체크포인트"	"91"	"5143"	"32742"	"32844"	"0"	"0"	"1"	"0"	"0"
"658"	"1-2체크포인트"	"91"	"5143"	"32743"	"32844"	"0"	"0"	"1"	"0"	"0"
"659"	"1-2체크포인트"	"91"	"5143"	"32744"	"32844"	"0"	"0"	"1"	"0"	"0"
"660"	"2-1체크포인트"	"92"	"5143"	"32743"	"32821"	"0"	"0"	"1"	"0"	"0"
"661"	"2-1체크포인트"	"92"	"5143"	"32743"	"32820"	"0"	"0"	"1"	"0"	"0"
"662"	"2-1체크포인트"	"92"	"5143"	"32743"	"32819"	"0"	"0"	"1"	"0"	"0"
"663"	"2-1체크포인트"	"92"	"5143"	"32743"	"32818"	"0"	"0"	"1"	"0"	"0"
"664"	"2-1체크포인트"	"92"	"5143"	"32743"	"32817"	"0"	"0"	"1"	"0"	"0"
"665"	"2-1체크포인트"	"92"	"5143"	"32743"	"32816"	"0"	"0"	"1"	"0"	"0"
"666"	"2-1체크포인트"	"92"	"5143"	"32743"	"32815"	"0"	"0"	"1"	"0"	"0"
"699"	"3-2체크포인트"	"95"	"5143"	"32796"	"32820"	"0"	"0"	"1"	"0"	"0"
"700"	"3-2체크포인트"	"95"	"5143"	"32797"	"32820"	"0"	"0"	"1"	"0"	"0"
"701"	"3-2체크포인트"	"95"	"5143"	"32798"	"32820"	"0"	"0"	"1"	"0"	"0"
"702"	"3-2체크포인트"	"95"	"5143"	"32799"	"32820"	"0"	"0"	"1"	"0"	"0"
"703"	"3-2체크포인트"	"95"	"5143"	"32800"	"32820"	"0"	"0"	"1"	"0"	"0"
"704"	"4-1체크포인트"	"96"	"5143"	"32792"	"32843"	"0"	"0"	"1"	"0"	"0"
"705"	"4-1체크포인트"	"96"	"5143"	"32792"	"32844"	"0"	"0"	"1"	"0"	"0"
"706"	"4-1체크포인트"	"96"	"5143"	"32792"	"32845"	"0"	"0"	"1"	"0"	"0"
"707"	"4-1체크포인트"	"96"	"5143"	"32792"	"32846"	"0"	"0"	"1"	"0"	"0"
"708"	"4-1체크포인트"	"96"	"5143"	"32792"	"32847"	"0"	"0"	"1"	"0"	"0"
"709"	"4-1체크포인트"	"96"	"5143"	"32792"	"32848"	"0"	"0"	"1"	"0"	"0"
"710"	"4-1체크포인트"	"96"	"5143"	"32792"	"32849"	"0"	"0"	"1"	"0"	"0"
"711"	"4-1체크포인트"	"96"	"5143"	"32792"	"32850"	"0"	"0"	"1"	"0"	"0"
"712"	"4-1체크포인트"	"96"	"5143"	"32792"	"32851"	"0"	"0"	"1"	"0"	"0"
"713"	"4-1체크포인트"	"96"	"5143"	"32792"	"32852"	"0"	"0"	"1"	"0"	"0"
"714"	"4-2체크포인트"	"97"	"5143"	"32791"	"32843"	"0"	"0"	"1"	"0"	"0"
"715"	"4-2체크포인트"	"97"	"5143"	"32791"	"32844"	"0"	"0"	"1"	"0"	"0"
"716"	"4-2체크포인트"	"97"	"5143"	"32791"	"32845"	"0"	"0"	"1"	"0"	"0"
"717"	"4-2체크포인트"	"97"	"5143"	"32791"	"32846"	"0"	"0"	"1"	"0"	"0"
"718"	"4-2체크포인트"	"97"	"5143"	"32791"	"32847"	"0"	"0"	"1"	"0"	"0"
"719"	"4-2체크포인트"	"97"	"5143"	"32791"	"32848"	"0"	"0"	"1"	"0"	"0"
"720"	"4-2체크포인트"	"97"	"5143"	"32791"	"32849"	"0"	"0"	"1"	"0"	"0"
"721"	"4-2체크포인트"	"97"	"5143"	"32791"	"32850"	"0"	"0"	"1"	"0"	"0"
"722"	"4-2체크포인트"	"97"	"5143"	"32791"	"32851"	"0"	"0"	"1"	"0"	"0"
"723"	"4-2체크포인트"	"97"	"5143"	"32791"	"32852"	"0"	"0"	"1"	"0"	"0"
"726"	"변신트랩"	"85"	"5143"	"32741"	"32840"	"0"	"0"	"1"	"0"	"0"
"725"	"변신트랩"	"86"	"5143"	"32740"	"32840"	"0"	"0"	"1"	"0"	"0"
"727"	"변신트랩"	"86"	"5143"	"32738"	"32840"	"0"	"0"	"1"	"0"	"0"
"728"	"변신트랩"	"85"	"5143"	"32739"	"32840"	"0"	"0"	"1"	"0"	"0"
"729"	"변신트랩"	"86"	"5143"	"32736"	"32840"	"0"	"0"	"1"	"0"	"0"
"730"	"변신트랩"	"85"	"5143"	"32737"	"32840"	"0"	"0"	"1"	"0"	"0"
"731"	"변신트랩"	"85"	"5143"	"32749"	"32811"	"0"	"0"	"1"	"0"	"0"
"732"	"변신트랩"	"86"	"5143"	"32749"	"32812"	"0"	"0"	"1"	"0"	"0"
"733"	"변신트랩"	"85"	"5143"	"32749"	"32813"	"0"	"0"	"1"	"0"	"0"
"734"	"변신트랩"	"86"	"5143"	"32749"	"32814"	"0"	"0"	"1"	"0"	"0"
"735"	"변신트랩"	"85"	"5143"	"32749"	"32815"	"0"	"0"	"1"	"0"	"0"
"736"	"변신트랩"	"86"	"5143"	"32749"	"32816"	"0"	"0"	"1"	"0"	"0"
"737"	"변신트랩"	"85"	"5143"	"32749"	"32817"	"0"	"0"	"1"	"0"	"0"
"738"	"변신트랩"	"86"	"5143"	"32749"	"32818"	"0"	"0"	"1"	"0"	"0"
"739"	"변신트랩"	"85"	"5143"	"32790"	"32812"	"0"	"0"	"1"	"0"	"0"
"740"	"변신트랩"	"86"	"5143"	"32790"	"32813"	"0"	"0"	"1"	"0"	"0"
"741"	"변신트랩"	"86"	"5143"	"32789"	"32813"	"0"	"0"	"1"	"0"	"0"
"742"	"변신트랩"	"85"	"5143"	"32794"	"32831"	"0"	"0"	"1"	"0"	"0"
"743"	"변신트랩"	"86"	"5143"	"32794"	"32832"	"0"	"0"	"1"	"0"	"0"
"744"	"변신트랩"	"86"	"5143"	"32793"	"32832"	"0"	"0"	"1"	"0"	"0"
"745"	"속도트랩"	"87"	"5143"	"32748"	"32845"	"0"	"0"	"1"	"0"	"0"
"746"	"속도트랩"	"88"	"5143"	"32748"	"32846"	"0"	"0"	"1"	"0"	"0"
"747"	"속도트랩"	"87"	"5143"	"32748"	"32847"	"0"	"0"	"1"	"0"	"0"
"748"	"속도트랩"	"88"	"5143"	"32748"	"32848"	"0"	"0"	"1"	"0"	"0"
"749"	"속도트랩"	"87"	"5143"	"32748"	"32849"	"0"	"0"	"1"	"0"	"0"
"750"	"속도트랩"	"88"	"5143"	"32748"	"32850"	"0"	"0"	"1"	"0"	"0"
"751"	"속도트랩"	"87"	"5143"	"32748"	"32851"	"0"	"0"	"1"	"0"	"0"
"752"	"속도트랩"	"88"	"5143"	"32748"	"32852"	"0"	"0"	"1"	"0"	"0"
"753"	"속도트랩"	"87"	"5143"	"32762"	"32811"	"0"	"0"	"1"	"0"	"0"
"754"	"속도트랩"	"88"	"5143"	"32762"	"32812"	"0"	"0"	"1"	"0"	"0"
"755"	"속도트랩"	"88"	"5143"	"32761"	"32812"	"0"	"0"	"1"	"0"	"0"
"756"	"속도트랩"	"87"	"5143"	"32800"	"32830"	"0"	"0"	"1"	"0"	"0"
"757"	"속도트랩"	"88"	"5143"	"32800"	"32831"	"0"	"0"	"1"	"0"	"0"
"758"	"속도트랩"	"88"	"5143"	"32799"	"32831"	"0"	"0"	"1"	"0"	"0"
"759"	"본던2층 Zombie 트랩"	"101"	"808"	"32765"	"32758"	"36"	"34"	"1"	"30000"	"0"
"760"	"본던2층 셀로브 트랩"	"107"	"808"	"32765"	"32758"	"36"	"34"	"1"	"30000"	"0"
"761"	"본던3층 Skeleton Axeman 트랩"	"103"	"809"	"32771"	"32769"	"40"	"42"	"1"	"30000"	"0"
"762"	"본던3층 Skeleton Pikeman 트랩"	"105"	"809"	"32771"	"32769"	"40"	"42"	"1"	"30000"	"0"
"763"	"본던4층 Skeleton Archer 트랩"	"104"	"810"	"32757"	"32761"	"27"	"36"	"1"	"30000"	"0"
"764"	"본던4층 Ghoul 트랩"	"106"	"810"	"32757"	"32761"	"27"	"36"	"1"	"30000"	"0"
"765"	"본던5층 웅골 트랩"	"102"	"811"	"32767"	"32767"	"43"	"42"	"1"	"30000"	"0"
"766"	"본던5층 켈베 트랩"	"109"	"811"	"32767"	"32767"	"43"	"42"	"1"	"30000"	"0"
"767"	"본던6층 켈베 트랩"	"109"	"812"	"32768"	"32766"	"45"	"43"	"1"	"30000"	"0"
"768"	"본던6층 버그 트랩"	"108"	"812"	"32768"	"32766"	"45"	"43"	"1"	"30000"	"0"
"769"	"본던7층 켈베 트랩"	"109"	"813"	"32759"	"32765"	"38"	"42"	"1"	"30000"	"0"
"770"	"본던7층 버그 트랩"	"108"	"813"	"32759"	"32765"	"38"	"42"	"1"	"30000"	"0"
"771"	"본던3층 돌골렘 트랩"	"110"	"809"	"32771"	"32769"	"40"	"42"	"1"	"30000"	"0"
"772"	"본던4층 버그 트랩"	"108"	"810"	"32757"	"32761"	"27"	"36"	"1"	"30000"	"0"
"773"	"본던5층 버그 트랩"	"109"	"811"	"32767"	"32767"	"43"	"42"	"1"	"30000"	"0"
"774"	"본던6층 킹버그 트랩"	"111"	"812"	"32768"	"32766"	"45"	"43"	"1"	"30000"	"0"
"775"	"본던7층 킹버그 트랩"	"111"	"813"	"32759"	"32765"	"38"	"42"	"1"	"30000"	"0"
