"id"	"type"	"location"	"npc_id"	"count"	"locx"	"locy"	"heading"
"382"	"0"	"마법진 이미지"	"5000135"	"1"	"32801"	"32862"	"0"
"1"	"1"	"봉인술사"	"100748"	"1"	"32798"	"32862"	"2"
"2"	"1"	"봉인술사"	"100748"	"1"	"32801"	"32865"	"0"
"3"	"1"	"봉인술사"	"100748"	"1"	"32804"	"32859"	"5"
"4"	"1"	"중앙사원 Guard"	"100747"	"1"	"32797"	"32863"	"4"
"5"	"1"	"중앙사원 Guard"	"100747"	"1"	"32801"	"32866"	"4"
"6"	"2"	"몽환의 포르시스"	"100750"	"5"	"32801"	"32841"	"4"
"7"	"2"	"몽환의 베네보스"	"100751"	"5"	"32798"	"32841"	"4"
"8"	"3"	"몽환의 Medusa"	"100752"	"5"	"32823"	"32861"	"0"
"9"	"3"	"몽환의 Scorpion"	"100753"	"5"	"32823"	"32863"	"0"
"10"	"4"	"몽환의 페르페르"	"100754"	"5"	"32801"	"32883"	"0"
"11"	"4"	"몽환의 코트룻"	"100755"	"5"	"32799"	"32883"	"0"
"12"	"5"	"몽환의 비아"	"100756"	"5"	"32781"	"32861"	"0"
"13"	"5"	"몽환의 메가"	"100757"	"5"	"32781"	"32863"	"0"
