"id"	"type"	"location"	"npc_id"	"locx"	"locy"	"heading"
"1"	"0"	"폭포"	"100007"	"32717"	"32914"	"4"
"2"	"0"	"시빌레"	"100008"	"32736"	"32864"	"5"
"3"	"0"	"프레디"	"100009"	"32734"	"32878"	"5"
"4"	"0"	"레어입구"	"100010"	"32748"	"32868"	"5"
"5"	"1"	"린드1차"	"100012"	"32851"	"32871"	"4"
"6"	"2"	"린드2차 왼쪽"	"100013"	"32847"	"32856"	"4"
"7"	"2"	"린드2차 가운데"	"100013"	"32862"	"32861"	"5"
"8"	"2"	"린드2차 오른쪽"	"100013"	"32868"	"32875"	"6"
"9"	"3"	"린드3차"	"100014"	"32851"	"32871"	"4"
"10"	"4"	"구름 대정령"	"100016"	"32859"	"32880"	"6"
"11"	"0"	"젠도르"	"4203000"	"32729"	"32861"	"4"
"12"	"0"	"Gunther"	"100632"	"32726"	"32866"	"4"
