"id"	"ub_id"	"pattern"	"group_id"	"location"	"npc_templateid"	"count"	"spawn_delay"	"seal_count"
"1"	"1"	"1"	"1"	"Maino"	"450797"	"10"	"3"	"0"
"2"	"1"	"1"	"1"	"Maino"	"450797"	"10"	"3"	"0"
"3"	"1"	"1"	"1"	"Maino"	"450797"	"10"	"3"	"0"
"4"	"1"	"1"	"1"	"블루 Harpy"	"450799"	"10"	"10"	"0"
"5"	"1"	"1"	"1"	"블루 Harpy"	"450799"	"10"	"10"	"0"
"6"	"1"	"1"	"1"	"블루 Harpy"	"450799"	"10"	"10"	"0"
"7"	"1"	"1"	"1"	"Harpy"	"450793"	"10"	"10"	"0"
"8"	"1"	"1"	"1"	"Harpy"	"450793"	"10"	"10"	"0"
"9"	"1"	"1"	"1"	"Harpy"	"450793"	"10"	"10"	"0"
"10"	"1"	"1"	"1"	"페르페르"	"450794"	"10"	"10"	"0"
"11"	"1"	"1"	"1"	"페르페르"	"450794"	"10"	"10"	"0"
"12"	"1"	"1"	"1"	"페르페르"	"450794"	"10"	"10"	"0"
"13"	"1"	"1"	"1"	"펠리컬"	"450795"	"10"	"10"	"0"
"14"	"1"	"1"	"1"	"펠리컬"	"450795"	"10"	"10"	"0"
"15"	"1"	"1"	"1"	"펠리컬"	"450795"	"10"	"10"	"0"
"16"	"1"	"1"	"1"	"펠리컬"	"450795"	"10"	"10"	"0"
"17"	"1"	"1"	"1"	"Wyvern"	"450801"	"10"	"10"	"0"
"18"	"1"	"1"	"1"	"Wyvern"	"450801"	"10"	"10"	"0"
"19"	"1"	"1"	"1"	"Wyvern"	"450801"	"10"	"10"	"0"
"20"	"1"	"1"	"1"	"독침 Killer Bee"	"450792"	"10"	"10"	"0"
"21"	"1"	"1"	"1"	"독침 Killer Bee"	"450792"	"10"	"10"	"0"
"22"	"1"	"1"	"1"	"독침 Killer Bee"	"450792"	"10"	"10"	"0"
"23"	"1"	"1"	"1"	"독침 Killer Bee"	"450792"	"10"	"10"	"0"
"24"	"1"	"1"	"1"	"테라 드래곤(Wind)"	"450800"	"10"	"10"	"0"
"25"	"1"	"1"	"1"	"테라 드래곤(Wind)"	"450800"	"10"	"10"	"0"
"26"	"1"	"1"	"1"	"테라 드래곤(Wind)"	"450800"	"10"	"10"	"0"
"27"	"1"	"1"	"2"	"Maino Shaman"	"450802"	"2"	"10"	"1"
"28"	"1"	"1"	"3"	"Earth Spirit Guardian"	"100903"	"10"	"10"	"0"
"29"	"1"	"1"	"3"	"Water Spirit Guardian"	"100902"	"10"	"10"	"0"
"30"	"1"	"1"	"3"	"Wind Spirit Guardian"	"100901"	"10"	"10"	"0"
"31"	"1"	"1"	"3"	"Earth Spirit Guardian"	"100903"	"10"	"10"	"0"
"32"	"1"	"1"	"3"	"Water Spirit Guardian"	"100902"	"10"	"10"	"0"
"33"	"1"	"1"	"3"	"Wind Spirit Guardian"	"100901"	"10"	"10"	"0"
"34"	"1"	"1"	"3"	"Fire Spirit Guardian"	"100714"	"10"	"10"	"0"
"35"	"1"	"1"	"3"	"Dark Spirit Guardian"	"100715"	"10"	"10"	"0"
"36"	"1"	"1"	"3"	"Darkness Avenger"	"100713"	"10"	"10"	"0"
"37"	"1"	"1"	"3"	"Blood Rain Knight"	"100712"	"10"	"10"	"0"
"38"	"1"	"1"	"3"	"Dark Lord"	"100711"	"10"	"10"	"0"
"39"	"1"	"1"	"3"	"Blood of Necromancer"	"100714"	"10"	"10"	"0"
"40"	"1"	"1"	"3"	"Phantom Knight"	"100715"	"10"	"10"	"0"
"41"	"1"	"1"	"3"	"Assassin of Blood"	"100713"	"10"	"10"	"0"
"42"	"1"	"1"	"3"	"Phantom Knight"	"100712"	"10"	"10"	"0"
"43"	"1"	"1"	"3"	"Assassin of Blood"	"100711"	"10"	"10"	"0"
"44"	"1"	"1"	"3"	"Darkness Avenger"	"100715"	"10"	"10"	"0"
"45"	"1"	"1"	"3"	"Blood Rain Knight"	"100713"	"10"	"10"	"0"
"46"	"1"	"1"	"3"	"Dark Lord"	"100712"	"10"	"10"	"0"
"47"	"1"	"1"	"3"	"Blood of Necromancer"	"100711"	"10"	"10"	"0"
"48"	"1"	"1"	"4"	"Phoenix"	"45617"	"1"	"10"	"2"
"50"	"1"	"1"	"5"	"Fire Archer"	"100819"	"10"	"10"	"0"
"51"	"1"	"1"	"5"	"Fire Archer"	"100819"	"10"	"10"	"0"
"52"	"1"	"1"	"5"	"마그마 Golem"	"7310091"	"5"	"10"	"0"
"53"	"1"	"1"	"5"	"마그마 Golem"	"7310091"	"5"	"10"	"0"
"54"	"1"	"1"	"5"	"암흑룡의 Guardian"	"20416"	"10"	"10"	"0"
"55"	"1"	"1"	"5"	"암흑룡의 Guardian"	"20416"	"10"	"10"	"0"
"56"	"1"	"1"	"5"	"Fire Spirit Master"	"45594"	"10"	"10"	"0"
"57"	"1"	"1"	"5"	"Fire Spirit Master"	"45594"	"10"	"10"	"0"
"58"	"1"	"1"	"5"	"Ice Queen"	"46141"	"1"	"10"	"0"
"59"	"1"	"1"	"5"	"Ice Queen"	"46141"	"1"	"10"	"0"
"60"	"1"	"1"	"5"	"Ice Demon"	"46142"	"1"	"10"	"0"
"61"	"1"	"1"	"5"	"Ice Demon"	"46142"	"1"	"10"	"0"
"62"	"1"	"1"	"5"	"왜곡의 지아니"	"7310000"	"5"	"10"	"0"
"63"	"1"	"1"	"5"	"Horrific 알카리"	"7310002"	"5"	"10"	"0"
"64"	"1"	"1"	"5"	"죽음의 류크"	"7310003"	"5"	"10"	"0"
"65"	"1"	"1"	"5"	"지옥의 발보아"	"7310004"	"5"	"10"	"0"
"66"	"1"	"1"	"5"	"불사의 카이저"	"7310005"	"5"	"10"	"0"
"67"	"1"	"1"	"5"	"Cruel 카운터"	"7310006"	"5"	"10"	"0"
"68"	"1"	"1"	"5"	"Dark Vekadoo"	"7310007"	"5"	"10"	"0"
"69"	"1"	"1"	"5"	"불멸의 라쿠카"	"7310008"	"5"	"10"	"0"
"70"	"1"	"1"	"5"	"Vampire"	"45604"	"10"	"10"	"0"
"71"	"1"	"1"	"5"	"머미 로드"	"45616"	"10"	"10"	"0"
"72"	"1"	"1"	"5"	"Iris"	"45595"	"10"	"10"	"0"
"73"	"1"	"1"	"5"	"Knight Vald"	"45664"	"10"	"10"	"0"
"74"	"1"	"1"	"5"	"Cougar"	"101023"	"10"	"10"	"0"
"75"	"1"	"1"	"5"	"Zombie Lord"	"45589"	"10"	"10"	"0"
"76"	"1"	"1"	"5"	"Fire Master"	"7310092"	"3"	"10"	"0"
"77"	"1"	"1"	"6"	"사신 그림 Reaper"	"910088"	"1"	"10"	"3"
"49"	"1"	"1"	"4"	"Ifrit"	"45516"	"1"	"10"	"2"
"78"	"1"	"1"	"5"	"아크모"	"7123"	"3"	"3"	"0"
"79"	"1"	"1"	"5"	"Death"	"45674"	"3"	"3"	"0"
