"id"	"type"	"location"	"npc_id"	"locx"	"locy"	"heading"	"count"	"range"
"1"	"0"	"다리1"	"100833"	"32654"	"33002"	"0"	"1"	"1"
"2"	"0"	"다리2"	"100834"	"32694"	"33054"	"0"	"1"	"1"
"3"	"0"	"다리3"	"100835"	"32736"	"33008"	"0"	"1"	"1"
"4"	"0"	"푸른불꽃1"	"100836"	"32613"	"33055"	"0"	"1"	"1"
"5"	"0"	"푸른불꽃2"	"100836"	"32609"	"33045"	"0"	"1"	"1"
"6"	"0"	"푸른불꽃3"	"100836"	"32616"	"33035"	"3"	"1"	"1"
"7"	"0"	"푸른불꽃4"	"100836"	"32623"	"33020"	"0"	"1"	"1"
"8"	"0"	"푸른불꽃5"	"100836"	"32628"	"33007"	"0"	"1"	"1"
"9"	"0"	"푸른불꽃6"	"100836"	"32628"	"32998"	"0"	"1"	"1"
"10"	"0"	"푸른불꽃7"	"100836"	"32666"	"33000"	"0"	"1"	"1"
"11"	"0"	"푸른불꽃8"	"100836"	"32669"	"33014"	"0"	"1"	"1"
"12"	"0"	"푸른불꽃9"	"100836"	"32673"	"33030"	"0"	"1"	"1"
"13"	"0"	"푸른불꽃10"	"100836"	"32681"	"33040"	"0"	"1"	"1"
"14"	"0"	"푸른불꽃11"	"100836"	"32691"	"33041"	"0"	"1"	"1"
"15"	"0"	"푸른불꽃12"	"100836"	"32690"	"33054"	"0"	"1"	"1"
"16"	"0"	"푸른불꽃13"	"100836"	"32706"	"33052"	"0"	"1"	"1"
"17"	"0"	"푸른불꽃14"	"100836"	"32717"	"33043"	"0"	"1"	"1"
"18"	"0"	"푸른불꽃15"	"100836"	"32730"	"33034"	"0"	"1"	"1"
"19"	"0"	"푸른불꽃16"	"100836"	"32735"	"33018"	"0"	"1"	"1"
"20"	"0"	"푸른불꽃17"	"100836"	"32741"	"33018"	"0"	"1"	"1"
"21"	"0"	"푸른불꽃18"	"100836"	"32747"	"32983"	"0"	"1"	"1"
"22"	"0"	"푸른불꽃19"	"100836"	"32747"	"32990"	"0"	"1"	"1"
"23"	"0"	"파이어애그"	"100842"	"32619"	"32993"	"0"	"10"	"20"
"24"	"0"	"Warrior"	"100840"	"32619"	"32993"	"0"	"8"	"20"
"25"	"0"	"Archer"	"100841"	"32619"	"32993"	"0"	"5"	"20"
"26"	"0"	"파이어애그"	"100842"	"32627"	"33029"	"0"	"5"	"10"
"27"	"0"	"Warrior"	"100840"	"32627"	"33029"	"0"	"8"	"10"
"28"	"0"	"Archer"	"100841"	"32627"	"33029"	"0"	"5"	"10"
"29"	"0"	"파이어애그"	"100842"	"32641"	"32999"	"0"	"5"	"5"
"30"	"0"	"Warrior"	"100840"	"32641"	"32999"	"0"	"3"	"5"
"31"	"0"	"Archer"	"100841"	"32641"	"32999"	"0"	"3"	"5"
"32"	"0"	"레오1"	"100837"	"32641"	"32999"	"0"	"1"	"1"
"33"	"1"	"파이어애그"	"100842"	"32694"	"32991"	"0"	"10"	"20"
"34"	"1"	"Astagio"	"100843"	"32694"	"32991"	"0"	"8"	"20"
"35"	"1"	"베네보스"	"100846"	"32694"	"32991"	"0"	"8"	"20"
"36"	"1"	"파이어애그"	"100842"	"32675"	"33033"	"0"	"10"	"20"
"37"	"1"	"Astagio"	"100843"	"32675"	"33033"	"0"	"8"	"20"
"38"	"1"	"베네보스"	"100846"	"32675"	"33033"	"0"	"8"	"20"
"39"	"1"	"파이어애그"	"100842"	"32686"	"33047"	"0"	"5"	"5"
"40"	"1"	"Astagio"	"100843"	"32686"	"33047"	"0"	"3"	"5"
"41"	"1"	"베네보스"	"100846"	"32686"	"33047"	"0"	"3"	"5"
"42"	"1"	"레오2"	"100838"	"32686"	"33047"	"0"	"1"	"1"
"43"	"2"	"파이어애그"	"100842"	"32730"	"33046"	"0"	"15"	"25"
"44"	"2"	"라바골렘"	"100844"	"32730"	"33046"	"0"	"10"	"25"
"45"	"2"	"Phoenix"	"100845"	"32730"	"33046"	"0"	"10"	"25"
"46"	"2"	"파이어애그"	"100842"	"32736"	"33019"	"0"	"10"	"20"
"47"	"2"	"라바골렘"	"100844"	"32736"	"33019"	"0"	"8"	"20"
"48"	"2"	"Phoenix"	"100845"	"32736"	"33019"	"0"	"8"	"20"
"49"	"2"	"알"	"100839"	"32736"	"33019"	"0"	"1"	"1"
"51"	"0"	"빛데스"	"100848"	"32623"	"33057"	"6"	"1"	"1"
"52"	"4"	"Phoenix(보스)"	"100849"	"32836"	"32773"	"0"	"1"	"1"
"53"	"5"	"Ifrit(보스)"	"100850"	"32836"	"32773"	"0"	"1"	"1"
"54"	"6"	"Valakas(보스)"	"100858"	"32833"	"32769"	"0"	"1"	"1"
"55"	"4"	"Phoenix"	"100856"	"32834"	"32771"	"0"	"2"	"5"
"56"	"0"	"알"	"100852"	"32620"	"33067"	"0"	"1"	"1"
"57"	"0"	"알"	"100852"	"32615"	"33049"	"0"	"1"	"1"
"58"	"0"	"알"	"100852"	"32597"	"33057"	"0"	"1"	"1"
"59"	"0"	"알"	"100852"	"32600"	"33038"	"0"	"1"	"1"
"60"	"0"	"알"	"100852"	"32620"	"33044"	"0"	"1"	"1"
"61"	"0"	"알"	"100852"	"32629"	"33040"	"0"	"1"	"1"
"62"	"0"	"알"	"100852"	"32633"	"33028"	"0"	"1"	"1"
"63"	"0"	"알"	"100852"	"32636"	"33016"	"0"	"1"	"1"
"64"	"0"	"알"	"100852"	"32624"	"33009"	"0"	"1"	"1"
"65"	"0"	"알"	"100852"	"32612"	"33020"	"0"	"1"	"1"
"66"	"0"	"알"	"100852"	"32600"	"33003"	"0"	"1"	"1"
"67"	"0"	"알"	"100852"	"32608"	"32992"	"0"	"1"	"1"
"68"	"0"	"알"	"100852"	"32958"	"32988"	"0"	"1"	"1"
"69"	"0"	"알"	"100852"	"32594"	"32995"	"0"	"1"	"1"
"70"	"0"	"알"	"100852"	"32608"	"32979"	"0"	"1"	"1"
"71"	"0"	"알"	"100852"	"32624"	"32977"	"0"	"1"	"1"
"72"	"0"	"알"	"100852"	"32652"	"32980"	"0"	"1"	"1"
"73"	"0"	"알"	"100852"	"32655"	"33021"	"0"	"1"	"1"
"74"	"0"	"알"	"100852"	"32663"	"33037"	"0"	"1"	"1"
"75"	"0"	"알"	"100852"	"32649"	"33040"	"0"	"1"	"1"
"76"	"0"	"알"	"100852"	"32648"	"33053"	"0"	"1"	"1"
"77"	"0"	"알"	"100852"	"32657"	"33067"	"0"	"1"	"1"
"78"	"0"	"알"	"100852"	"32674"	"33049"	"0"	"1"	"1"
"79"	"0"	"알"	"100852"	"32689"	"33017"	"0"	"1"	"1"
"80"	"0"	"알"	"100852"	"32678"	"33056"	"0"	"1"	"1"
"81"	"0"	"알"	"100852"	"32690"	"33061"	"0"	"1"	"1"
"82"	"0"	"알"	"100852"	"32693"	"32980"	"0"	"1"	"1"
"83"	"0"	"알"	"100852"	"32676"	"32979"	"0"	"1"	"1"
"84"	"0"	"알"	"100852"	"32710"	"32998"	"0"	"1"	"1"
"85"	"0"	"알"	"100852"	"32703"	"33057"	"0"	"1"	"1"
"86"	"0"	"알"	"100852"	"32723"	"33036"	"0"	"1"	"1"
"87"	"0"	"알"	"100852"	"32725"	"33011"	"0"	"1"	"1"
"88"	"0"	"알"	"100852"	"32716"	"33020"	"0"	"1"	"1"
"89"	"0"	"알"	"100852"	"32746"	"33032"	"0"	"1"	"1"
