"spellId"	"name"	"icon"	"xicon"
"0"	"Lesser Heal"	"383"	"333"
"1"	"Light"	"384"	"334"
"2"	"Shield"	"385"	"335"
"3"	"Energy Bolt"	"386"	"336"
"4"	"Teleport"	"387"	"337"
"5"	"Ice Dagger"	"657"	"658"
"6"	"Wind Cutter"	"663"	"664"
"7"	"Holy Weapon"	"775"	"776"
"8"	"Cure Poison"	"388"	"338"
"9"	"Chill Touch"	"389"	"339"
"10"	"Cuse:포이즌"	"390"	"340"
"11"	"Enchant Weapon"	"391"	"341"
"12"	"Dectect"	"392"	"342"
"13"	"Decrease Weight"	"755"	"756"
"14"	"Fire Arrow"	"651"	"652"
"15"	"Quake"	"659"	"660"
"16"	"Lightning"	"393"	"343"
"17"	"Turn Undead"	"394"	"344"
"18"	"Heal"	"395"	"345"
"19"	"Cuse:블라인드"	"396"	"346"
"20"	"Blessed Armor"	"397"	"347"
"21"	"Frozen Cloud"	"655"	"656"
"22"	"Weak Element"	"848"	"849"
"24"	"Fireball"	"398"	"348"
"25"	"Enchant: DEX"	"399"	"349"
"26"	"Weapon Break"	"400"	"350"
"27"	"Vampire Touch"	"401"	"351"
"28"	"Slow"	"402"	"352"
"29"	"Earth Jail"	"647"	"648"
"30"	"Counter Magic"	"746"	"747"
"31"	"Meditation"	"793"	"794"
"32"	"Cuse:패럴라이즈"	"403"	"353"
"33"	"Call Lighting"	"404"	"354"
"34"	"Greater Heal"	"405"	"355"
"35"	"Tame Monster"	"406"	"356"
"36"	"Remove Curse"	"407"	"357"
"37"	"Cone of Cold"	"643"	"644"
"38"	"Mana Drain"	"791"	"792"
"39"	"Darkness"	"749"	"750"
"40"	"Create Zombie"	"408"	"358"
"41"	"Enchant: STR"	"409"	"359"
"42"	"Haste"	"410"	"360"
"43"	"Cancel"	"500"	"411"
"44"	"Eruption"	"412"	"362"
"45"	"Sunburst"	"661"	"662"
"46"	"Weakness"	"850"	"851"
"47"	"Bless Weapon"	"726"	"727"
"48"	"Heal All"	"413"	"363"
"49"	"Ice Lance"	"414"	"364"
"50"	"Summon"	"415"	"365"
"51"	"Holy Walk"	"1578"	"366"
"52"	"Tornado"	"417"	"367"
"53"	"Greater Haste"	"622"	"623"
"54"	"Berserker"	"1570"	"1587"
"55"	"Disease"	"758"	"759"
"56"	"Full Heal"	"418"	"368"
"57"	"Firewall"	"419"	"369"
"58"	"Blizzard"	"420"	"370"
"59"	"Invisibility"	"421"	"371"
"60"	"Resurrection"	"422"	"372"
"61"	"Earth Quake"	"649"	"650"
"62"	"Life Stream"	"784"	"1599"
"63"	"Silence"	"822"	"823"
"64"	"Lighting Storm"	"1579"	"1600"
"65"	"Fog of Sleep"	"424"	"374"
"66"	"Polymorph"	"425"	"375"
"67"	"Immune To Harm"	"426"	"376"
"68"	"Mass Teleport"	"427"	"377"
"69"	"Fire Storm"	"653"	"654"
"70"	"Decay Potion"	"752"	"753"
"71"	"Counter Detect"	"1571"	"779"
"72"	"데스힐"	"7438"	"7439"
"73"	"Meteor Strike"	"429"	"379"
"74"	"Greater Resurrection"	"1577"	"1596"
"75"	"Mass Slow"	"1582"	"1603"
"76"	"Disintegrate"	"432"	"382"
"77"	"Absolute Barrier"	"715"	"716"
"78"	"Advanced Spirit"	"1610"	"1879"
"79"	"Ice Spike"	"5737"	"5797"
"86"	"Shock Stun"	"1624"	"1625"
"87"	"Reduction Armor"	"1887"	"1888"
"88"	"Bounce Attack"	"1881"	"1882"
"89"	"Solid Carriage"	"2349"	"2350"
"90"	"Counter Barrier"	"2343"	"2344"
"91"	"앱솔루트 블레이드"	"7431"	"7432"
"92"	"프라이드"	"8855"	"8854"
"93"	"블로우 어택"	"8844"	"8843"
"94"	"Counter Barrier:베테랑"	"8850"	"8849"
"95"	"Double Break:데스티니"	"8841"	"8840"
"96"	"Blind Hiding"	"1097"	"1099"
"97"	"Enchant Venom"	"1100"	"1102"
"98"	"Shadow Armor"	"1103"	"1105"
"99"	"Purify Stone"	"1106"	"1108"
"100"	"Moving Acceleration"	"1109"	"1111"
"101"	"Burning Spirit"	"1112"	"1114"
"102"	"Shadow Sleep"	"1115"	"1117"
"103"	"Venom Resist"	"1118"	"1120"
"104"	"Double Break"	"1121"	"1123"
"105"	"엔케니 닷지"	"1124"	"1126"
"106"	"Shadow Fang"	"1127"	"1129"
"107"	"Final Burn"	"1130"	"1132"
"108"	"Dress Mighty"	"1574"	"1574"
"109"	"Dress Dexterity"	"1575"	"960"
"110"	"Dress Evasion"	"1611"	"1611"
"111"	"아머 브레이크"	"4471"	"4472"
"112"	"True Target"	"894"	"894"
"113"	"Glowing Weapon"	"878"	"878"
"114"	"Shining Shield"	"875"	"876"
"115"	"샤이닝 아머"	"883"	"884"
"116"	"Brave Aura"	"885"	"886"
"117"	"마제스티"	"1751"	"1752"
"118"	"아머 브레이크:데스티니"	"8847"	"8847"
"120"	"아우라"	"5734"	"5735"
"121"	"그레이스"	"7426"	"7427"
"122"	"엠파이어"	"9195"	"9194"
"128"	"Resist Magic"	"811"	"812"
"129"	"Body to Mind"	"731"	"732"
"130"	"Teleport to Mother"	"846"	"847"
"131"	"Body to Mind"	"1755"	"1880"
"132"	"Elemental Falldown"	"1744"	"1739"
"133"	"Elven Gravity"	"4553"	"4554"
"134"	"소울 배리어"	"7434"	"7435"
"135"	"인페르노"	"9198"	"9197"
"136"	"Clear Mind"	"743"	"744"
"137"	"Resist Element"	"802"	"803"
"144"	"Return to Nature"	"820"	"821"
"145"	"Blood to Soul"	"729"	"730"
"146"	"Elemental Protection"	"871"	"872"
"147"	"Fire Weapon"	"7069"	"773"
"148"	"Wind Shot"	"7061"	"854"
"149"	"이글 아이"	"8492"	"8491"
"150"	"Earth Skin"	"7050"	"762"
"151"	"Entangle"	"7052"	"765"
"152"	"Erase Magic"	"767"	"768"
"153"	"Summon Lesser Elemental"	"867"	"868"
"154"	"Dancing Blaze"	"7064"	"734"
"155"	"Storm Scale"	"7060"	"770"
"156"	"Earth Bind"	"7049"	"892"
"157"	"Nature's Touch"	"7054"	"800"
"158"	"Earth Guardian"	"7048"	"724"
"159"	"Aqua Protect"	"7055"	"2341"
"160"	"Area of Silence"	"720"	"721"
"161"	"Summon Greater Elemental"	"869"	"870"
"162"	"Burning Weapon"	"7065"	"737"
"163"	"Nature's Blessing"	"7053"	"797"
"165"	"Storm Shot"	"7058"	"826"
"166"	"Cyclone"	"9191"	"9190"
"167"	"Iron Skin"	"7047"	"782"
"168"	"Exotic Vitalize"	"7051"	"1738"
"169"	"Water Life"	"7056"	"1757"
"170"	"Elemental Fire"	"7068"	"1735"
"172"	"Pollute Water"	"7057"	"2347"
"173"	"Striker Gale"	"7059"	"2356"
"174"	"Flame Soul"	"7066"	"2353"
"175"	"Additional Fire"	"7067"	"2338"
"176"	"포커스 웨이브"	"8482"	"8481"
"177"	"허리케인"	"8498"	"8497"
"178"	"샌드 스톰"	"8489"	"8488"
"180"	"Dragon Skin"	"3079"	"3080"
"181"	"Burning Slash"	"3076"	"3180"
"182"	"Guard 브레이크"	"3083"	"3084"
"184"	"Awakening: Antharas"	"3181"	"3182"
"185"	"Blood Lust"	"3074"	"3075"
"186"	"Foe Slayer"	"3081"	"3185"
"187"	"피어"	"3090"	"3091"
"188"	"Magma Arrow"	"4559"	"4560"
"189"	"Awakening: Fafurion"	"3183"	"3184"
"190"	"Mortal Body"	"3088"	"3089"
"191"	"Thunder Grab"	"3093"	"3191"
"192"	"호러 오브 Death"	"3085"	"3086"
"193"	"Eye of Dragon"	"4583"	"4583"
"194"	"Awakening:Valakas"	"3077"	"3078"
"196"	"Awakening:Lindvior"	"8887"	"8888"
"197"	"Thunder Grab:브레이브"	"8846"	"8846"
"198"	"Foe Slayer:브레이브"	"8853"	"8853"
"200"	"Mirror Image"	"3122"	"3123"
"201"	"Confusion"	"3098"	"3195"
"202"	"Smash Energy"	"3130"	"3108"
"203"	"Illusion: Ogre"	"3116"	"3205"
"204"	"큐브:이그니션"	"3102"	"3101"
"205"	"Concentration"	"3096"	"3194"
"206"	"Mind Break"	"3121"	"3208"
"207"	"Bone Break"	"3095"	"3193"
"208"	"Illusion: Lich"	"3114"	"3204"
"209"	"큐브:퀘이크"	"3105"	"3104"
"210"	"Patience"	"3126"	"3100"
"211"	"Phantasm"	"3128"	"3103"
"212"	"Eye Breaker"	"3094"	"3192"
"213"	"Illusion:다이아몬드골렘"	"2112"	"3203"
"214"	"큐브:쇼크"	"3107"	"3106"
"215"	"Insight"	"3118"	"3206"
"216"	"Panic"	"3124"	"3210"
"217"	"Reduce Weight"	"3120"	"3207"
"218"	"Illusion: Avatar"	"3110"	"3202"
"219"	"큐브:밸런스"	"3099"	"3101"
"221"	"임팩트"	"7455"	"7456"
"224"	"하울"	"6191"	"6207"
"225"	"기간틱"	"6180"	"6196"
"226"	"포스 Stun"	"6189"	"6205"
"227"	"파워 그립"	"6188"	"6204"
"228"	"Touma 호크"	"6458"	"6457"
"229"	"데스페라도"	"6501"	"6503"
"230"	"타이탄:라이징"	"7459"	"7460"
"231"	"데스페라도:앱솔루트"	"8842"	"8842"
"233"	"루시퍼"	"8880"	"8880"
"234"	"슬레이어"	"6182"	"6189"
"235"	"크래쉬"	"6184"	"6200"
"236"	"아머 Guard"	"6183"	"6199"
"237"	"타이탄:락"	"6185"	"6201"
"238"	"타이탄:블릿"	"6187"	"6203"
"239"	"타이탄:매직"	"6186"	"6202"
"240"	"프라임"	"9712"	"9712"
