"seq"	"item_name"	"item_keyword"
"1"	"Enchant Weapon Scroll"	"데이"
"2"	"Enchant Armor Scroll"	"젤"
"3"	"Teleport Control Ring"	"Ivan"
"4"	"순간 이동 Scroll"	"순줌"
"5"	"Red Knight의 Greatsword"	"붉대"
"6"	"Pretender King Greatsword"	"무양"
"7"	"Polymorph Control Ring"	"변반"
"8"	"Ancient 다프Elf의 Dagger"	"고다검"
"9"	"드래곤의 Diamond Box"	"드상"
"10"	"Oriharukon Dagger"	"오단"
"11"	"지휘관의 Helmet"	"지투"
"12"	"마법의 Helmet(힘)"	"힘투"
"13"	"마법의 Helmet(Fast)"	"신투"
"14"	"속도 향상 Potion"	"촐기"
"15"	"Greater 속도 향상 Potion"	"강촐"
"16"	"Twig of Ent"	"엔줄"
"17"	"Fruit of Ent"	"엔열"
"18"	"Thebes Osiris Bow"	"테활"
"19"	"Thebes Osiris Two-handed Sword"	"테양"
"20"	"Staff of Thebes Osiris"	"테지"
"21"	"Thebes Osiris Edoryu"	"테이"
"22"	"Thebes Anubis Ring"	"힘반"
"23"	"Thebes Osiris Belt"	"테벨"
"24"	"Iron Boots"	"강부"
"25"	"Iron Axe"	"강도"
"26"	"Black Edoryu"	"흑이"
"27"	"Defiler's Chainsword"	"파체"
"28"	"극한의 Chainsword"	"극체"
"29"	"환영의 Chainsword"	"환체"
"30"	"섬멸자의 Chainsword"	"섬체"
"31"	"Pretender King Helmet"	"무투"
"32"	"Pretender King Shield"	"무방"
"33"	"Pretender King Armor"	"무갑"
"34"	"Pretender King Cloak"	"무망"
"35"	"Pretender King Long Sword"	"On"
"36"	"Pretender King Boots"	"무부"
"37"	"New King Robe"	"신롭"
"38"	"New King Book of Magical Powers"	"신마"
"39"	"New King Boots"	"신부"
"40"	"New King Gloves"	"신장"
"41"	"New King Cloak"	"신망"
"42"	"New King Staff"	"신지"
"43"	"Berserker Axe"	"광도"
"44"	"Kukulkan's Spear"	"쿠창"
"45"	"Kukulkan's Gauntlet"	"쿠건"
"46"	"Kukulkan's Mask"	"쿠마"
"47"	"Kukulkan's Shield"	"쿠방"
"48"	"Silver Cloak"	"은망"
"49"	"Cloak of Invisibility"	"투망"
"50"	"Cloak of Magic Resistance"	"마망"
"51"	"Elven T-Shirt"	"요티"
"52"	"파괴의 Longbow"	"파장"
"53"	"Longbow of Moon"	"달장"
"54"	"Silver Edoryu"	"은이"
"55"	"Magic Gem"	"마돌"
"56"	"Spirit Gem"	"정옥"
"57"	"Blank Scroll"	"빈줌"
"58"	"Ancient Warrior Garder"	"고투사"
"59"	"Ancient Archer Garder"	"명가더"
"60"	"Ancient Elf Bow"	"고요활"
"61"	"Ancient Leather Armor"	"고가죽"
"62"	"Ancient Plate Mail"	"고판"
"63"	"Ancient Robe"	"고롭"
"64"	"Ancient Scale Mail"	"고Scale"
"65"	"블러드서커"	"블서"
"66"	"Helmet of Magic Resistance"	"마투"
"67"	"Magic Resistance Chain Mail"	"마사"
"68"	"완력의 Belt"	"완벨"
"69"	"Dexterity Belt"	"민벨"
"70"	"Ogre Belt"	"오벨"
"71"	"Troll Belt"	"트벨"
"72"	"Polymorph Scroll"	"변줌"
"73"	"Dark Elder Sandals"	"흑샌"
"74"	"Shadow Gloves"	"그장"
"75"	"파워글로브"	"파글"
"76"	"Stone Gloves"	"돌장"
"77"	"Crystal Gloves"	"수장"
"78"	"Cloak of Mana"	"마토"
"79"	"Crystal Staff"	"수지"
"80"	"Crystal Dagger"	"수단"
"81"	"Mithril Dagger"	"미단"
"82"	"Lich Robe"	"리롭"
"83"	"Knight Vald Two-handed Sword"	"나양"
"84"	"Knight Vald Two-handed Sword"	"나발"
"85"	"Laia's Ring"	"Laban"
"86"	"Sword of Silence"	"침검"
"87"	"Amulet of Strength"	"완목"
"88"	"Amulet of Intelligence"	"지목"
"89"	"Amulet of Charisma"	"매목"
"90"	"Amulet of Dexterity"	"민목"
"91"	"Pumpkin Necklace"	"호목"
"92"	"Dice Dagger"	"악단"
"93"	"Dark Boots"	"어부"
"94"	"Shadow Boots"	"그부"
"95"	"Polymorph Wand"	"변막"
"96"	"Greatsword of Doom"	"파대"
"97"	"Dexterity Boots"	"민부"
"98"	"완력의 Boots"	"완부"
"99"	"Wisdom Boots"	"지부"
"100"	"Finger of Chaos"	"혼손"
"101"	"반역자의 Shield"	"반방"
"102"	"Counter Magic"	"카매"
"103"	"Advanced Spirit"	"어밴"
"104"	"어드벤스 스피릿"	"어벤"
