15
14997 18285,18274,18275,18276,18277,18286,18285
14998 18285,18278,18279,18280,18281,18286,18285
15211 18285,18282,18283,18285
15002 18285,18300,18299,18285
15201 18285,18388,18385,18285
15202 18285,18388,18385,18285
15224 18285,18386,18387,18285
15225 18285,18384,18385,18285
15270 18285,18389,18385,18285
15271 18285,18389,18385,18285
16540 18285,23017
16541 18285,23017
16542 18285,22532,22533
14092 18285,24820
